EDI_IFCHG_20180608
TableName	Actflag	Created	Changed	IfchgID	SecID	ISIN	NotificationDate	OldIntPayFrqncy	OldIntPayDate1	OldIntPayDate2	OldIntPayDate3	OldIntPayDate4	NewIntPayFrqncy	NewIntPayDate1	NewIntPayDate2	NewIntPayDate3	NewIntPayDate4	Eventtype
IFCHG	D	2010/01/06	2018/06/08	58893	202882	JP356680A443	2004/04/24	SMA	3003	3009			SMA	3009	3003			CORR
IFCHG	I	2011/12/07	2011/12/07	82010	1294339	JP2230001915	2009/01/31	SMA					SMA	3007	3001			CORR
IFCHG	I	2018/06/08	2018/06/08	114919	3910131	CH0194836364	2018/06/08	ANL	0806				ANL	0806				REVERT
IFCHG	I	2015/08/12	2015/08/12	135652	3973244	JP2230001D10	2013/02/01	SMA	3107	3101			SMA	3101	3107			CORR
IFCHG	I	2015/08/12	2015/08/12	135654	4006618	JP2230001D36	2013/03/29	SMA	2809	2803			SMA	2803	2809			CORR
IFCHG	I	2015/08/12	2015/08/12	135657	3984694	JP2230003D26	2013/03/01	SMA	2808	2802			SMA	2802	2808			CORR
IFCHG	I	2018/06/02	2018/06/04	161245	5548663	XS1825431288	2018/05/24	SMA	2501	2507			SMA					CORR
IFCHG	I	2018/06/08	2018/06/08	161376	3982904	JP352480AD23	2013/02/27	SMA	3009	3003			SMA	3103	3009			CORR
IFCHG	I	2018/06/08	2018/06/08	161377	4350781	JP352660AE99	2014/09/19	SMA	2003	2009			SMA	2503	2509			CORR
IFCHG	I	2018/06/08	2018/06/08	161384	4979243	JP355150AG97	2016/09/08	SMA					SMA	2003	2009			CORR
IFCHG	I	2018/06/08	2018/06/08	161387	5553368	DE000LB1P696	2018/05/29	QTR	0103	0106	0109	0112	QTR	2802	3105	3108	3011	CORR
IFCHG	I	2018/06/08	2018/06/08	161388	4979247	JP355150BG96	2016/09/08	SMA					SMA	2003	2009			CORR
IFCHG	I	2018/06/08	2018/06/08	161392	202858	JP356680A229	2002/02/15	SMA	3003	3009			SMA	3103	3009			CORR
IFCHG	I	2018/06/08	2018/06/08	161393	202862	JP356680A252	2002/05/10	SMA	3003	3009			SMA	3103	3009			CORR
IFCHG	I	2018/06/08	2018/06/08	161395	202875	JP356680A351	2003/05/09	SMA	3003	3009			SMA	3103	3009			CORR
IFCHG	I	2018/06/08	2018/06/08	161398	202877	JP356680A369	2003/06/12	SMA	3003	3009			SMA	3103	3009			CORR
IFCHG	I	2018/06/08	2018/06/08	161399	202880	JP356680A419	2004/01/29	SMA	3003	3009			SMA	3103	3009			CORR
IFCHG	I	2018/06/08	2018/06/08	161400	202882	JP356680A443	2004/04/23	SMA	3003	3009			SMA	3103	3009			CORR
IFCHG	I	2018/06/08	2018/06/08	161401	4189583	JP356680AE13	2014/01/28	SMA	3009	3003			SMA	3103	3009			CORR
IFCHG	I	2018/06/08	2018/06/08	161403	5563298	ZAG000147885	2018/06/06	QTR	1402	1405	1408	1411	SMA	1405	1411			CORR
IFCHG	I	2018/06/08	2018/06/08	161404	5563298	ZAG000147885	2022/11/14	SMA	1405	1411			QTR	1402	1405	1408	1411	IFCHG
EDI_ENDOFFILE
