EDI_PRCHG_20180608
TableName	Actflag	Created	Changed	PrchgID	SecID	EffectiveDate	EventType	OldExchgCD	NewExchgCD	Notes
PRCHG	I	2018/04/16	2018/04/16	233261	5503416	2018/04/09	CORR	BRBND		
PRCHG	I	2018/04/16	2018/04/16	233262	5503416	2018/04/10	CORR		BRBVSP	
PRCHG	I	2018/05/17	2018/05/17	236878	5533567	2018/05/16	CORR		AUBND	
PRCHG	I	2018/05/29	2018/05/29	239455	5542247	2018/05/24	CORR	XSBND		
PRCHG	I	2018/05/29	2018/05/29	239456	5542247	2018/05/25	CORR		IEISE	
PRCHG	I	2018/05/29	2018/05/29	239480	5541758	2018/05/28	CORR	XSBND		
PRCHG	I	2018/05/29	2018/05/29	239482	5529645	2018/05/18	CORR	XSBND		
PRCHG	I	2018/05/29	2018/05/29	239487	5541758	2018/05/29	CORR		LULSE	
PRCHG	I	2018/05/29	2018/05/29	239490	5529645	2018/05/19	CORR		LULSE	
PRCHG	I	2018/05/29	2018/05/29	239521	5547347	2018/05/23	CORR	XSBND		
PRCHG	I	2018/05/29	2018/05/29	239522	5547347	2018/05/24	CORR		IEISE	
PRCHG	I	2018/05/29	2018/05/29	239523	5548663	2018/05/24	CORR	XSBND		
PRCHG	I	2018/05/29	2018/05/29	239524	5548663	2018/05/25	CORR		IEISE	
PRCHG	I	2018/05/29	2018/05/29	239559	5549999	2018/05/28	CORR	XSBND		
PRCHG	I	2018/05/29	2018/05/29	239562	5549999	2018/05/29	CORR		IEISE	
PRCHG	I	2018/05/29	2018/05/29	239578	5548765	2018/05/28	CORR	XSBND		
PRCHG	I	2018/05/29	2018/05/29	239582	5548765	2018/05/29	CORR		IEISE	
PRCHG	I	2018/05/30	2018/05/30	239860	4568771	2018/05/28	CORR	XSBND		
PRCHG	I	2018/05/30	2018/05/30	239861	4568771	2018/05/29	CORR		IEISE	
PRCHG	I	2018/05/30	2018/05/30	239864	4568756	2018/05/28	CORR	XSBND		
PRCHG	I	2018/05/30	2018/05/30	239865	4568756	2018/05/29	CORR		IEISE	
PRCHG	I	2018/05/30	2018/05/30	239866	4568782	2018/05/28	CORR	XSBND		
PRCHG	I	2018/05/30	2018/05/30	239867	4568782	2018/05/29	CORR		IEISE	
PRCHG	I	2018/05/30	2018/05/30	239868	4568776	2018/05/28	CORR	XSBND		
PRCHG	I	2018/05/30	2018/05/30	239869	4568776	2018/05/29	CORR		IEISE	
PRCHG	I	2018/05/30	2018/05/30	239870	4568774	2018/05/28	CORR	XSBND		
PRCHG	I	2018/05/30	2018/05/30	239871	4568774	2018/05/29	CORR		IEISE	
PRCHG	I	2018/05/30	2018/05/30	239872	4568762	2018/05/28	CORR	XSBND		
PRCHG	I	2018/05/30	2018/05/30	239873	4568762	2018/05/29	CORR		IEISE	
PRCHG	I	2018/05/30	2018/05/30	239874	4568871	2018/05/28	CORR	XSBND		
PRCHG	I	2018/05/30	2018/05/30	239875	4568871	2018/05/29	CORR		IEISE	
PRCHG	I	2018/05/30	2018/05/30	239876	4568768	2018/05/28	CORR	XSBND		
PRCHG	I	2018/05/30	2018/05/30	239877	4568768	2018/05/29	CORR		IEISE	
PRCHG	I	2018/05/30	2018/05/30	239901	5547336	2018/05/28	CORR	XSBND		
PRCHG	I	2018/05/30	2018/05/30	239902	5547336	2018/05/29	CORR		IEISE	
PRCHG	I	2018/05/31	2018/05/31	239973	5531496	2018/05/30	CORR	XSBND		
PRCHG	I	2018/05/31	2018/05/31	239974	5541775	2018/05/29	CORR	XSBND		
PRCHG	I	2018/05/31	2018/05/31	239976	5546102	2018/05/30	CORR	XSBND		
PRCHG	I	2018/05/31	2018/05/31	239978	5474189	2018/03/27	CORR	XSBND		
PRCHG	I	2018/05/31	2018/05/31	239979	5542287	2018/05/29	CORR	XSBND		
PRCHG	I	2018/05/31	2018/05/31	239980	5542314	2018/05/30	CORR	XSBND		
PRCHG	I	2018/05/31	2018/05/31	239981	5544521	2018/05/30	CORR	XSBND		
PRCHG	I	2018/05/31	2018/05/31	239986	5551166	2018/05/22	CORR	XSBND		
PRCHG	I	2018/05/31	2018/05/31	239992	5531496	2018/05/31	CORR		LULSE	
PRCHG	I	2018/05/31	2018/05/31	239993	5541775	2018/05/30	CORR		LULSE	
PRCHG	I	2018/05/31	2018/05/31	239995	5546102	2018/05/31	CORR		LULSE	
PRCHG	I	2018/05/31	2018/05/31	239997	5474189	2018/03/28	CORR		LULSE	
PRCHG	I	2018/05/31	2018/05/31	239998	5542287	2018/05/30	CORR		LULSE	
PRCHG	I	2018/05/31	2018/05/31	239999	5542314	2018/05/31	CORR		LULSE	
PRCHG	I	2018/05/31	2018/05/31	240000	5544521	2018/05/31	CORR		LULSE	
PRCHG	I	2018/05/31	2018/05/31	240005	5551166	2018/05/23	CORR		LULSE	
PRCHG	I	2018/05/31	2018/05/31	240013	5553936	2018/05/29	CORR	XSBND		
PRCHG	I	2018/05/31	2018/05/31	240014	5553936	2018/05/30	CORR		LULSE	
PRCHG	I	2018/06/01	2018/06/01	240153	5547969	2018/05/31	CORR	XSBND		
PRCHG	I	2018/06/01	2018/06/01	240167	5547969	2018/06/01	CORR		LULSE	
PRCHG	I	2018/06/01	2018/06/01	240181	5548991	2018/06/01	CORR	INBND	INBSE	
PRCHG	I	2018/06/04	2018/06/04	240726	5520842	2018/06/03	CORR	KRBND		
PRCHG	I	2018/06/04	2018/06/04	240727	5520842	2018/06/04	CORR		KRKSE	
PRCHG	I	2018/06/04	2018/06/04	240732	5521067	2018/06/03	CORR	KRBND		
PRCHG	I	2018/06/04	2018/06/04	240733	5521067	2018/06/04	CORR		KRKSE	
PRCHG	I	2018/06/04	2018/06/04	240746	5533271	2018/06/03	CORR	KRBND		
PRCHG	I	2018/06/04	2018/06/04	240747	5533271	2018/06/04	CORR		KRKSE	
PRCHG	I	2018/06/04	2018/06/04	240762	5546504	2018/06/03	CORR	KRBND		
PRCHG	I	2018/06/04	2018/06/04	240763	5546504	2018/06/04	CORR		KRKSE	
PRCHG	I	2018/06/05	2018/06/05	240801	5557841	2018/06/01	CORR		USTRCE	
PRCHG	I	2018/06/05	2018/06/05	240831	5549102	2018/06/04	CORR	XSBND		
PRCHG	I	2018/06/05	2018/06/05	240867	5549102	2018/06/05	CORR		LULSE	
PRCHG	I	2018/06/07	2018/06/07	241143	5561158	2018/06/05	CORR	QABND		
PRCHG	I	2018/06/07	2018/06/07	241144	5561158	2018/06/06	CORR		QADSM	
PRCHG	I	2018/06/07	2018/06/07	241146	5559549	2018/06/06	CORR		USBND	
PRCHG	I	2018/06/07	2018/06/07	241176	5502501	2018/06/05	CORR	XSBND		
PRCHG	I	2018/06/07	2018/06/07	241177	5502501	2018/06/06	CORR		IEISE	
PRCHG	I	2018/06/08	2018/06/08	241231	5562881	2018/05/16	PRCHG		USBND	
PRCHG	I	2018/06/08	2018/06/08	241233	5520559	2018/06/01	CORR	XSBND		
PRCHG	I	2018/06/08	2018/06/08	241234	5520564	2018/06/01	CORR	XSBND		
PRCHG	I	2018/06/08	2018/06/08	241240	5559036	2018/06/06	CORR	XSBND		
PRCHG	I	2018/06/08	2018/06/08	241243	5520559	2018/06/02	CORR		LULSE	
PRCHG	I	2018/06/08	2018/06/08	241244	5520564	2018/06/02	CORR		LULSE	
PRCHG	I	2018/06/08	2018/06/08	241250	5559036	2018/06/07	CORR		LULSE	
PRCHG	I	2018/06/08	2018/06/08	241253	5472045	2018/03/19	CORR	IEISE		
PRCHG	I	2018/06/08	2018/06/08	241255	5472045	2018/03/20	CLEAN		IEISE	
PRCHG	I	2018/06/08	2018/06/08	241286	1757428	2018/06/06	CORR	EGCASE		
PRCHG	I	2018/06/08	2018/06/08	241296	1757428	2018/06/07	CORR		EGBND	
PRCHG	I	2018/06/08	2018/06/08	241301	5561558	2018/06/04	CORR	XSBND		
PRCHG	I	2018/06/08	2018/06/08	241302	5561558	2018/06/05	CORR		GBLSE	
PRCHG	I	2018/06/08	2018/06/08	241304	5561422	2018/06/07	CORR	DEBND		
PRCHG	I	2018/06/08	2018/06/08	241305	5561422	2018/06/08	CORR		DEFSX	
PRCHG	I	2018/06/08	2018/06/08	241334	5563492	2018/06/07	CORR	DKBND		
PRCHG	I	2018/06/08	2018/06/08	241335	5563492	2018/06/08	CORR		DKCSE	
PRCHG	I	2018/06/08	2018/06/08	241345	5559842	2018/06/06	CORR	USBND		
PRCHG	I	2018/06/08	2018/06/08	241346	5559842	2018/06/07	CORR		USTRCE	
PRCHG	I	2018/06/08	2018/06/08	241347	5559858	2018/06/06	CORR	USBND		
PRCHG	I	2018/06/08	2018/06/08	241348	5559858	2018/06/07	CORR		USTRCE	
PRCHG	I	2018/06/08	2018/06/08	241349	5563832	2018/06/06	CORR	ZABND		
PRCHG	I	2018/06/08	2018/06/08	241350	5563832	2018/06/07	CORR		ZAJSE	
PRCHG	I	2018/06/08	2018/06/08	241356	5474077	2018/03/12	CORR	INBND	INBSE	
PRCHG	I	2018/06/08	2018/06/08	241357	5460012	2018/03/06	CORR	INBND	INBSE	
PRCHG	I	2018/06/08	2018/06/08	241361	5565105	2018/06/06	CORR	USBND		
PRCHG	I	2018/06/08	2018/06/08	241362	5565105	2018/06/07	CORR		USTRCE	
PRCHG	I	2018/06/08	2018/06/08	241363	5564006	2018/06/06	CORR	USBND		
PRCHG	I	2018/06/08	2018/06/08	241364	5564006	2018/06/07	CORR		USTRCE	
PRCHG	I	2018/06/08	2018/06/08	241365	5564038	2018/06/06	CORR	USBND		
PRCHG	I	2018/06/08	2018/06/08	241366	5564038	2018/06/07	CORR		USTRCE	
PRCHG	I	2018/06/08	2018/06/08	241369	5554467	2018/06/05	CORR	ATBND		
PRCHG	I	2018/06/08	2018/06/08	241370	5554467	2018/06/06	CORR		ATVSE	
PRCHG	I	2018/06/08	2018/06/08	241374	5560998	2018/06/06	CORR	USTRCE		
PRCHG	I	2018/06/08	2018/06/08	241375	5560998	2018/06/07	CORR		DEBSE	
PRCHG	I	2018/06/08	2018/06/08	241378	5529920	2018/06/07	CORR	KRBND		
PRCHG	I	2018/06/08	2018/06/08	241379	5529920	2018/06/08	CORR		KRKSE	
PRCHG	I	2018/06/08	2018/06/08	241380	5538629	2018/06/07	CORR	KRBND		
PRCHG	I	2018/06/08	2018/06/08	241381	5538629	2018/06/08	CORR		KRKSE	
PRCHG	I	2018/06/08	2018/06/08	241382	5555006	2018/06/07	CORR	KRBND		
PRCHG	I	2018/06/08	2018/06/08	241383	5555006	2018/06/08	CORR		KRKSE	
PRCHG	I	2018/06/08	2018/06/08	241412	5563364	2018/06/06	CORR	NOBND		
PRCHG	I	2018/06/08	2018/06/08	241413	5563364	2018/06/07	CORR		NOOB	
PRCHG	I	2018/06/08	2018/06/08	241418	5556327	2018/06/06	CORR	NOBND		
PRCHG	I	2018/06/08	2018/06/08	241419	5556327	2018/06/07	CORR		NOOB	
PRCHG	I	2018/06/08	2018/06/08	241420	5565248	2018/06/08	CORR	XSBND		
PRCHG	I	2018/06/08	2018/06/08	241423	5560136	2018/06/06	CORR	DEBND		
PRCHG	I	2018/06/08	2018/06/08	241424	5560136	2018/06/07	CORR		DEFSX	
PRCHG	I	2018/06/08	2018/06/08	241425	5560149	2018/06/06	CORR	DEBND		
PRCHG	I	2018/06/08	2018/06/08	241426	5560149	2018/06/07	CORR		DEFSX	
PRCHG	I	2018/06/08	2018/06/08	241427	5560159	2018/06/06	CORR	DEBND		
PRCHG	I	2018/06/08	2018/06/08	241428	5560159	2018/06/07	CORR		DEFSX	
PRCHG	I	2018/06/08	2018/06/08	241429	5561336	2018/06/06	CORR	DEBND		
PRCHG	I	2018/06/08	2018/06/08	241430	5561336	2018/06/07	CORR		DEFSX	
PRCHG	I	2018/06/08	2018/06/08	241431	5561362	2018/06/06	CORR	DEBND		
PRCHG	I	2018/06/08	2018/06/08	241432	5561362	2018/06/07	CORR		DEFSX	
PRCHG	I	2018/06/08	2018/06/08	241435	5560181	2018/06/06	CORR	DEBND		
PRCHG	I	2018/06/08	2018/06/08	241436	5560181	2018/06/07	CORR		DEFSX	
PRCHG	I	2018/06/08	2018/06/08	241439	5563173	2018/06/07	CORR	DEBND		
PRCHG	I	2018/06/08	2018/06/08	241440	5563173	2018/06/08	CORR		DEFSX	
EDI_ENDOFFILE
