EDI_SCAGY_20180608
TableName	Actflag	Created	Changed	ScagyID	SecID	ISIN	Relationship	AgncyID	GuaranteeType	SpStartDate	SpEndDate	Notes
SCAGY	I	2011/05/02	2011/05/02	639128	2436039	JP2230003B28	UNW	12192				
SCAGY	I	2011/05/02	2011/05/02	639129	2436039	JP2230003B28	UNW	9103				
SCAGY	I	2011/05/02	2011/05/02	639557	2378115	JP2230001B12	UNW	12192				
SCAGY	I	2011/05/02	2011/05/02	639558	2378115	JP2230001B12	UNW	4512				
SCAGY	I	2011/05/02	2011/05/02	639559	2378115	JP2230001B12	TST	12192				
SCAGY	I	2011/05/04	2011/05/04	640685	2169752	JP2230002AA2	UNW	12192				
SCAGY	I	2011/05/04	2011/05/04	640686	2169752	JP2230002AA2	UNW	9491				
SCAGY	I	2011/05/04	2011/05/04	640687	2169752	JP2230002AA2	TST	12192				
SCAGY	I	2011/05/05	2011/05/05	641139	2221969	JP2230001AB2	UNW	12192				
SCAGY	I	2011/05/05	2011/05/05	641140	2221969	JP2230001AB2	UNW	8663				
SCAGY	I	2011/05/05	2011/05/05	641141	2221969	JP2230001AB2	TST	12192				
SCAGY	I	2011/05/06	2011/05/06	641427	2337258	JP2230002AC8	UNW	12192				
SCAGY	I	2011/05/06	2011/05/06	641428	2337258	JP2230002AC8	UNW	5390				
SCAGY	I	2011/05/06	2011/05/06	641429	2337258	JP2230002AC8	TST	12192				
SCAGY	I	2011/05/06	2011/05/06	641553	2616586	JP2230001B46	UNW	8451				
SCAGY	I	2011/05/06	2011/05/06	641554	2616586	JP2230001B46	UNW	8673				
SCAGY	I	2011/05/06	2011/05/06	641555	2616586	JP2230001B46	TST	8451				
SCAGY	I	2011/10/31	2011/10/31	722571	3198485	JP2230002BA0	UNW	12221				
SCAGY	I	2011/10/31	2011/10/31	722572	3198485	JP2230002BA0	UNW	7931				
SCAGY	I	2011/11/26	2011/11/26	735177	3291815	JP2230002BB8	UNW	14019				
SCAGY	I	2012/01/26	2012/01/26	760250	3478403	JP2230002C10	MGR	14019				
SCAGY	I	2012/02/25	2012/02/25	773278	3571926	JP2230003C27	MGR	14019				
SCAGY	I	2012/03/24	2012/03/24	786365	3667617	JP2230001C37	MGR	7928				
SCAGY	I	2012/04/16	2012/04/16	802674	3734054	TN0004201158	DEP	5309				
SCAGY	I	2012/04/16	2012/04/16	802716	3734055	TN0004201166	DEP	5309				
SCAGY	I	2012/12/13	2012/12/13	956977	3947682	JP2230001CC6	UNW	8927				
SCAGY	I	2012/12/13	2012/12/13	956978	3947682	JP2230001CC6	PA	14019				
SCAGY	I	2012/12/20	2012/12/20	960888	3952652	JP2230002CC4	PA	14019				
SCAGY	I	2012/12/20	2012/12/20	960889	3952652	JP2230002CC4	UNW	14019				
SCAGY	I	2013/01/30	2013/01/30	985969	3973244	JP2230001D10	UNW	7932				
SCAGY	I	2013/01/30	2013/01/30	985970	3973244	JP2230001D10	PA	14019				
SCAGY	I	2013/02/20	2013/02/20	997914	3984694	JP2230003D26	UNW	14019				
SCAGY	I	2013/02/20	2013/02/20	997915	3984694	JP2230003D26	PA	14019				
SCAGY	I	2013/03/25	2013/03/25	1022900	4006618	JP2230001D36	UNW	8927				
SCAGY	D	2014/03/21	2018/06/08	1306026	4221145	XS0856710578	CAL	8318				
SCAGY	I	2015/05/28	2015/05/28	1602342	4520816	XS1238914144	MGR	17771				
SCAGY	I	2015/07/29	2015/07/29	1648794	4568756	XS1138882375	DEP	3623				
SCAGY	I	2015/07/29	2015/07/29	1648797	4568762	XS1138882532	DEP	3623				
SCAGY	I	2015/07/29	2015/07/29	1648807	4568768	XS1138883183	DEP	3623				
SCAGY	I	2015/07/29	2015/07/29	1648809	4568771	XS1138883266	DEP	3623				
SCAGY	I	2015/07/29	2015/07/29	1648811	4568774	XS1138883340	DEP	3623				
SCAGY	I	2015/07/29	2015/07/29	1648812	4568776	XS1138883696	DEP	3623				
SCAGY	I	2015/07/29	2015/07/29	1648819	4568782	XS1138883852	DEP	3623				
SCAGY	I	2015/07/29	2015/07/29	1648912	4568871	XS1138883423	DEP	3623				
SCAGY	I	2015/08/12	2015/08/12	1659476	4006618	JP2230001D36	PA	8451				
SCAGY	I	2015/08/12	2015/08/12	1659479	3198485	JP2230002BA0	PA	8451				
SCAGY	I	2015/08/12	2015/08/12	1659481	3952652	JP2230002CC4	PA	8451				
SCAGY	I	2016/03/09	2016/03/09	1796630	4695307		MGR	6324				
SCAGY	I	2016/03/09	2016/03/09	1796631	4695307		TST	15860				
SCAGY	I	2016/03/25	2016/03/25	1809963	4715637		MGR	20729				
SCAGY	I	2016/03/25	2016/03/25	1809964	4715637		TST	15860				
SCAGY	I	2017/08/08	2017/08/08	2163724	5220077	CND10000HRG5	MGR	6332				
SCAGY	I	2017/08/08	2017/08/08	2163725	5220077	CND10000HRG5	TST	26823				
SCAGY	I	2017/11/01	2017/11/01	2228330	5316542	CND10000HV52	TST	34413				
SCAGY	I	2017/11/01	2017/11/01	2228331	5316544	CND10000HTZ1	TST	34413				
SCAGY	I	2017/11/01	2017/11/01	2228332	5316547	CND10000HTG1	TST	34413				
SCAGY	I	2017/12/11	2017/12/11	2260563	5359121	CND10000JCR0	MGR	35143				
SCAGY	I	2017/12/15	2017/12/15	2264117	5364731	CND10000L1X3	UNW	32471				
SCAGY	I	2018/01/23	2018/01/23	2292250	5364731	CND10000L1X3	TST	34413				
SCAGY	U	2018/03/01	2018/03/01	2323880	5448823	XS1775532390	DEP	3623				
SCAGY	I	2018/03/22	2018/03/22	2343383	5474189	XS1759970160	DEP	3565				
SCAGY	I	2018/04/16	2018/04/16	2365881	5502501	XS1414126802	DEP	3623				
SCAGY	I	2018/04/23	2018/04/23	2372007	5509864	XS1778556420	DEP	3565				
SCAGY	I	2018/04/24	2018/04/24	2373171	5511347	DE000DG4UGB3	UNW	37119				
SCAGY	I	2018/04/24	2018/04/24	2373172	5511347	DE000DG4UGB3	PA	37119				
SCAGY	I	2018/04/24	2018/04/24	2373199	5511371	DE000DG4UGC1	UNW	37119				
SCAGY	I	2018/04/24	2018/04/24	2373200	5511371	DE000DG4UGC1	PA	37119				
SCAGY	I	2018/04/24	2018/04/24	2373244	5511398	DE000DG4UGD9	UNW	37119				
SCAGY	I	2018/04/24	2018/04/24	2373245	5511398	DE000DG4UGD9	PA	37119				
SCAGY	I	2018/04/24	2018/04/24	2373264	5511429	DE000DG4UGE7	UNW	37119				
SCAGY	I	2018/04/24	2018/04/24	2373265	5511429	DE000DG4UGE7	PA	37119				
SCAGY	I	2018/04/24	2018/04/24	2373301	5511494	DE000DG4UGF4	UNW	37119				
SCAGY	I	2018/04/24	2018/04/24	2373302	5511494	DE000DG4UGF4	UNW	5598				
SCAGY	I	2018/04/24	2018/04/24	2373303	5511494	DE000DG4UGF4	PA	5598				
SCAGY	I	2018/04/24	2018/04/24	2373329	5511521	DE000DG4UGG2	UNW	37119				
SCAGY	I	2018/04/24	2018/04/24	2373330	5511521	DE000DG4UGG2	PA	37119				
SCAGY	I	2018/05/04	2018/05/04	2381660	5515184	CND10000LTC2	UNW	35312				Guangzhou Securities Co., Ltd. has been mandated as lead underwriter and bookrunner.
SCAGY	I	2018/05/04	2018/05/04	2381675	5520100	CND10000LTJ7	UNW	18784				Haitong Securities Co., Ltd. has been mandated as lead underwriter and bookrunner
SCAGY	I	2018/05/07	2018/05/07	2383647	5516341	CND10000LTK5	UNW	38163				Citic Securities Company Limited has been mandated as lead underwriter and bookrunner.
SCAGY	I	2018/05/09	2018/05/09	2385321	5527158	CND100010DZ7	UNW	35312				Guangzhou Securities Co., Ltd. has been mandated as lead underwriter and bookrunner
SCAGY	I	2018/05/11	2018/05/11	2386897	5529645	XS1797086631	DEP	3565				
SCAGY	I	2018/05/14	2018/05/14	2388121	5531496	XS1554295938	DEP	3560				
SCAGY	I	2018/05/16	2018/05/16	2390252	5520100	CND10000LTJ7	TST	34413				
SCAGY	I	2018/05/16	2018/05/16	2390256	5526378	CND100010DY0	TST	34413				
SCAGY	I	2018/05/16	2018/05/16	2390289	5527158	CND100010DZ7	TST	34413				
SCAGY	I	2018/05/22	2018/05/22	2394034	5530369	SE0010832782	MGR	11483				
SCAGY	I	2018/05/22	2018/05/22	2394426	5541758	XS1754472535	DEP	3560				
SCAGY	I	2018/05/22	2018/05/22	2394479	5541775	XS1715004948	DEP	3330				
SCAGY	I	2018/05/23	2018/05/23	2394682	5542247	XS1795290763	DEP	3317				
SCAGY	I	2018/05/23	2018/05/23	2394707	5542287	XS1771087407	DEP	4880				
SCAGY	I	2018/05/23	2018/05/23	2394721	5542314	XS1771089528	DEP	3623				
SCAGY	I	2018/05/23	2018/05/23	2394752	5515184	CND10000LTC2	TST	32565				
SCAGY	I	2018/05/23	2018/05/23	2394753	5515184	CND10000LTC2	MGR	39320				
SCAGY	I	2018/05/23	2018/05/23	2394759	5513867	CND100010FP3	TST	32565				
SCAGY	I	2018/05/23	2018/05/23	2394760	5513867	CND100010FP3	MGR	39321				
SCAGY	I	2018/05/23	2018/05/23	2394761	5515165	CND100010FQ1	MGR	32927				
SCAGY	I	2018/05/23	2018/05/23	2394762	5515165	CND100010FQ1	TST	32565				
SCAGY	I	2018/05/23	2018/05/23	2394776	5513865	CND10000LTD0	MGR	27940				
SCAGY	I	2018/05/23	2018/05/23	2394777	5513865	CND10000LTD0	TST	32565				
SCAGY	I	2018/05/24	2018/05/24	2396007	5544521	XS1771091268	DEP	4880				
SCAGY	I	2018/05/25	2018/05/25	2396703	5545212	US3130AEDW73	REG	3492				
SCAGY	I	2018/05/25	2018/05/25	2396704	5545212	US3130AEDW73	PA	3492				
SCAGY	I	2018/05/25	2018/05/25	2396709	5545215	US3130AEDX56	REG	3492				
SCAGY	I	2018/05/25	2018/05/25	2396710	5545215	US3130AEDX56	PA	3492				
SCAGY	I	2018/05/25	2018/05/25	2397445	5546102	XS1754478490	DEP	3560				
SCAGY	I	2018/05/25	2018/05/25	2397534	5516341	CND10000LTK5	MGR	16755				
SCAGY	I	2018/05/25	2018/05/25	2397535	5516341	CND10000LTK5	TST	32565				
SCAGY	I	2018/05/26	2018/05/28	2398097	5547336	XS1825541896	DEP	3556				
SCAGY	I	2018/05/26	2018/05/28	2398102	5547347	XS1824407875	DEP	3623				
SCAGY	I	2018/05/26	2018/05/28	2398327	5547969	XS1714974265	DEP	3330				
SCAGY	I	2018/05/28	2018/05/28	2398519	5548345	XS1776915933	DEP	3560				
SCAGY	I	2018/05/28	2018/05/28	2398697	5548663	XS1825431288	DEP	3623				
SCAGY	I	2018/05/28	2018/05/28	2398769	5548765	XS1826198175	DEP	3556				
SCAGY	I	2018/05/28	2018/05/28	2398883	5548991	INE537P07414	MGR	14218				
SCAGY	I	2018/05/28	2018/05/28	2398884	5548991	INE537P07414	TST	3161				
SCAGY	I	2018/05/28	2018/05/28	2398885	5548991	INE537P07414	REG	4936				
SCAGY	I	2018/05/28	2018/05/28	2399073	5549102	XS1754468772	DEP	3560				
SCAGY	I	2018/05/28	2018/05/28	2399462	5549999	XS1797511943	DEP	3623				
SCAGY	I	2018/05/29	2018/05/29	2399843	5542050	XS1826498641	DEP	3556				
SCAGY	I	2018/05/29	2018/05/29	2399844	5542016	XS1826499292	DEP	3556				
SCAGY	I	2018/05/29	2018/05/29	2400046	5551166	XS1810777190	DEP	3317				
SCAGY	I	2018/05/31	2018/05/31	2401547	5553703	US3133EJRF84	BC	9164				
SCAGY	I	2018/05/31	2018/05/31	2401548	5553703	US3133EJRF84	PA	3492				
SCAGY	I	2018/05/31	2018/05/31	2401549	5553703	US3133EJRF84	UNW	5088				
SCAGY	I	2018/05/31	2018/05/31	2401552	5553711	US3133EJRG67	BC	9164				
SCAGY	I	2018/05/31	2018/05/31	2401553	5553711	US3133EJRG67	PA	3492				
SCAGY	I	2018/05/31	2018/05/31	2401554	5553711	US3133EJRG67	UNW	8318				
SCAGY	I	2018/05/31	2018/05/31	2401686	5553936	XS1829209599	DEP	3623				
SCAGY	I	2018/06/01	2018/06/01	2402548	5555136	US3130AEET36	REG	3492				
SCAGY	I	2018/06/01	2018/06/01	2402549	5555136	US3130AEET36	PA	3492				
SCAGY	I	2018/06/02	2018/06/04	2403815	5557348	XS1753010039	CAL	17061				
SCAGY	I	2018/06/02	2018/06/04	2403816	5557348	XS1753010039	UNW	17021				
SCAGY	I	2018/06/02	2018/06/04	2403817	5557348	XS1753010039	REG	36842				
SCAGY	I	2018/06/02	2018/06/04	2403818	5557348	XS1753010039	MGR	17021				
SCAGY	I	2018/06/02	2018/06/04	2403819	5557348	XS1753010039	PA	17739				
SCAGY	I	2018/06/02	2018/06/04	2403820	5557348	XS1753010039	REG	36841				
SCAGY	I	2018/06/02	2018/06/04	2403821	5557348	XS1753010039	CAL	17021				
SCAGY	I	2018/06/02	2018/06/04	2403822	5557348	XS1753010039	BC	10482				
SCAGY	I	2018/06/02	2018/06/04	2403844	5557375	XS1753009379	GUR	15988	GTD			
SCAGY	I	2018/06/02	2018/06/04	2403845	5557375	XS1753009379	CAL	17021				
SCAGY	I	2018/06/02	2018/06/04	2403846	5557375	XS1753009379	UNW	17021				
SCAGY	I	2018/06/02	2018/06/04	2403847	5557375	XS1753009379	MGR	17021				
SCAGY	I	2018/06/02	2018/06/04	2403848	5557375	XS1753009379	PA	17739				
SCAGY	I	2018/06/02	2018/06/04	2403849	5557375	XS1753009379	REG	36841				
SCAGY	I	2018/06/02	2018/06/04	2403850	5557375	XS1753009379	BC	10482				
SCAGY	I	2018/06/02	2018/06/04	2404044	5554098	XS1831179988	UNW	3527				
SCAGY	I	2018/06/02	2018/06/04	2404057	5553936	XS1829209599	UNW	3638				
SCAGY	I	2018/06/02	2018/06/04	2404069	5542314	XS1771089528	MGR	17160				
SCAGY	I	2018/06/02	2018/06/04	2404091	5542050	XS1826498641	GUR	38751	OBG			
SCAGY	I	2018/06/02	2018/06/04	2404092	5542050	XS1826498641	UNW	8265				
SCAGY	I	2018/06/02	2018/06/04	2404101	5548663	XS1825431288	REG	32116				
SCAGY	I	2018/06/02	2018/06/04	2404102	5548663	XS1825431288	CAL	32116				
SCAGY	I	2018/06/02	2018/06/04	2404103	5548663	XS1825431288	PA	31097				
SCAGY	I	2018/06/02	2018/06/04	2404104	5548663	XS1825431288	UNW	32116				
SCAGY	I	2018/06/02	2018/06/04	2404112	5547347	XS1824407875	PA	31097				
SCAGY	I	2018/06/02	2018/06/04	2404113	5547347	XS1824407875	UNW	32116				
SCAGY	I	2018/06/02	2018/06/04	2404122	5531496	XS1554295938	GUR	2192	GTD			
SCAGY	I	2018/06/02	2018/06/04	2404123	5531496	XS1554295938	CAL	2192				
SCAGY	I	2018/06/02	2018/06/04	2404124	5531496	XS1554295938	CAL	12977				
SCAGY	I	2018/06/02	2018/06/04	2404125	5542016	XS1826499292	GUR	38751	GTD			
SCAGY	I	2018/06/02	2018/06/04	2404134	5542016	XS1826499292	UNW	8265				
SCAGY	I	2018/06/04	2018/06/04	2404265	5557841	US40055Q5E85	DEP	5158				
SCAGY	I	2018/06/05	2018/06/05	2405355	5559549	US3130AEF966	REG	3492				
SCAGY	I	2018/06/05	2018/06/05	2405356	5559549	US3130AEF966	PA	3492				
SCAGY	I	2018/06/05	2018/06/05	2405367	5559569	US3130AEFB19	REG	3492				
SCAGY	I	2018/06/05	2018/06/05	2405368	5559569	US3130AEFB19	PA	3492				
SCAGY	I	2018/06/05	2018/06/05	2405374	5559579	US3130AEFC91	REG	3492				
SCAGY	I	2018/06/05	2018/06/05	2406111	5556235	TH0655E7S980	REG	6609				
SCAGY	I	2018/06/05	2018/06/05	2406116	5556242	TH0655A7SC83	REG	6609				
SCAGY	I	2018/06/05	2018/06/05	2406148	5560541	TH065507T685	REG	6609				
SCAGY	I	2018/06/06	2018/06/06	2406955	5561546	SE0011062868	MGR	35462				
SCAGY	I	2018/06/07	2018/06/07	2407332	5545212	US3130AEDW73	UNW	3482				
SCAGY	I	2018/06/07	2018/06/07	2407334	5545215	US3130AEDX56	UNW	7359				
SCAGY	I	2018/06/07	2018/06/07	2407337	5555136	US3130AEET36	UNW	7677				
SCAGY	I	2018/06/07	2018/06/07	2407340	5559549	US3130AEF966	UNW	3499				
SCAGY	I	2018/06/07	2018/06/07	2407341	5559569	US3130AEFB19	UNW	5372				
SCAGY	I	2018/06/07	2018/06/07	2407344	5559579	US3130AEFC91	UNW	19540				
SCAGY	I	2018/06/07	2018/06/07	2407345	5559579	US3130AEFC91	PA	3492				
SCAGY	I	2018/06/07	2018/06/07	2407473	5562906	XS1833653808	DEP	3558				
SCAGY	I	2018/06/08	2018/06/08	2408118	5563744	MYBSB1800893	MGR	8299				
SCAGY	I	2018/06/08	2018/06/08	2408144	5563931	XS1823227175	MGR	30501				
SCAGY	I	2018/06/08	2018/06/08	2408146	5563935	XS1823226524	MGR	30501				
SCAGY	I	2018/06/08	2018/06/08	2408175	5563960	XS1713462668	MGR	3863				
SCAGY	I	2018/06/08	2018/06/08	2408199	5563629	XS1837142790	MGR	15439				
SCAGY	I	2018/06/08	2018/06/08	2408210	5562866	USH3698DBS20	MGR	4132				
SCAGY	I	2018/06/08	2018/06/08	2408212	5562813	US225401AG34	MGR	4132				
SCAGY	I	2018/06/08	2018/06/08	2408219	5564006	USH3698DBT03	MGR	4132				
SCAGY	I	2018/06/08	2018/06/08	2408237	5532268	CND100010GZ0	MGR	34436				
SCAGY	I	2018/06/08	2018/06/08	2408238	5532268	CND100010GZ0	TST	32565				
SCAGY	I	2018/06/08	2018/06/08	2408251	5529138	CND100010GR7	MGR	39422				
SCAGY	I	2018/06/08	2018/06/08	2408252	5529138	CND100010GR7	TST	32565				
SCAGY	I	2018/06/08	2018/06/08	2408253	5529138	CND100010GR7	GUR	6333	GTD	2018/05/10	2038/05/10	
SCAGY	I	2018/06/08	2018/06/08	2408257	5529137	CND100010GQ9	MGR	39423				
SCAGY	I	2018/06/08	2018/06/08	2408258	5529137	CND100010GQ9	TST	32565				
SCAGY	I	2018/06/08	2018/06/08	2408259	5529137	CND100010GQ9	GUR	6333	GTD			
SCAGY	I	2018/06/08	2018/06/08	2408291	5564068	IL0011475600	TST	32949				
SCAGY	I	2018/06/08	2018/06/08	2408301	5471982	XS1773986911	DEP	3623				
SCAGY	I	2018/06/08	2018/06/08	2408316	5549042	XS1829905311	DEP	19199				
SCAGY	I	2018/06/08	2018/06/08	2408347	5555910	US3134GSNS06	UNW	7649				
SCAGY	I	2018/06/08	2018/06/08	2408348	5555910	US3134GSNS06	BC	9019				
SCAGY	I	2018/06/08	2018/06/08	2408358	5547455	DE000LB1P7W0	PA	2769				
SCAGY	I	2018/06/08	2018/06/08	2408364	5562759	US2236228043	GUR	13042	BPA			
SCAGY	I	2018/06/08	2018/06/08	2408365	5562759	US2236228043	BC	12052				
SCAGY	I	2018/06/08	2018/06/08	2408366	5562759	US2236228043	TST	3623				
SCAGY	I	2018/06/08	2018/06/08	2408367	5559977	US3134GSNU51	UNW	7921				
SCAGY	I	2018/06/08	2018/06/08	2408368	5559977	US3134GSNU51	BC	9019				
SCAGY	I	2018/06/08	2018/06/08	2408370	5564823	US29278DAA37	UNW	7884				
SCAGY	I	2018/06/08	2018/06/08	2408373	5562775	US959802AX73	TST	6938				
SCAGY	I	2018/06/08	2018/06/08	2408374	5562775	US959802AX73	GUR	3499	BPA			
SCAGY	I	2018/06/08	2018/06/08	2408375	5562775	US959802AX73	UNW	3499				
SCAGY	I	2018/06/08	2018/06/08	2408376	5562775	US959802AX73	BC	10351				
SCAGY	I	2018/06/08	2018/06/08	2408379	5561007	US89114QC229	UNW	7359				
SCAGY	I	2018/06/08	2018/06/08	2408380	5561007	US89114QC229	GUR	7359	BPA			
SCAGY	I	2018/06/08	2018/06/08	2408381	5561007	US89114QC229	BC	29775				
SCAGY	I	2018/06/08	2018/06/08	2408383	5564835	US87971MBH51	MGR	3518				
SCAGY	I	2018/06/08	2018/06/08	2408384	5562785	US28176EAD04	TST	6938				
SCAGY	I	2018/06/08	2018/06/08	2408385	5562785	US28176EAD04	REG	6938				
SCAGY	I	2018/06/08	2018/06/08	2408386	5562785	US28176EAD04	PA	6938				
SCAGY	I	2018/06/08	2018/06/08	2408387	5562785	US28176EAD04	UNW	3518				
SCAGY	I	2018/06/08	2018/06/08	2408388	5562785	US28176EAD04	GUR	3518	BPA			
SCAGY	I	2018/06/08	2018/06/08	2408389	5562785	US28176EAD04	BC	9858				
SCAGY	I	2018/06/08	2018/06/08	2408391	5560983	US00774MAF23	TST	15035				
SCAGY	I	2018/06/08	2018/06/08	2408392	5560983	US00774MAF23	GUR	3501	BPA			
SCAGY	I	2018/06/08	2018/06/08	2408393	5560983	US00774MAF23	BC	10352				
SCAGY	I	2018/06/08	2018/06/08	2408395	5560998	US89114QBY35	GUR	7359	BPA			
SCAGY	I	2018/06/08	2018/06/08	2408396	5560998	US89114QBY35	UNW	7359				
SCAGY	I	2018/06/08	2018/06/08	2408397	5560998	US89114QBY35	BC	32072				
SCAGY	I	2018/06/08	2018/06/08	2408398	5561017	US89114QC302	BC	29775				
SCAGY	I	2018/06/08	2018/06/08	2408399	5561017	US89114QC302	DEP	5158				
SCAGY	I	2018/06/08	2018/06/08	2408402	5561031	US89114QBZ00	UNW	7359				
SCAGY	I	2018/06/08	2018/06/08	2408403	5561031	US89114QBZ00	GUR	7359	BPA			
SCAGY	I	2018/06/08	2018/06/08	2408404	5561031	US89114QBZ00	BC	32072				
SCAGY	I	2018/06/08	2018/06/08	2408407	5564862	XS1800098334	DEP	3623				
SCAGY	I	2018/06/08	2018/06/08	2408413	5564869	US896239AB68	UNW	8318				
SCAGY	I	2018/06/08	2018/06/08	2408414	5564869	US896239AB68	MGR	8318				
SCAGY	I	2018/06/08	2018/06/08	2408423	5564885	US896239AC42	MGR	8318				
SCAGY	I	2018/06/08	2018/06/08	2408425	5561048	US29278NAC74	TST	29284				
SCAGY	I	2018/06/08	2018/06/08	2408426	5561048	US29278NAC74	UNW	36027				
SCAGY	I	2018/06/08	2018/06/08	2408427	5561048	US29278NAC74	GUR	36027	BPA			
SCAGY	I	2018/06/08	2018/06/08	2408428	5561048	US29278NAC74	BC	9472				
SCAGY	I	2018/06/08	2018/06/08	2408429	5561048	US29278NAC74	REG	29284				
SCAGY	I	2018/06/08	2018/06/08	2408430	5561048	US29278NAC74	PA	29284				
SCAGY	I	2018/06/08	2018/06/08	2408431	5561075	US907818ET19	DEP	5158				
SCAGY	I	2018/06/08	2018/06/08	2408432	5561075	US907818ET19	UNW	3499				
SCAGY	I	2018/06/08	2018/06/08	2408433	5561075	US907818ET19	GUR	3499	BPA			
SCAGY	I	2018/06/08	2018/06/08	2408434	5561075	US907818ET19	BC	14047				
SCAGY	I	2018/06/08	2018/06/08	2408438	5561075	US907818ET19	TST	4240				
SCAGY	I	2018/06/08	2018/06/08	2408439	5564887	US02006DPP05	DEP	5158				
SCAGY	I	2018/06/08	2018/06/08	2408454	5561082	US907818EU81	BC	14047				
SCAGY	I	2018/06/08	2018/06/08	2408455	5561082	US907818EU81	DEP	5158				
SCAGY	I	2018/06/08	2018/06/08	2408456	5561082	US907818EU81	UNW	3499				
SCAGY	I	2018/06/08	2018/06/08	2408457	5561082	US907818EU81	TST	4240				
SCAGY	I	2018/06/08	2018/06/08	2408458	5561082	US907818EU81	GUR	3499	BPA			
SCAGY	I	2018/06/08	2018/06/08	2408460	5546931	DE000LB1P837	PA	2769				
SCAGY	I	2018/06/08	2018/06/08	2408472	5561104	US907818ES36	BC	14047				
SCAGY	I	2018/06/08	2018/06/08	2408473	5561104	US907818ES36	DEP	5158				
SCAGY	I	2018/06/08	2018/06/08	2408474	5561104	US907818ES36	TST	4240				
SCAGY	I	2018/06/08	2018/06/08	2408475	5561104	US907818ES36	UNW	3499				
SCAGY	I	2018/06/08	2018/06/08	2408476	5561104	US907818ES36	GUR	3499	BPA			
SCAGY	I	2018/06/08	2018/06/08	2408478	5517914	ES0415143025	PA	4870				
SCAGY	I	2018/06/08	2018/06/08	2408480	5561079	US907818EY04	BC	14047				
SCAGY	I	2018/06/08	2018/06/08	2408481	5561079	US907818EY04	DEP	5158				
SCAGY	I	2018/06/08	2018/06/08	2408482	5561079	US907818EY04	UNW	3499				
SCAGY	I	2018/06/08	2018/06/08	2408483	5561079	US907818EY04	TST	4240				
SCAGY	I	2018/06/08	2018/06/08	2408484	5561079	US907818EY04	GUR	3499	BPA			
SCAGY	I	2018/06/08	2018/06/08	2408486	5564968	US02006DPQ87	DEP	5158				
SCAGY	I	2018/06/08	2018/06/08	2408487	5564982	IL0072001162	TST	32949				
SCAGY	I	2018/06/08	2018/06/08	2408488	5561032	US29278NAF06	BC	9472				
SCAGY	I	2018/06/08	2018/06/08	2408489	5561032	US29278NAF06	GUR	36027	BPA			
SCAGY	I	2018/06/08	2018/06/08	2408490	5561032	US29278NAF06	PA	29284				
SCAGY	I	2018/06/08	2018/06/08	2408491	5561032	US29278NAF06	REG	29284				
SCAGY	I	2018/06/08	2018/06/08	2408492	5561032	US29278NAF06	TST	29284				
SCAGY	I	2018/06/08	2018/06/08	2408493	5561032	US29278NAF06	UNW	36027				
SCAGY	I	2018/06/08	2018/06/08	2408496	5561088	US907818EV64	BC	14047				
SCAGY	I	2018/06/08	2018/06/08	2408497	5561088	US907818EV64	DEP	5158				
SCAGY	I	2018/06/08	2018/06/08	2408498	5561088	US907818EV64	TST	4240				
SCAGY	I	2018/06/08	2018/06/08	2408499	5561088	US907818EV64	UNW	3499				
SCAGY	I	2018/06/08	2018/06/08	2408500	5561088	US907818EV64	GUR	3499	BPA			
SCAGY	I	2018/06/08	2018/06/08	2408503	5553360	DE000LB1P688	PA	2769				
SCAGY	I	2018/06/08	2018/06/08	2408507	5561762	US29278NAD57	BC	9472				
SCAGY	I	2018/06/08	2018/06/08	2408508	5561762	US29278NAD57	PA	29284				
SCAGY	I	2018/06/08	2018/06/08	2408509	5561762	US29278NAD57	REG	29284				
SCAGY	I	2018/06/08	2018/06/08	2408510	5561762	US29278NAD57	TST	29284				
SCAGY	I	2018/06/08	2018/06/08	2408511	5561762	US29278NAD57	UNW	36027				
SCAGY	I	2018/06/08	2018/06/08	2408512	5561762	US29278NAD57	GUR	36027	BPA			
SCAGY	I	2018/06/08	2018/06/08	2408513	5561092	US907818EW48	BC	14047				
SCAGY	I	2018/06/08	2018/06/08	2408514	5561092	US907818EW48	DEP	5158				
SCAGY	I	2018/06/08	2018/06/08	2408515	5561092	US907818EW48	TST	4240				
SCAGY	I	2018/06/08	2018/06/08	2408516	5561092	US907818EW48	UNW	3499				
SCAGY	I	2018/06/08	2018/06/08	2408517	5561092	US907818EW48	GUR	3499	BPA			
SCAGY	I	2018/06/08	2018/06/08	2408521	5553368	DE000LB1P696	PA	2769				
SCAGY	I	2018/06/08	2018/06/08	2408524	5561095	US907818EX21	BC	14047				
SCAGY	I	2018/06/08	2018/06/08	2408525	5561095	US907818EX21	DEP	5158				
SCAGY	I	2018/06/08	2018/06/08	2408526	5561095	US907818EX21	TST	4240				
SCAGY	I	2018/06/08	2018/06/08	2408527	5561095	US907818EX21	UNW	3499				
SCAGY	I	2018/06/08	2018/06/08	2408528	5561095	US907818EX21	GUR	3499	BPA			
SCAGY	I	2018/06/08	2018/06/08	2408530	5561817	US29278NAE31	BC	9472				
SCAGY	I	2018/06/08	2018/06/08	2408531	5561817	US29278NAE31	PA	29284				
SCAGY	I	2018/06/08	2018/06/08	2408532	5561817	US29278NAE31	REG	29284				
SCAGY	I	2018/06/08	2018/06/08	2408533	5561817	US29278NAE31	TST	29284				
SCAGY	I	2018/06/08	2018/06/08	2408534	5561817	US29278NAE31	UNW	36027				
SCAGY	I	2018/06/08	2018/06/08	2408535	5561817	US29278NAE31	GUR	36027	BPA			
SCAGY	I	2018/06/08	2018/06/08	2408541	5565043	XS1800061761	DEP	3623				
SCAGY	I	2018/06/08	2018/06/08	2408546	5565054	XS1800066307	DEP	3623				
SCAGY	I	2018/06/08	2018/06/08	2408716	2180545	XS0553793273	MGR	17021				
SCAGY	I	2018/06/08	2018/06/08	2408717	2702657	XS0630522729	MGR	17021				
SCAGY	I	2018/06/08	2018/06/08	2408720	4221145	XS0856710578	PA	36989				
SCAGY	I	2018/06/08	2018/06/08	2408721	5565039	ZAG000151994	CAL	24931				
SCAGY	I	2018/06/08	2018/06/08	2408722	5565039	ZAG000151994	PA	24931				
SCAGY	I	2018/06/08	2018/06/08	2408723	5565039	ZAG000151994	UNW	24931				
SCAGY	I	2018/06/08	2018/06/08	2408725	5565176	XS1757274698	DEP	3560				
SCAGY	I	2018/06/08	2018/06/08	2408730	5565191	XS1754438940	DEP	3560				
SCAGY	I	2018/06/08	2018/06/08	2408735	5565209	XS1754441571	DEP	3560				
SCAGY	I	2018/06/08	2018/06/08	2408737	5565024	ZAG000151853	UNW	15900				
SCAGY	I	2018/06/08	2018/06/08	2408738	5565024	ZAG000151853	PA	15900				
SCAGY	I	2018/06/08	2018/06/08	2408739	5565024	ZAG000151853	CAL	15900				
SCAGY	I	2018/06/08	2018/06/08	2408740	4221145	XS0856710578	CAL	17021				
SCAGY	I	2018/06/08	2018/06/08	2408741	4221145	XS0856710578	MGR	17021				
SCAGY	I	2018/06/08	2018/06/08	2408929	5168885	NO0010797996	TST	37879				
SCAGY	I	2018/06/08	2018/06/08	2408930	5168885	NO0010797996	MGR	30360				
SCAGY	I	2018/06/08	2018/06/08	2408931	5168885	NO0010797996	PA	37131				
SCAGY	I	2018/06/08	2018/06/08	2408932	5168885	NO0010797996	CAL	38547				
SCAGY	I	2018/06/08	2018/06/08	2408933	5168885	NO0010797996	DEP	17367				
SCAGY	I	2018/06/08	2018/06/08	2408953	5350563	NO0010812092	TST	26500				
SCAGY	I	2018/06/08	2018/06/08	2408954	5350563	NO0010812092	MGR	36933				
SCAGY	I	2018/06/08	2018/06/08	2408955	5350563	NO0010812092	PA	29000				
SCAGY	I	2018/06/08	2018/06/08	2408956	5350563	NO0010812092	CAL	38547				
SCAGY	I	2018/06/08	2018/06/08	2408957	5350563	NO0010812092	DEP	17367				
SCAGY	I	2018/06/08	2018/06/08	2408975	5556796	XS1831006298	PA	21340				
SCAGY	I	2018/06/08	2018/06/08	2408976	5556796	XS1831006298	MGR	30757				
SCAGY	I	2018/06/08	2018/06/08	2409167	5563298	ZAG000147885	UNW	14554				
SCAGY	I	2018/06/08	2018/06/08	2409314	5565776	US63938CAJ71	MGR	19840				
SCAGY	I	2018/06/08	2018/06/08	2409316	5565778	ZAG000151960	CAL	20662				
SCAGY	I	2018/06/08	2018/06/08	2409317	5565778	ZAG000151960	PA	20662				
SCAGY	I	2018/06/08	2018/06/08	2409318	5565778	ZAG000151960	UNW	20662				
EDI_ENDOFFILE
