EDI_CPOPT_20180608
TableName	Actflag	Created	Changed	CpoptID	SecID	ISIN	CallPut	FromDate	ToDate	NoticeFrom	NoticeTo	Currency	Price	MandatoryOptional	MinNoticeDays	MaxNoticeDays	cptype	PriceAsPercent	InWholePart	FormulaBasedPrice
CPOPT	U	2012/05/15	2018/06/08	7444894	3543717	USP18445AG42	C	2012/02/11	2022/02/09			USD		O			MWC			Y
CPOPT	U	2015/03/23	2018/06/08	9389887	4028422	USP82290AA81	C	2013/05/01	2023/04/29			USD		O			MWC			Y
CPOPT	U	2015/03/23	2018/06/08	9389897	3893054	USP7807HAQ85	C	2012/05/18	2035/05/16			USD		O			MWC			Y
CPOPT	U	2015/03/23	2018/06/08	9389914	4122770	USQ16465AC27	C	2013/09/28	2018/09/30			USD		O			MWC			Y
CPOPT	U	2015/03/24	2018/06/08	9391096	2773455	USQ0560UAD92	C	2011/04/08	2023/04/06			USD		O			MWC			Y
CPOPT	U	2015/05/18	2018/06/08	9444486	4512333	USU2540NAH27	C	2015/05/08	2016/04/14			USD	2161.25	O	15	60	US	108.0625	B	N
CPOPT	U	2015/10/14	2018/06/08	9614210	4621686	XS1298711729	C	2015/10/16	2025/10/14			USD		O	30	60	MWC		W	Y
CPOPT	U	2015/10/22	2018/06/08	9623147	4630237	XS1303743105	C	2015/10/29	2018/10/27			EUR		O	30	60	MWC		W	Y
CPOPT	U	2015/10/22	2018/06/08	9624088	4630448	XS1311391012	C	2015/10/28	2025/10/26			GBP		O	30	45	MWC		B	Y
CPOPT	U	2015/10/27	2018/06/08	9628741	4627573	XS1308278453	C	2015/10/28	2049/10/26			GBP		O	15	30	MWC		B	Y
CPOPT	U	2016/06/14	2018/06/08	9802856	4802834	XS1434560642	C	2016/06/21	2022/06/19			EUR		O	30	60	MWC		B	Y
CPOPT	U	2016/06/14	2018/06/08	9802858	4802840	XS1435056426	C	2016/06/21	2026/06/19			EUR		O	30	60	MWC		B	Y
CPOPT	U	2016/06/16	2018/06/08	9804049	4800486	XS1433454243	C	2016/06/17	2023/06/15			USD		O	30	60	MWC		W	Y
CPOPT	U	2016/06/30	2018/06/08	9812640	4806621	XS1435297202	C	2016/06/25	2021/06/23			EUR		O	30	60	MWC		W	Y
CPOPT	U	2017/01/07	2018/06/08	9938024	4614396	XS1294535833	C	2015/10/01	2020/09/29			USD		O	30	60	MWC		W	Y
CPOPT	U	2017/03/10	2018/06/08	9980131	4806660	XS1435229460	C	2016/06/21	2024/04/14			EUR		O	10	60	MWC		B	Y
CPOPT	I	2018/06/06	2018/06/06	10253891	5533567	AU3CB0253250	C	2021/05/17				AUD		O			BM	103	B	N
CPOPT	I	2018/06/08	2018/06/08	10255561	5564869	US896239AB68	C	2018/06/16	2023/05/14			USD		O			MWC			
CPOPT	U	2018/04/27	2018/06/08	10235425	5515721	US92346MCM10	C	2023/05/15	2048/05/14			USD	1000	O			US	100		N
CPOPT	U	2018/06/06	2018/06/08	10253974	5561104	US907818ES36	C	2018/06/09	2025/05/14			USD		O	30	60	MWC		B	Y
CPOPT	U	2018/06/06	2018/06/08	10253975	5561104	US907818ES36	C	2025/05/15	2025/07/14			USD	1000	O	30	60	RM	100		N
CPOPT	I	2018/06/06	2018/06/06	10253892	5533567	AU3CB0253250	C	2022/05/17				AUD		O			BM	102	B	N
CPOPT	I	2018/05/23	2018/05/23	10244293	5515184	CND10000LTC2	C	2023/04/26				CNY	100	O	30		EU	100	B	N
CPOPT	I	2018/05/23	2018/05/23	10244294	5513867	CND100010FP3	C	2023/04/26				CNY	100	O	30		EU	100	B	N
CPOPT	I	2018/05/23	2018/05/23	10244295	5515165	CND100010FQ1	C	2023/04/27				CNY	100	O	30		EU	100	B	N
CPOPT	I	2018/05/23	2018/05/23	10244299	5513865	CND10000LTD0	C	2023/04/26				CNY	100	O	30		EU	100	B	N
CPOPT	U	2018/05/25	2018/06/07	10247459	5545212	US3130AEDW73	C	2019/06/06	2025/06/05			USD	10000	O	5		US	100	B	N
CPOPT	U	2018/05/25	2018/06/07	10247462	5545215	US3130AEDX56	C	2023/06/06	2033/06/05			USD	10000	O	5		US	100	B	N
CPOPT	I	2018/05/25	2018/05/25	10248124	5516341	CND10000LTK5	C	2023/05/02				CNY	100	O	30		EU	100	B	N
CPOPT	I	2018/06/08	2018/06/08	10255490	5564157	US46513X5X49	C	2018/06/01	2020/04/30			USD		O			US			
CPOPT	U	2018/06/01	2018/06/07	10251645	5555136	US3130AEET36	C	2019/06/06	2033/06/05			USD	10000	O	5		US	100	B	N
CPOPT	I	2018/06/02	2018/06/04	10252448	5557348	XS1753010039	C	2018/05/24	2018/11/21			USD		O			US			
CPOPT	I	2018/06/02	2018/06/04	10252451	5557375	XS1753009379	C	2018/05/24	2018/11/28			USD		O			US			
CPOPT	U	2018/06/06	2018/06/08	10253749	5560983	US00774MAF23	C	2023/06/03	2023/07/02			USD	150000	O	15	45	RM	100	B	N
CPOPT	U	2018/06/06	2018/06/08	10253759	5561079	US907818EY04	C	2018/06/09	2028/06/09			USD		O	30	60	MWC		B	Y
CPOPT	I	2018/06/05	2018/06/05	10253294	5560209	TW0006469109	C	2018/09/13	2021/05/03			TWD	100000	O			US	100		N
CPOPT	I	2018/06/05	2018/06/05	10253295	5560209	TW0006469109	P	2020/06/12				TWD	101002.5	O			EU	101.0025	B	N
CPOPT	U	2018/06/06	2018/06/08	10253740	5561032	US29278NAF06	C	2018/06/09	2028/03/14			USD		O	30	60	MWC		B	Y
CPOPT	U	2018/06/06	2018/06/08	10253741	5561032	US29278NAF06	C	2028/03/15	2028/06/14			USD	2000	O	30	60	RM	100	B	N
CPOPT	U	2018/06/06	2018/06/08	10253746	5561048	US29278NAC74	C	2018/06/09	2023/08/14			USD		O	30	60	MWC		B	Y
CPOPT	U	2018/06/06	2018/06/08	10253747	5561048	US29278NAC74	C	2023/08/15	2023/09/14			USD	2000	O	30	60	RM	100	B	N
CPOPT	U	2018/06/06	2018/06/08	10253748	5560983	US00774MAF23	C	2018/06/13	2023/06/02			USD		O	15	45	MWC		B	Y
CPOPT	U	2018/06/06	2018/06/08	10253760	5561079	US907818EY04	C	2028/06/10	2028/09/09			USD	1000	O	30	60	RM	100		N
CPOPT	U	2018/06/06	2018/06/08	10253763	5561075	US907818ET19	C	2018/06/09	2021/06/07			USD		O	30	60	MWC		B	Y
CPOPT	U	2018/06/06	2018/06/08	10253978	5561082	US907818EU81	C	2018/06/09	2023/05/07			USD		O	30	60	MWC		B	Y
CPOPT	I	2018/06/08	2018/06/08	10255569	5564952	USU65483AB25	C	2018/06/12	2023/05/14			USD		O			MWC			Y
CPOPT	I	2018/06/08	2018/06/08	10255570	5564952	USU65483AB25	C	2023/05/15	2023/06/14			USD		O			US	100		N
CPOPT	I	2018/06/08	2018/06/08	10255571	5517914	ES0415143025	C	2018/05/17	2028/05/15			EUR	100000	O			US	100	W	N
CPOPT	I	2018/06/08	2018/06/08	10255572	5564982	IL0072001162	C	2018/08/04	2025/02/28			ILS		O	17	45	US		B	Y
CPOPT	U	2018/06/06	2018/06/08	10253877	5561095	US907818EX21	C	2058/03/10	2058/09/09			USD	1000	O	30	60	US	100		N
CPOPT	U	2018/06/06	2018/06/08	10253881	5561092	US907818EW48	C	2018/06/09	2048/03/09			USD		O	30	60	MWC		B	Y
CPOPT	U	2018/06/06	2018/06/08	10253882	5561092	US907818EW48	C	2048/03/10	2048/09/09			USD	1000	O	30	60	RM	100		N
CPOPT	U	2018/06/06	2018/06/08	10253876	5561095	US907818EX21	C	2018/06/09	2058/03/09			USD		O	30	60	MWC		B	Y
CPOPT	I	2018/06/06	2018/06/06	10253893	5533567	AU3CB0253250	C	2023/05/17				AUD		O			BM	101	B	N
CPOPT	U	2018/06/06	2018/06/08	10253976	5561088	US907818EV64	C	2018/06/09	2038/03/09			USD		O	30	60	MWC		B	Y
CPOPT	U	2018/06/06	2018/06/08	10253977	5561088	US907818EV64	C	2038/03/10	2038/09/09			USD	1000	O	30	60	RM	100		N
CPOPT	U	2018/06/06	2018/06/08	10253979	5561082	US907818EU81	C	2023/05/08	2023/06/07			USD	1000	O	30	60	RM	100		N
CPOPT	U	2018/06/06	2018/06/08	10253981	5561762	US29278NAD57	C	2018/06/09	2037/12/14			USD		O	30	60	MWC		B	Y
CPOPT	U	2018/06/06	2018/06/08	10253982	5561762	US29278NAD57	C	2037/12/15	2038/06/14			USD	2000	O	30	60	RM	100	B	N
CPOPT	U	2018/06/06	2018/06/08	10253983	5561817	US29278NAE31	C	2018/06/09	2047/12/14			USD		O	30	60	MWC		B	Y
CPOPT	U	2018/06/06	2018/06/08	10253984	5561817	US29278NAE31	C	2047/12/15	2048/06/14			USD	2000	O	30	60	RM	100	B	N
CPOPT	D	2018/06/07	2018/06/08	10254003	5561981	CA13596Z7W98	C	2018/12/07				USD		O			BM			
CPOPT	D	2018/06/07	2018/06/08	10254016	5561982	CA13596Z7X71	C	2018/12/07				CAD		O			BM			
CPOPT	I	2018/06/08	2018/06/08	10255573	5564968	US02006DPQ87	C	2019/06/15				USD		O			BM	100		N
CPOPT	I	2018/06/08	2018/06/08	10255578	5564954	US34540TTC61	C	2019/06/20				USD		O			BM	100		N
CPOPT	U	2018/06/07	2018/06/08	10254152	5562775	US959802AX73	C	2018/06/12	2023/05/08			USD		O	30	60	MWC		B	Y
CPOPT	U	2018/06/07	2018/06/08	10254153	5562775	US959802AX73	C	2023/05/09	2023/06/08			USD	2000	O	30	60	RM	100	B	N
CPOPT	U	2018/06/07	2018/06/08	10254168	5562785	US28176EAD04	C	2018/06/16	2028/03/14			USD		O	30	60	MWC		B	Y
CPOPT	U	2018/06/07	2018/06/08	10254169	5562785	US28176EAD04	C	2028/03/15	2028/06/14			USD	2000	O	30	60	RM	100	B	N
CPOPT	I	2018/06/08	2018/06/08	10255361	5563868	CA0641516J76	C	2019/06/11				CAD		O			BM			
CPOPT	I	2018/06/08	2018/06/08	10255362	5563868	CA0641516J76	C	2020/06/11				CAD		O			BM			
CPOPT	I	2018/06/08	2018/06/08	10255363	5563868	CA0641516J76	C	2021/06/11				CAD		O			BM			
CPOPT	I	2018/06/08	2018/06/08	10255364	5563868	CA0641516J76	C	2022/06/11				CAD		O			BM			
CPOPT	I	2018/06/08	2018/06/08	10255365	5563868	CA0641516J76	C	2023/06/11				CAD		O			BM			
CPOPT	I	2018/06/08	2018/06/08	10255366	5563869	CA0641516N88	C	2018/12/08				CAD		O			BM			
CPOPT	I	2018/06/08	2018/06/08	10255367	5563869	CA0641516N88	C	2019/06/08				CAD		O			BM			
CPOPT	I	2018/06/08	2018/06/08	10255368	5563869	CA0641516N88	C	2019/12/08				CAD		O			BM			
CPOPT	I	2018/06/08	2018/06/08	10255369	5563869	CA0641516N88	C	2020/06/08				CAD		O			BM			
CPOPT	I	2018/06/08	2018/06/08	10255370	5563869	CA0641516N88	C	2020/12/08				CAD		O			BM			
CPOPT	I	2018/06/08	2018/06/08	10255371	5563869	CA0641516N88	C	2021/06/08				CAD		O			BM			
CPOPT	I	2018/06/08	2018/06/08	10255372	5563869	CA0641516N88	C	2021/12/08				CAD		O			BM			
CPOPT	I	2018/06/08	2018/06/08	10255373	5563869	CA0641516N88	C	2022/06/08				CAD		O			BM			
CPOPT	I	2018/06/08	2018/06/08	10255374	5563869	CA0641516N88	C	2022/12/08				CAD		O			BM			
CPOPT	I	2018/06/08	2018/06/08	10255375	5563869	CA0641516N88	C	2023/06/08				CAD		O			BM			
CPOPT	I	2018/06/08	2018/06/08	10255376	5563869	CA0641516N88	C	2023/12/08				CAD		O			BM			
CPOPT	I	2018/06/08	2018/06/08	10255377	5563869	CA0641516N88	C	2024/06/08				CAD		O			BM			
CPOPT	I	2018/06/08	2018/06/08	10255378	5563869	CA0641516N88	C	2024/12/08				CAD		O			BM			
CPOPT	I	2018/06/08	2018/06/08	10255379	5563869	CA0641516N88	C	2025/06/08				CAD		O			BM			
CPOPT	I	2018/06/08	2018/06/08	10255380	5563870	CA0641516V05	C	2019/06/08				CAD		O			BM			
CPOPT	I	2018/06/08	2018/06/08	10255381	5563870	CA0641516V05	C	2020/06/08				CAD		O			BM			
CPOPT	I	2018/06/08	2018/06/08	10255382	5563870	CA0641516V05	C	2021/06/08				CAD		O			BM			
CPOPT	I	2018/06/08	2018/06/08	10255383	5563870	CA0641516V05	C	2022/06/08				CAD		O			BM			
CPOPT	I	2018/06/08	2018/06/08	10255384	5563871	CA0641516W87	C	2018/12/08				USD		O			BM			
CPOPT	I	2018/06/08	2018/06/08	10255385	5563871	CA0641516W87	C	2019/06/08				USD		O			BM			
CPOPT	I	2018/06/08	2018/06/08	10255386	5563871	CA0641516W87	C	2019/12/08				USD		O			BM			
CPOPT	I	2018/06/08	2018/06/08	10255387	5563871	CA0641516W87	C	2020/06/08				USD		O			BM			
CPOPT	I	2018/06/08	2018/06/08	10255388	5563871	CA0641516W87	C	2020/12/08				USD		O			BM			
CPOPT	I	2018/06/08	2018/06/08	10255389	5563871	CA0641516W87	C	2021/06/08				USD		O			BM			
CPOPT	I	2018/06/08	2018/06/08	10255390	5563871	CA0641516W87	C	2021/12/08				USD		O			BM			
CPOPT	I	2018/06/08	2018/06/08	10255391	5563871	CA0641516W87	C	2022/06/08				USD		O			BM			
CPOPT	I	2018/06/08	2018/06/08	10255392	5563871	CA0641516W87	C	2022/12/08				USD		O			BM			
CPOPT	I	2018/06/08	2018/06/08	10255393	5563871	CA0641516W87	C	2023/06/08				USD		O			BM			
CPOPT	I	2018/06/08	2018/06/08	10255394	5563871	CA0641516W87	C	2023/12/08				USD		O			BM			
CPOPT	I	2018/06/08	2018/06/08	10255395	5563871	CA0641516W87	C	2024/06/08				USD		O			BM			
CPOPT	I	2018/06/08	2018/06/08	10255396	5563872	CA13596Z7Z20	C	2018/12/08				CAD		O			BM			
CPOPT	I	2018/06/08	2018/06/08	10255397	5563872	CA13596Z7Z20	C	2019/06/08				CAD		O			BM			
CPOPT	I	2018/06/08	2018/06/08	10255398	5563872	CA13596Z7Z20	C	2019/12/08				CAD		O			BM			
CPOPT	I	2018/06/08	2018/06/08	10255399	5563872	CA13596Z7Z20	C	2020/06/08				CAD		O			BM			
CPOPT	I	2018/06/08	2018/06/08	10255400	5563872	CA13596Z7Z20	C	2020/12/08				CAD		O			BM			
CPOPT	I	2018/06/08	2018/06/08	10255401	5563872	CA13596Z7Z20	C	2021/06/08				CAD		O			BM			
CPOPT	I	2018/06/08	2018/06/08	10255402	5563872	CA13596Z7Z20	C	2021/12/08				CAD		O			BM			
CPOPT	I	2018/06/08	2018/06/08	10255403	5563872	CA13596Z7Z20	C	2022/06/08				CAD		O			BM			
CPOPT	I	2018/06/08	2018/06/08	10255404	5563872	CA13596Z7Z20	C	2022/12/08				CAD		O			BM			
CPOPT	I	2018/06/08	2018/06/08	10255405	5563872	CA13596Z7Z20	C	2023/06/08				CAD		O			BM			
CPOPT	I	2018/06/08	2018/06/08	10255406	5563872	CA13596Z7Z20	C	2023/12/08				CAD		O			BM			
CPOPT	I	2018/06/08	2018/06/08	10255407	5563872	CA13596Z7Z20	C	2024/06/08				CAD		O			BM			
CPOPT	I	2018/06/08	2018/06/08	10255439	5564030	US46513X2U37	P	2018/03/16				USD		O	1	60	EU	100		N
CPOPT	I	2018/06/08	2018/06/08	10255440	5564030	US46513X2U37	C	2018/04/15	2018/06/18			USD		O			US	100		N
CPOPT	I	2018/06/08	2018/06/08	10255442	5564042	US46513X2X75	C	2018/06/01	2023/04/30			USD		O			US	100		N
CPOPT	I	2018/06/08	2018/06/08	10255456	5564055	US46513X2Y58	C	2018/06/15	2023/04/30			USD		O			US	100		N
CPOPT	I	2018/06/08	2018/06/08	10255460	5564068	IL0011475600	C	2018/07/03	2024/05/30			ILS		O	17	45	US		B	Y
CPOPT	I	2018/06/08	2018/06/08	10255462	5564075	US46513X3X66	C	2018/06/01	2028/04/30			USD		O			US	100		N
CPOPT	I	2018/06/08	2018/06/08	10255463	5564085	US46513X3Y40	C	2018/06/15	2028/04/30			USD		O			US	100		N
CPOPT	I	2018/06/08	2018/06/08	10255482	5564107	US46513X4U19	C	2018/04/15	2028/02/28			USD		O			US	100		N
CPOPT	I	2018/06/08	2018/06/08	10255483	5564119	US46513X4X57	C	2018/06/01	2028/04/30			USD		O			US	100		N
CPOPT	I	2018/06/08	2018/06/08	10255488	5564133	US46513X4Y31	C	2018/06/15	2028/04/30			USD		O			US	100		N
CPOPT	I	2018/06/08	2018/06/08	10255492	5564166	US46513X5Y22	C	2018/06/15	2020/04/30			USD		O			US	100		N
CPOPT	I	2018/06/08	2018/06/08	10255493	5555910	US3134GSNS06	C	2018/09/28				USD	1000	O	5	60	BM	100	B	N
CPOPT	I	2018/06/08	2018/06/08	10255494	5555910	US3134GSNS06	C	2018/12/28				USD	1000	O	5	60	BM	100	B	N
CPOPT	I	2018/06/08	2018/06/08	10255495	5555910	US3134GSNS06	C	2019/03/28				USD	1000	O	5	60	BM	100	B	N
CPOPT	I	2018/06/08	2018/06/08	10255496	5555910	US3134GSNS06	C	2019/06/28				USD	1000	O	5	60	BM	100	B	N
CPOPT	I	2018/06/08	2018/06/08	10255497	5555910	US3134GSNS06	C	2019/09/28				USD	1000	O	5	60	BM	100	B	N
CPOPT	I	2018/06/08	2018/06/08	10255498	5555910	US3134GSNS06	C	2019/12/28				USD	1000	O	5	60	BM	100	B	N
CPOPT	I	2018/06/08	2018/06/08	10255499	5555910	US3134GSNS06	C	2020/03/28				USD	1000	O	5	60	BM	100	B	N
CPOPT	I	2018/06/08	2018/06/08	10255500	5555910	US3134GSNS06	C	2020/06/28				USD	1000	O	5	60	BM	100	B	N
CPOPT	I	2018/06/08	2018/06/08	10255501	5555910	US3134GSNS06	C	2020/09/28				USD	1000	O	5	60	BM	100	B	N
CPOPT	I	2018/06/08	2018/06/08	10255502	5555910	US3134GSNS06	C	2020/12/28				USD	1000	O	5	60	BM	100	B	N
CPOPT	I	2018/06/08	2018/06/08	10255503	5555910	US3134GSNS06	C	2021/03/28				USD	1000	O	5	60	BM	100	B	N
CPOPT	I	2018/06/08	2018/06/08	10255517	5564801	US46513X6U90	C	2018/04/15	2020/02/28			USD		O			US	100		N
CPOPT	I	2018/06/08	2018/06/08	10255531	5562759	US2236228043	C	2023/06/15	2033/06/14			USD	25	O	30	60	US	100	B	N
CPOPT	I	2018/06/08	2018/06/08	10255532	5559977	US3134GSNU51	C	2018/09/28				USD	1000	O	5	60	EU	100	B	N
CPOPT	I	2018/06/08	2018/06/08	10255533	5564823	US29278DAA37	C	2018/06/13	2028/03/11			USD		O			MWC		B	Y
CPOPT	I	2018/06/08	2018/06/08	10255534	5564823	US29278DAA37	C	2028/03/12	2028/06/11			USD	1000	O			RM	100	B	N
CPOPT	I	2018/06/08	2018/06/08	10255539	5561069	US69353RFL78	C	2023/05/08	2023/06/04			USD		O			US	100		N
CPOPT	I	2018/06/08	2018/06/08	10255558	5564835	US87971MBH51	C	2018/06/13	2048/05/15			USD		O			MWC			Y
CPOPT	I	2018/06/08	2018/06/08	10255559	5564835	US87971MBH51	C	2048/05/16	2048/11/15			USD	2000	O			RM	100		N
CPOPT	I	2018/06/08	2018/06/08	10255562	5564869	US896239AB68	C	2023/05/15	2023/06/14			USD		O			RM	100		N
CPOPT	I	2018/06/08	2018/06/08	10255563	5564877	USU01258AA73	C	2018/06/26	2019/12/14			USD		O			MWC			Y
CPOPT	I	2018/06/08	2018/06/08	10255564	5564877	USU01258AA73	C	2019/12/15	2020/12/14			USD		O			US	102		N
CPOPT	I	2018/06/08	2018/06/08	10255565	5564877	USU01258AA73	C	2020/12/15	2021/12/14			USD		O			US	101		N
CPOPT	I	2018/06/08	2018/06/08	10255566	5564877	USU01258AA73	C	2021/12/15	2024/01/14			USD		O			US	100		N
CPOPT	I	2018/06/08	2018/06/08	10255567	5564885	US896239AC42	C	2018/06/16	2028/03/14			USD		O			MWC			Y
CPOPT	I	2018/06/08	2018/06/08	10255568	5564885	US896239AC42	C	2028/03/15	2028/06/14			USD		O			RM	100		N
CPOPT	I	2018/06/08	2018/06/08	10255579	5564954	US34540TTC61	C	2019/12/20				USD		O			BM	100		N
CPOPT	I	2018/06/08	2018/06/08	10255580	5564954	US34540TTC61	C	2020/06/20				USD		O			BM	100		N
CPOPT	I	2018/06/08	2018/06/08	10255581	5564954	US34540TTC61	C	2020/12/20				USD		O			BM	100		N
CPOPT	I	2018/06/08	2018/06/08	10255582	5564944	US34540TTD45	C	2019/06/20				USD		O			BM	100		N
CPOPT	I	2018/06/08	2018/06/08	10255583	5564944	US34540TTD45	C	2019/12/20				USD		O			BM	100		N
CPOPT	I	2018/06/08	2018/06/08	10255584	5564944	US34540TTD45	C	2020/06/20				USD		O			BM	100		N
CPOPT	I	2018/06/08	2018/06/08	10255585	5564944	US34540TTD45	C	2020/12/20				USD		O			BM	100		N
CPOPT	I	2018/06/08	2018/06/08	10255586	5564944	US34540TTD45	C	2021/06/20				USD		O			BM	100		N
CPOPT	I	2018/06/08	2018/06/08	10255587	5564944	US34540TTD45	C	2021/12/20				USD		O			BM	100		N
CPOPT	I	2018/06/08	2018/06/08	10255588	5564944	US34540TTD45	C	2022/06/20				USD		O			BM	100		N
CPOPT	I	2018/06/08	2018/06/08	10255589	5564944	US34540TTD45	C	2022/12/20				USD		O			BM	100		N
CPOPT	I	2018/06/08	2018/06/08	10255590	5564944	US34540TTD45	C	2023/06/20				USD		O			BM	100		N
CPOPT	I	2018/06/08	2018/06/08	10255591	5564944	US34540TTD45	C	2023/12/20				USD		O			BM	100		N
CPOPT	I	2018/06/08	2018/06/08	10255592	5564944	US34540TTD45	C	2024/06/20				USD		O			BM	100		N
CPOPT	I	2018/06/08	2018/06/08	10255593	5564944	US34540TTD45	C	2024/12/20				USD		O			BM	100		N
CPOPT	I	2018/06/08	2018/06/08	10255601	5564897	US37046ABY01	C	2019/06/29				USD		O			BM	100		N
CPOPT	I	2018/06/08	2018/06/08	10255602	5564897	US37046ABY01	C	2019/12/29				USD		O			BM	100		N
CPOPT	I	2018/06/08	2018/06/08	10255603	5564897	US37046ABY01	C	2020/06/29				USD		O			BM	100		N
CPOPT	I	2018/06/08	2018/06/08	10255604	5564897	US37046ABY01	C	2020/12/29				USD		O			BM	100		N
CPOPT	I	2018/06/08	2018/06/08	10255605	5564897	US37046ABY01	C	2021/06/29				USD		O			BM	100		N
CPOPT	I	2018/06/08	2018/06/08	10255606	5564897	US37046ABY01	C	2021/12/29				USD		O			BM	100		N
CPOPT	I	2018/06/08	2018/06/08	10255607	5564897	US37046ABY01	C	2022/06/29				USD		O			BM	100		N
CPOPT	I	2018/06/08	2018/06/08	10255608	5564897	US37046ABY01	C	2022/12/29				USD		O			BM	100		N
CPOPT	I	2018/06/08	2018/06/08	10255609	5564894	US37046ABZ75	C	2019/06/20				USD		O			BM	100		N
CPOPT	I	2018/06/08	2018/06/08	10255610	5564894	US37046ABZ75	C	2019/12/20				USD		O			BM	100		N
CPOPT	I	2018/06/08	2018/06/08	10255611	5564894	US37046ABZ75	C	2020/06/20				USD		O			BM	100		N
CPOPT	I	2018/06/08	2018/06/08	10255612	5564894	US37046ABZ75	C	2020/12/20				USD		O			BM	100		N
CPOPT	I	2018/06/08	2018/06/08	10255613	5564894	US37046ABZ75	C	2021/06/20				USD		O			BM	100		N
CPOPT	I	2018/06/08	2018/06/08	10255614	5564894	US37046ABZ75	C	2021/12/20				USD		O			BM	100		N
CPOPT	I	2018/06/08	2018/06/08	10255615	5564894	US37046ABZ75	C	2022/06/20				USD		O			BM	100		N
CPOPT	I	2018/06/08	2018/06/08	10255616	5564894	US37046ABZ75	C	2022/12/20				USD		O			BM	100		N
CPOPT	I	2018/06/08	2018/06/08	10255617	5564894	US37046ABZ75	C	2023/06/20				USD		O			BM	100		N
CPOPT	I	2018/06/08	2018/06/08	10255618	5564894	US37046ABZ75	C	2023/12/20				USD		O			BM	100		N
CPOPT	I	2018/06/08	2018/06/08	10255619	5564894	US37046ABZ75	C	2024/06/20				USD		O			BM	100		N
CPOPT	I	2018/06/08	2018/06/08	10255620	5564894	US37046ABZ75	C	2024/12/20				USD		O			BM	100		N
CPOPT	I	2018/06/08	2018/06/08	10255621	5564894	US37046ABZ75	C	2025/06/20				USD		O			BM	100		N
CPOPT	I	2018/06/08	2018/06/08	10255622	5564894	US37046ABZ75	C	2025/12/20				USD		O			BM	100		N
CPOPT	I	2018/06/08	2018/06/08	10255623	5564894	US37046ABZ75	C	2026/06/20				USD		O			BM	100		N
CPOPT	I	2018/06/08	2018/06/08	10255624	5564894	US37046ABZ75	C	2026/12/20				USD		O			BM	100		N
CPOPT	I	2018/06/08	2018/06/08	10255625	5564894	US37046ABZ75	C	2027/06/20				USD		O			BM	100		N
CPOPT	I	2018/06/08	2018/06/08	10255626	5564894	US37046ABZ75	C	2027/12/20				USD		O			BM	100		N
CPOPT	I	2018/06/08	2018/06/08	10255640	5564870	US78470VAC28	C	2018/06/02	2020/11/30			USD		O			MWC			Y
CPOPT	I	2018/06/08	2018/06/08	10255641	5564870	US78470VAC28	C	2020/12/01	2021/11/30			USD		O			US	104.688		N
CPOPT	I	2018/06/08	2018/06/08	10255642	5564870	US78470VAC28	C	2021/12/01	2022/11/30			USD		O			US	103.125		N
CPOPT	I	2018/06/08	2018/06/08	10255643	5564870	US78470VAC28	C	2022/12/01	2023/11/30			USD		O			US	101.563		N
CPOPT	I	2018/06/08	2018/06/08	10255644	5564870	US78470VAC28	C	2023/12/01	2025/11/30			USD		O			US	100		N
CPOPT	I	2018/06/08	2018/06/08	10255650	5565112	US74759BAE39	C	2017/11/09	2020/11/14			USD		O			MWC			Y
CPOPT	I	2018/06/08	2018/06/08	10255651	5565112	US74759BAE39	C	2020/11/15				USD		O			BM	103.56		N
CPOPT	I	2018/06/08	2018/06/08	10255652	5565112	US74759BAE39	C	2021/05/11				USD		O			BM	102.375		N
CPOPT	I	2018/06/08	2018/06/08	10255653	5565112	US74759BAE39	C	2022/11/15				USD		O			BM	101.88		N
CPOPT	I	2018/06/08	2018/06/08	10255654	5565112	US74759BAE39	C	2023/11/15				USD		O			BM	100		N
CPOPT	I	2018/06/08	2018/06/08	10255815	5565340	US05581WWZ49	C	2018/11/16	2021/11/15			USD		O			US	100		N
CPOPT	I	2018/06/08	2018/06/08	10255816	4512333	USU2540NAH27	C	2016/04/15	2017/04/14			USD	2107.5	O	15	60	US	105.375	B	N
CPOPT	I	2018/06/08	2018/06/08	10255817	4512333	USU2540NAH27	C	2017/04/15	2018/04/14			USD	2053.75	O	15	60	US	102.6875	B	N
CPOPT	I	2018/06/08	2018/06/08	10255818	4512333	USU2540NAH27	C	2018/04/15	2020/04/14			USD	2000	O	15	60	US	100	B	N
CPOPT	I	2018/06/08	2018/06/08	10255821	5350563	NO0010812092	C	2017/12/09	2020/06/07			NOK		O	10	20	MWC			Y
CPOPT	I	2018/06/08	2018/06/08	10255822	5350563	NO0010812092	C	2020/06/08	2020/12/07			NOK	515000	O	10	20	US	103		N
CPOPT	I	2018/06/08	2018/06/08	10255823	5350563	NO0010812092	C	2020/12/08	2021/06/07			NOK	512000	O	10	20	US	102.4		N
CPOPT	I	2018/06/08	2018/06/08	10255824	5350563	NO0010812092	C	2021/06/08	2021/12/07			NOK	509000	O	10	20	US	101.8		N
CPOPT	I	2018/06/08	2018/06/08	10255825	5350563	NO0010812092	C	2021/12/08	2022/06/07			NOK	506000	O	10	20	US	101.2		N
CPOPT	I	2018/06/08	2018/06/08	10255826	5350563	NO0010812092	C	2022/06/08	2022/12/07			NOK	503000	O	10	20	US	100.6		N
CPOPT	I	2018/06/08	2018/06/08	10255827	5350563	NO0010812092	C	2022/12/08	2023/12/07			NOK	500000	O	10	20	US	100		N
CPOPT	I	2018/06/08	2018/06/08	10255828	5168885	NO0010797996	C	2017/06/23	2020/06/21			NOK	1000000	O			CU	100		N
CPOPT	I	2018/06/08	2018/06/08	10255859	5565776	US63938CAJ71	C	2018/06/12	2026/06/14			USD		O			MWC		B	Y
EDI_ENDOFFILE
