EDI_RCONV_20180608
TableName	Actflag	Created	Changed	RconvID	SecID	ISIN	EffectiveDate	OldInterestAccrualConvention	NewInterestAccrualConvention	OldConvMethod	NewConvMethod	Eventtype	Notes
RCONV	I	2018/06/02	2018/06/04	141426	5542314	XS1771089528	2018/05/30	30E/360	AA	ICMA	ICMA	CORR	
RCONV	I	2018/06/02	2018/06/04	141429	5548663	XS1825431288	2018/05/24	A360	A365			CORR	
RCONV	I	2018/06/02	2018/06/04	141430	5531496	XS1554295938	2018/05/30	30E/360	30360			CORR	
RCONV	I	2018/06/08	2018/06/08	141645	5565329	TRFEKOF21912	2018/06/05	A360	A365			CLEAN	
RCONV	I	2018/06/08	2018/06/08	141646	5514322	XS1713466065	2018/04/26	30E/360	30360			CORR	
EDI_ENDOFFILE
