EDI_PVRD_20180608
TableName	Actflag	Created	Changed	PvRdID	SecID	ISIN	EffectiveDate	CurenCD	OldParValue	NewParValue	EventType	Notes
PVRD	I	2010/06/09	2010/06/09	64988	1629539	JP22300029A6	2009/10/31	JPY	1000000.00000	10000000.00000	CORR	
PVRD	I	2010/11/01	2010/11/01	73177	2169752	JP2230002AA2	2010/10/29	JPY		10000.00000	CORR	
PVRD	I	2011/12/07	2011/12/07	91877	1629539	JP22300029A6	2009/11/01	JPY	10000000.00000	10000.00000	CORR	
PVRD	I	2012/09/15	2012/09/15	107316	3571926	JP2230003C27	2012/03/01	JPY	1000000.00000	10000.00000	CORR	
PVRD	I	2016/03/09	2016/03/09	200959	4695307		2016/01/26	CNY		100.00000	CORR	
PVRD	I	2016/03/25	2016/03/25	203488	4715637		2016/02/24	CNY		100.00000	CORR	
PVRD	I	2016/12/05	2016/12/05	229748	4418348	US40434F6117	2015/01/30	USD		10.00000	CORR	
PVRD	I	2017/08/08	2017/08/08	266552	5220077	CND10000HRG5	2017/07/26	CNY		100.00000	CORR	
PVRD	I	2018/01/23	2018/01/23	294329	5364731	CND10000L1X3	2017/12/01	CNY		100	CORR	
PVRD	I	2018/05/16	2018/05/16	315127	5520100	CND10000LTJ7	2018/04/26	CNY		100	CORR	
PVRD	I	2018/05/16	2018/05/16	315128	5526378	CND100010DY0	2018/04/28	CNY		100	CORR	
PVRD	I	2018/05/16	2018/05/16	315130	5527158	CND100010DZ7	2018/04/27	CNY		100	CORR	
PVRD	I	2018/05/18	2018/05/18	315722	5513983	CND10000LSW2	2018/04/20	CNY		100	CORR	
PVRD	I	2018/05/18	2018/05/18	315723	5513979	CND10000LSV4	2018/04/20	CNY		100	CORR	
PVRD	I	2018/05/18	2018/05/18	315724	5513985	CND10000LSX0	2018/04/20	CNY		100	CORR	
PVRD	I	2018/05/18	2018/05/18	315725	5513988	CND10000LSY8	2018/04/20	CNY		100	CORR	
PVRD	I	2018/05/18	2018/05/18	315726	5513995	CND10000LT19	2018/04/20	CNY		100	CORR	
PVRD	I	2018/05/18	2018/05/18	315727	5513998	CND10000LT27	2018/04/20	CNY		100	CORR	
PVRD	I	2018/05/18	2018/05/18	315728	5513992	CND10000LT01	2018/04/20	CNY		100	CORR	
PVRD	I	2018/05/18	2018/05/18	315729	5513990	CND10000LSZ5	2018/04/20	CNY		100	CORR	
PVRD	I	2018/05/22	2018/05/22	316514	5530369	SE0010832782	2018/05/21	SEK		2000000	CORR	
PVRD	I	2018/05/23	2018/05/23	316815	5513865	CND10000LTD0	2018/04/25	CNY		100	CORR	
PVRD	I	2018/05/23	2018/05/23	316804	5515184	CND10000LTC2	2018/04/25	CNY		100	CORR	
PVRD	I	2018/05/23	2018/05/23	316806	5513867	CND100010FP3	2018/04/25	CNY		100	CORR	
PVRD	I	2018/05/23	2018/05/23	316807	5515165	CND100010FQ1	2018/04/26	CNY		100	CORR	
PVRD	I	2018/05/25	2018/05/25	317325	5516341	CND10000LTK5	2018/04/26	CNY		100	CORR	
PVRD	I	2018/05/29	2018/05/29	318087	5542050	XS1826498641	2018/05/29	USD	200000	1000	CORR	
PVRD	I	2018/05/29	2018/05/29	318089	5542016	XS1826499292	2018/05/29	USD	200000	1000	CORR	
PVRD	I	2018/06/02	2018/06/04	318985	5553703	US3133EJRF84	2018/06/02	USD		1000	CORR	
PVRD	I	2018/06/02	2018/06/04	318986	5553711	US3133EJRG67	2018/06/02	USD		1000	CORR	
PVRD	I	2018/06/02	2018/06/04	319047	5542314	XS1771089528	2018/05/30	RON	5000	500000	CORR	
PVRD	I	2018/06/02	2018/06/04	319049	5548663	XS1825431288	2018/05/24	UAH	1	5000000	CORR	
PVRD	I	2018/06/02	2018/06/04	319050	5547347	XS1824407875	2018/05/23	USD	1	200000	CORR	
PVRD	I	2018/06/02	2018/06/04	319051	5542016	XS1826499292	2018/05/30	USD	1000	200000	CORR	
PVRD	I	2018/06/07	2018/06/07	319859	5545212	US3130AEDW73	2018/06/06	USD		10000	CORR	
PVRD	I	2018/06/07	2018/06/07	319861	5545215	US3130AEDX56	2018/06/06	USD		10000	CORR	
PVRD	I	2018/06/07	2018/06/07	319862	5555136	US3130AEET36	2018/06/06	USD		10000	CORR	
PVRD	I	2018/06/07	2018/06/07	319863	5559549	US3130AEF966	2018/06/06	USD		10000	CORR	
PVRD	I	2018/06/07	2018/06/07	319865	5559569	US3130AEFB19	2018/06/06	USD		10000	CORR	
PVRD	I	2018/06/07	2018/06/07	319866	5559579	US3130AEFC91	2018/06/06	USD		10000	CORR	
PVRD	I	2018/06/08	2018/06/08	320051	5561817	US29278NAE31	2018/06/08	USD		2000	CORR	
PVRD	I	2018/06/08	2018/06/08	320052	5561032	US29278NAF06	2018/06/08	USD		2000	CORR	
PVRD	I	2018/06/08	2018/06/08	320053	5561762	US29278NAD57	2018/06/08	USD		2000	CORR	
PVRD	I	2018/06/08	2018/06/08	320054	5561048	US29278NAC74	2018/06/08	USD		2000	CORR	
PVRD	I	2018/06/08	2018/06/08	320055	5119667	JP351265WH42	2017/04/27	JPY		10000000	CORR	
PVRD	I	2018/06/08	2018/06/08	320061	4971516	JP354565BGB1	2016/11/28	JPY		10000000	CORR	
PVRD	I	2018/06/08	2018/06/08	320078	5563629	XS1837142790	2018/06/07	EUR		1000	CORR	
PVRD	I	2018/06/08	2018/06/08	320080	5562866	USH3698DBS20	2018/06/07	USD		1000	CORR	
PVRD	I	2018/06/08	2018/06/08	320081	5562813	US225401AG34	2018/06/07	USD		1000	CORR	
PVRD	I	2018/06/08	2018/06/08	320088	5532268	CND100010GZ0	2018/05/11	CNY		100	CORR	
PVRD	I	2018/06/08	2018/06/08	320089	5529137	CND100010GQ9	2018/05/09	CNY		100	CORR	
PVRD	I	2018/06/08	2018/06/08	320091	5529138	CND100010GR7	2018/05/09	CNY		100	CORR	
PVRD	I	2018/06/08	2018/06/08	320092	5556890	JP1747621J67	2018/06/07	JPY	50000	10000000	CORR	
PVRD	I	2018/06/08	2018/06/08	320108	5561981	CA13596Z7W98	2018/06/07	USD		100	CORR	
PVRD	I	2018/06/08	2018/06/08	320110	5561982	CA13596Z7X71	2018/06/07	CAD		100	CORR	
PVRD	I	2018/06/08	2018/06/08	320111	5561980	CA13596Z7T69	2018/06/07	CAD		100	CORR	
PVRD	I	2018/06/08	2018/06/08	320123	5555910	US3134GSNS06	2018/06/01	USD		1000	CORR	
PVRD	I	2018/06/08	2018/06/08	320136	5547455	DE000LB1P7W0	2018/05/24	EUR		1000	CORR	
PVRD	I	2018/06/08	2018/06/08	320138	5559977	US3134GSNU51	2018/06/05	USD		1000	CORR	
PVRD	I	2018/06/08	2018/06/08	320149	5563492	DK0006345301	2018/06/07	DKK		0.01	CORR	
PVRD	I	2018/06/08	2018/06/08	320179	2134822	XS0361249898	2015/09/12	EUR	5700	5750	CORR	
PVRD	I	2018/06/08	2018/06/08	320181	5554467	AT000B126826	2018/06/06	EUR		100000	CORR	
PVRD	I	2018/06/08	2018/06/08	320185	4566666	XS1222272780	2015/12/17	EUR	210	371	CORR	
PVRD	I	2018/06/08	2018/06/08	320238	5168885	NO0010797996	2017/06/22	NOK		1000000	CORR	
PVRD	I	2018/06/08	2018/06/08	320239	5350563	NO0010812092	2017/12/08	NOK		500000	CORR	
PVRD	I	2018/06/08	2018/06/08	320245	5556796	XS1831006298	2018/06/07	USD	1000	200000	CORR	
PVRD	I	2018/06/08	2018/06/08	320275	5393971	BRUTEPDBS013	2017/12/05	BRL		1	CORR	
EDI_ENDOFFILE
