EDI_EXCHG_20180608
TableName	Actflag	Created	Changed	ISIN	SecID	ExchgCD	ExchgName	CntryCD	WklyDayOff1	WklyDayOff2	MIC	ExchgID
EXCHG	U	2001/05/11	2018/06/08	US6943083054	87425	USAMEX	NYSE American	US	SAT	SUN	XASE	87
EXCHG	U	2001/05/11	2018/06/08	US8424002025	88327	USAMEX	NYSE American	US	SAT	SUN	XASE	87
EXCHG	U	2001/05/11	2018/06/08	US8424003015	88329	USAMEX	NYSE American	US	SAT	SUN	XASE	87
EXCHG	U	2001/05/11	2018/06/08	US8424004005	88330	USAMEX	NYSE American	US	SAT	SUN	XASE	87
EXCHG	U	2001/05/11	2018/06/08	US8424005093	88331	USAMEX	NYSE American	US	SAT	SUN	XASE	87
EXCHG	U	2001/05/11	2018/06/08	US4554342091	92262	USAMEX	NYSE American	US	SAT	SUN	XASE	87
EXCHG	U	2001/05/11	2018/06/08	US0846902056	96934	USAMEX	NYSE American	US	SAT	SUN	XASE	87
EXCHG	U	2001/05/11	2018/06/08	US6951145043	97011	USAMEX	NYSE American	US	SAT	SUN	XASE	87
EXCHG	U	2001/05/11	2018/06/08	US3135868368	99642	USAMEX	NYSE American	US	SAT	SUN	XASE	87
EXCHG	U	2001/05/11	2018/06/08	US6943088830	107280	USAMEX	NYSE American	US	SAT	SUN	XASE	87
EXCHG	U	2001/05/11	2018/06/08	US6943088004	107282	USAMEX	NYSE American	US	SAT	SUN	XASE	87
EXCHG	U	2001/05/11	2018/06/08	US6943087014	107285	USAMEX	NYSE American	US	SAT	SUN	XASE	87
EXCHG	U	2001/05/11	2018/06/08	US6943086024	107291	USAMEX	NYSE American	US	SAT	SUN	XASE	87
EXCHG	U	2001/05/11	2018/06/08	US6943085034	107295	USAMEX	NYSE American	US	SAT	SUN	XASE	87
EXCHG	U	2001/05/11	2018/06/08	US6943082064	107296	USAMEX	NYSE American	US	SAT	SUN	XASE	87
EXCHG	U	2001/05/11	2018/06/08	US7974408152	112266	USAMEX	NYSE American	US	SAT	SUN	XASE	87
EXCHG	U	2001/05/11	2018/06/08	US69360J8678	148024	USAMEX	NYSE American	US	SAT	SUN	XASE	87
EXCHG	U	2001/05/11	2018/06/08	US69360J8751	157174	USAMEX	NYSE American	US	SAT	SUN	XASE	87
EXCHG	U	2001/05/11	2018/06/08	US69360J8348	161351	USAMEX	NYSE American	US	SAT	SUN	XASE	87
EXCHG	U	2001/05/11	2018/06/08	US82028KAC53	186681	USAMEX	NYSE American	US	SAT	SUN	XASE	87
EXCHG	U	2001/05/11	2018/06/08	US69360J7845	241612	USAMEX	NYSE American	US	SAT	SUN	XASE	87
EXCHG	U	2001/05/11	2018/06/08	US30224PAE16	261774	USAMEX	NYSE American	US	SAT	SUN	XASE	87
EXCHG	U	2001/05/11	2018/06/08	US4278252030	275541	USAMEX	NYSE American	US	SAT	SUN	XASE	87
EXCHG	U	2001/05/11	2018/06/08	USP3579EAD96	276254	USAMEX	NYSE American	US	SAT	SUN	XASE	87
EXCHG	U	2001/05/11	2018/06/08	US111022AA72	277058	USAMEX	NYSE American	US	SAT	SUN	XASE	87
EXCHG	U	2001/05/11	2018/06/08	US3763982028	335471	USAMEX	NYSE American	US	SAT	SUN	XASE	87
EXCHG	U	2001/05/11	2018/06/08	US69360J7506	369232	USAMEX	NYSE American	US	SAT	SUN	XASE	87
EXCHG	U	2001/05/11	2018/06/08	US3524514052	371389	USAMEX	NYSE American	US	SAT	SUN	XASE	87
EXCHG	U	2001/05/11	2018/06/08	US6359062097	459450	USAMEX	NYSE American	US	SAT	SUN	XASE	87
EXCHG	U	2001/05/11	2018/06/08	US69360J7431	486907	USAMEX	NYSE American	US	SAT	SUN	XASE	87
EXCHG	U	2001/05/11	2018/06/08	US40411EAB48	532556	USAMEX	NYSE American	US	SAT	SUN	XASE	87
EXCHG	U	2001/05/11	2018/06/08	US0275682039	633965	USAMEX	NYSE American	US	SAT	SUN	XASE	87
EXCHG	U	2001/05/11	2018/06/08	US912810EF13	683380	USAMEX	NYSE American	US	SAT	SUN	XASE	87
EXCHG	U	2001/05/11	2018/06/08	US912810EH78	683386	USAMEX	NYSE American	US	SAT	SUN	XASE	87
EXCHG	U	2001/05/11	2018/06/08	US01449J2042	837701	USAMEX	NYSE American	US	SAT	SUN	XASE	87
EXCHG	U	2001/05/11	2018/06/08	US00922KAA88	843807	USAMEX	NYSE American	US	SAT	SUN	XASE	87
EXCHG	U	2001/05/11	2018/06/08	US61740AAA25	950965	USAMEX	NYSE American	US	SAT	SUN	XASE	87
EXCHG	U	2001/05/11	2018/06/08	US87612EAB20	952853	USAMEX	NYSE American	US	SAT	SUN	XASE	87
EXCHG	U	2001/05/11	2018/06/08	US857555AM89	962573	USAMEX	NYSE American	US	SAT	SUN	XASE	87
EXCHG	U	2001/05/11	2018/06/08	US869049AC07	1113633	USAMEX	NYSE American	US	SAT	SUN	XASE	87
EXCHG	U	2001/05/11	2018/06/08	US247367AU99	1117069	USAMEX	NYSE American	US	SAT	SUN	XASE	87
EXCHG	U	2001/05/11	2018/06/08	US48239AAA79	1117505	USAMEX	NYSE American	US	SAT	SUN	XASE	87
EXCHG	U	2001/05/11	2018/06/08	US17313G6136	1167427	USAMEX	NYSE American	US	SAT	SUN	XASE	87
EXCHG	U	2001/05/11	2018/06/08	US17313G7613	1167479	USAMEX	NYSE American	US	SAT	SUN	XASE	87
EXCHG	U	2001/05/11	2018/06/08	US17311G2764	1167482	USAMEX	NYSE American	US	SAT	SUN	XASE	87
EXCHG	U	2001/05/11	2018/06/08	US0025461825	1179850	USAMEX	NYSE American	US	SAT	SUN	XASE	87
EXCHG	U	2001/05/11	2018/06/08	US0025462575	1179866	USAMEX	NYSE American	US	SAT	SUN	XASE	87
EXCHG	U	2001/05/11	2018/06/08	US0025461742	1179875	USAMEX	NYSE American	US	SAT	SUN	XASE	87
EXCHG	U	2001/05/11	2018/06/08	US0025461908	1180239	USAMEX	NYSE American	US	SAT	SUN	XASE	87
EXCHG	U	2001/05/11	2018/06/08	US0025462815	1180240	USAMEX	NYSE American	US	SAT	SUN	XASE	87
EXCHG	U	2001/05/11	2018/06/08	US0025463722	1180241	USAMEX	NYSE American	US	SAT	SUN	XASE	87
EXCHG	U	2001/05/11	2018/06/08	US0025464225	1180252	USAMEX	NYSE American	US	SAT	SUN	XASE	87
EXCHG	U	2001/05/11	2018/06/08	US0025464308	1180261	USAMEX	NYSE American	US	SAT	SUN	XASE	87
EXCHG	U	2001/05/11	2018/06/08	US0025465479	1180275	USAMEX	NYSE American	US	SAT	SUN	XASE	87
EXCHG	U	2001/05/11	2018/06/08	US0025465131	1180280	USAMEX	NYSE American	US	SAT	SUN	XASE	87
EXCHG	U	2001/05/11	2018/06/08	US0025462328	1180285	USAMEX	NYSE American	US	SAT	SUN	XASE	87
EXCHG	U	2001/05/11	2018/06/08	US0025465396	1180286	USAMEX	NYSE American	US	SAT	SUN	XASE	87
EXCHG	U	2001/05/11	2018/06/08	US0025461668	1180287	USAMEX	NYSE American	US	SAT	SUN	XASE	87
EXCHG	U	2001/05/11	2018/06/08	US0025462658	1180291	USAMEX	NYSE American	US	SAT	SUN	XASE	87
EXCHG	U	2001/05/11	2018/06/08	US22546EAL83	1180301	USAMEX	NYSE American	US	SAT	SUN	XASE	87
EXCHG	U	2001/05/11	2018/06/08	US06050MEL72	1180312	USAMEX	NYSE American	US	SAT	SUN	XASE	87
EXCHG	U	2001/05/11	2018/06/08	US06050MEH60	1180315	USAMEX	NYSE American	US	SAT	SUN	XASE	87
EXCHG	U	2001/05/11	2018/06/08	US06050MEP86	1180317	USAMEX	NYSE American	US	SAT	SUN	XASE	87
EXCHG	U	2001/05/11	2018/06/08	US06050MEU71	1180318	USAMEX	NYSE American	US	SAT	SUN	XASE	87
EXCHG	U	2001/05/11	2018/06/08	US06050MEW38	1180322	USAMEX	NYSE American	US	SAT	SUN	XASE	87
EXCHG	U	2001/05/11	2018/06/08	US06050MEZ68	1180324	USAMEX	NYSE American	US	SAT	SUN	XASE	87
EXCHG	U	2001/05/11	2018/06/08	US06050MFA09	1180329	USAMEX	NYSE American	US	SAT	SUN	XASE	87
EXCHG	U	2001/05/11	2018/06/08	US06050MFD48	1180331	USAMEX	NYSE American	US	SAT	SUN	XASE	87
EXCHG	U	2001/05/11	2018/06/08	US06050MFJ18	1180332	USAMEX	NYSE American	US	SAT	SUN	XASE	87
EXCHG	U	2001/05/11	2018/06/08	US06050MFM47	1180333	USAMEX	NYSE American	US	SAT	SUN	XASE	87
EXCHG	U	2001/05/11	2018/06/08	US17308C4520	1183027	USAMEX	NYSE American	US	SAT	SUN	XASE	87
EXCHG	U	2001/05/11	2018/06/08	US06050MFE21	1183057	USAMEX	NYSE American	US	SAT	SUN	XASE	87
EXCHG	U	2001/05/11	2018/06/08	US06050MEB90	1183059	USAMEX	NYSE American	US	SAT	SUN	XASE	87
EXCHG	U	2001/05/11	2018/06/08	US06050MDE49	1183061	USAMEX	NYSE American	US	SAT	SUN	XASE	87
EXCHG	U	2001/05/11	2018/06/08	US06050MEK99	1183062	USAMEX	NYSE American	US	SAT	SUN	XASE	87
EXCHG	U	2001/05/11	2018/06/08	US06050MDH79	1183065	USAMEX	NYSE American	US	SAT	SUN	XASE	87
EXCHG	U	2001/05/11	2018/06/08	US06050MDN48	1183066	USAMEX	NYSE American	US	SAT	SUN	XASE	87
EXCHG	U	2001/05/11	2018/06/08	US06050MER43	1183071	USAMEX	NYSE American	US	SAT	SUN	XASE	87
EXCHG	U	2001/05/11	2018/06/08	US06050MEY93	1183072	USAMEX	NYSE American	US	SAT	SUN	XASE	87
EXCHG	U	2001/05/11	2018/06/08	US0025462401	1183073	USAMEX	NYSE American	US	SAT	SUN	XASE	87
EXCHG	U	2001/05/11	2018/06/08	US06050MFB81	1183075	USAMEX	NYSE American	US	SAT	SUN	XASE	87
EXCHG	U	2001/05/11	2018/06/08	US06050MFF95	1183080	USAMEX	NYSE American	US	SAT	SUN	XASE	87
EXCHG	U	2001/05/11	2018/06/08	US06050MFH51	1183084	USAMEX	NYSE American	US	SAT	SUN	XASE	87
EXCHG	U	2001/05/11	2018/06/08	US06050MFG78	1183087	USAMEX	NYSE American	US	SAT	SUN	XASE	87
EXCHG	U	2001/05/11	2018/06/08	US06050MFL63	1183088	USAMEX	NYSE American	US	SAT	SUN	XASE	87
EXCHG	U	2001/05/11	2018/06/08	US06050MGB72	1183160	USAMEX	NYSE American	US	SAT	SUN	XASE	87
EXCHG	U	2001/05/11	2018/06/08	US06050MGJ09	1183259	USAMEX	NYSE American	US	SAT	SUN	XASE	87
EXCHG	U	2001/05/11	2018/06/08	US06050MGM38	1183342	USAMEX	NYSE American	US	SAT	SUN	XASE	87
EXCHG	U	2001/05/11	2018/06/08	US06050MDM64	1183369	USAMEX	NYSE American	US	SAT	SUN	XASE	87
EXCHG	U	2001/05/11	2018/06/08	US17311G3002	1184348	USAMEX	NYSE American	US	SAT	SUN	XASE	87
EXCHG	U	2001/05/11	2018/06/08	US1730794765	1184383	USAMEX	NYSE American	US	SAT	SUN	XASE	87
EXCHG	U	2001/05/11	2018/06/08	US17308C6848	1184407	USAMEX	NYSE American	US	SAT	SUN	XASE	87
EXCHG	U	2001/05/11	2018/06/08	US2826457614	1184429	USAMEX	NYSE American	US	SAT	SUN	XASE	87
EXCHG	U	2001/05/11	2018/06/08	US0268748839	1184477	USAMEX	NYSE American	US	SAT	SUN	XASE	87
EXCHG	U	2001/05/11	2018/06/08	US17311G3671	1184721	USAMEX	NYSE American	US	SAT	SUN	XASE	87
EXCHG	U	2001/05/11	2018/06/08	US17308C8828	1184804	USAMEX	NYSE American	US	SAT	SUN	XASE	87
EXCHG	U	2001/05/11	2018/06/08	US17308C3530	1184946	USAMEX	NYSE American	US	SAT	SUN	XASE	87
EXCHG	U	2001/05/11	2018/06/08	US1730787264	1184997	USAMEX	NYSE American	US	SAT	SUN	XASE	87
EXCHG	U	2001/05/11	2018/06/08	US17308C7598	1185042	USAMEX	NYSE American	US	SAT	SUN	XASE	87
EXCHG	U	2001/05/11	2018/06/08	US17308C7002	1185052	USAMEX	NYSE American	US	SAT	SUN	XASE	87
EXCHG	U	2001/05/11	2018/06/08	US1730796414	1185058	USAMEX	NYSE American	US	SAT	SUN	XASE	87
EXCHG	U	2001/05/11	2018/06/08	US17308C6509	1185067	USAMEX	NYSE American	US	SAT	SUN	XASE	87
EXCHG	U	2001/05/11	2018/06/08	US1730768520	1185077	USAMEX	NYSE American	US	SAT	SUN	XASE	87
EXCHG	U	2001/05/11	2018/06/08	US1730765062	1185338	USAMEX	NYSE American	US	SAT	SUN	XASE	87
EXCHG	U	2001/05/11	2018/06/08	US17307D3035	1185354	USAMEX	NYSE American	US	SAT	SUN	XASE	87
EXCHG	U	2001/05/11	2018/06/08	US073928E664	1185493	USAMEX	NYSE American	US	SAT	SUN	XASE	87
EXCHG	U	2001/05/11	2018/06/08	US22546EAE41	1185804	USAMEX	NYSE American	US	SAT	SUN	XASE	87
EXCHG	U	2001/05/11	2018/06/08	US92976WAB28	1185820	USAMEX	NYSE American	US	SAT	SUN	XASE	87
EXCHG	U	2001/05/11	2018/06/08	US78647Y1001	1185863	USAMEX	NYSE American	US	SAT	SUN	XASE	87
EXCHG	U	2001/05/11	2018/06/08	US78647V2051	1185994	USAMEX	NYSE American	US	SAT	SUN	XASE	87
EXCHG	U	2001/05/11	2018/06/08	US92976WAG15	1186079	USAMEX	NYSE American	US	SAT	SUN	XASE	87
EXCHG	U	2001/05/11	2018/06/08	US78647X2018	1186100	USAMEX	NYSE American	US	SAT	SUN	XASE	87
EXCHG	U	2001/05/11	2018/06/08	US78647M1062	1186123	USAMEX	NYSE American	US	SAT	SUN	XASE	87
EXCHG	U	2001/05/11	2018/06/08	US78647P2083	1186143	USAMEX	NYSE American	US	SAT	SUN	XASE	87
EXCHG	U	2001/05/11	2018/06/08	US8702972154	1186191	USAMEX	NYSE American	US	SAT	SUN	XASE	87
EXCHG	U	2001/05/11	2018/06/08	US61746S4223	1186788	USAMEX	NYSE American	US	SAT	SUN	XASE	87
EXCHG	U	2001/05/11	2018/06/08	US0025465214	1186999	USAMEX	NYSE American	US	SAT	SUN	XASE	87
EXCHG	U	2001/05/11	2018/06/08	US06050MEC73	1187140	USAMEX	NYSE American	US	SAT	SUN	XASE	87
EXCHG	U	2001/05/11	2018/06/08	US61744Y4136	1187515	USAMEX	NYSE American	US	SAT	SUN	XASE	87
EXCHG	U	2001/05/11	2018/06/08	US17313G8033	1187538	USAMEX	NYSE American	US	SAT	SUN	XASE	87
EXCHG	U	2001/05/11	2018/06/08	US61744Y5208	1187584	USAMEX	NYSE American	US	SAT	SUN	XASE	87
EXCHG	U	2001/05/11	2018/06/08	US17313G2093	1187642	USAMEX	NYSE American	US	SAT	SUN	XASE	87
EXCHG	U	2001/05/11	2018/06/08	US8702971990	1187652	USAMEX	NYSE American	US	SAT	SUN	XASE	87
EXCHG	U	2001/05/11	2018/06/08	US17313G5633	1187660	USAMEX	NYSE American	US	SAT	SUN	XASE	87
EXCHG	U	2001/05/11	2018/06/08	US17313G7878	1187706	USAMEX	NYSE American	US	SAT	SUN	XASE	87
EXCHG	U	2001/05/11	2018/06/08	US22542D2099	1187712	USAMEX	NYSE American	US	SAT	SUN	XASE	87
EXCHG	U	2001/05/11	2018/06/08	US22542D6058	1187731	USAMEX	NYSE American	US	SAT	SUN	XASE	87
EXCHG	U	2001/05/11	2018/06/08	US17311G6492	1187739	USAMEX	NYSE American	US	SAT	SUN	XASE	87
EXCHG	U	2001/05/11	2018/06/08	US8702976031	1187767	USAMEX	NYSE American	US	SAT	SUN	XASE	87
EXCHG	U	2001/05/11	2018/06/08	US8702978011	1187789	USAMEX	NYSE American	US	SAT	SUN	XASE	87
EXCHG	U	2001/05/11	2018/06/08	US17311G4414	1187791	USAMEX	NYSE American	US	SAT	SUN	XASE	87
EXCHG	U	2001/05/11	2018/06/08	US17313G6623	1187820	USAMEX	NYSE American	US	SAT	SUN	XASE	87
EXCHG	U	2001/05/11	2018/06/08	US8702973061	1187828	USAMEX	NYSE American	US	SAT	SUN	XASE	87
EXCHG	U	2001/05/11	2018/06/08	US17313T7063	1187849	USAMEX	NYSE American	US	SAT	SUN	XASE	87
EXCHG	U	2001/05/11	2018/06/08	US8702974051	1187857	USAMEX	NYSE American	US	SAT	SUN	XASE	87
EXCHG	U	2001/05/11	2018/06/08	US17311G1857	1187902	USAMEX	NYSE American	US	SAT	SUN	XASE	87
EXCHG	U	2001/05/11	2018/06/08	US17313G6540	1187961	USAMEX	NYSE American	US	SAT	SUN	XASE	87
EXCHG	U	2001/05/11	2018/06/08	US06050MFS17	1188658	USAMEX	NYSE American	US	SAT	SUN	XASE	87
EXCHG	U	2001/05/11	2018/06/08	US06050MFV46	1188726	USAMEX	NYSE American	US	SAT	SUN	XASE	87
EXCHG	U	2001/05/11	2018/06/08	US81619PAF45	1188743	USAMEX	NYSE American	US	SAT	SUN	XASE	87
EXCHG	U	2001/05/11	2018/06/08	US06050MFW29	1188774	USAMEX	NYSE American	US	SAT	SUN	XASE	87
EXCHG	U	2001/05/11	2018/06/08	US81619PAA57	1188790	USAMEX	NYSE American	US	SAT	SUN	XASE	87
EXCHG	U	2001/05/11	2018/06/08	US06050MGA99	1188792	USAMEX	NYSE American	US	SAT	SUN	XASE	87
EXCHG	U	2001/05/11	2018/06/08	US06050MGF86	1188798	USAMEX	NYSE American	US	SAT	SUN	XASE	87
EXCHG	U	2001/05/11	2018/06/08	US06050MGK71	1188806	USAMEX	NYSE American	US	SAT	SUN	XASE	87
EXCHG	U	2001/05/11	2018/06/08	US06050MGN11	1188816	USAMEX	NYSE American	US	SAT	SUN	XASE	87
EXCHG	U	2001/05/11	2018/06/08	US06050MDJ36	1188829	USAMEX	NYSE American	US	SAT	SUN	XASE	87
EXCHG	U	2001/05/11	2018/06/08	GB00B1WL1590	1189387	USAMEX	NYSE American	US	SAT	SUN	XASE	87
EXCHG	U	2001/05/11	2018/06/08	US46625H7614	1189402	USAMEX	NYSE American	US	SAT	SUN	XASE	87
EXCHG	U	2001/05/11	2018/06/08	US81619PAB31	1189770	USAMEX	NYSE American	US	SAT	SUN	XASE	87
EXCHG	U	2001/05/11	2018/06/08	US61746Y8580	1189801	USAMEX	NYSE American	US	SAT	SUN	XASE	87
EXCHG	U	2001/05/11	2018/06/08	US1730758471	1189870	USAMEX	NYSE American	US	SAT	SUN	XASE	87
EXCHG	U	2001/05/11	2018/06/08	US78009KAB89	1189950	USAMEX	NYSE American	US	SAT	SUN	XASE	87
EXCHG	U	2001/05/11	2018/06/08	US1730758547	1189951	USAMEX	NYSE American	US	SAT	SUN	XASE	87
EXCHG	U	2001/05/11	2018/06/08	US073928Q973	1190012	USAMEX	NYSE American	US	SAT	SUN	XASE	87
EXCHG	U	2001/05/11	2018/06/08	US949746FG12	1190117	USAMEX	NYSE American	US	SAT	SUN	XASE	87
EXCHG	U	2001/05/11	2018/06/08	US025270AY59	1244077	USAMEX	NYSE American	US	SAT	SUN	XASE	87
EXCHG	U	2001/05/11	2018/06/08	US78647A1025	1258981	USAMEX	NYSE American	US	SAT	SUN	XASE	87
EXCHG	U	2001/05/11	2018/06/08	US43162L2060	1265252	USAMEX	NYSE American	US	SAT	SUN	XASE	87
EXCHG	I	2004/10/26	2004/10/26	JP2230001915	1294339	JPBND	Japan Unlisted Bond	JP				174
EXCHG	I	2004/10/26	2004/10/26	JP22300029A6	1629539	JPBND	Japan Unlisted Bond	JP				174
EXCHG	U	2001/05/11	2018/06/08	US06052E4347	1657798	USAMEX	NYSE American	US	SAT	SUN	XASE	87
EXCHG	U	2001/05/11	2018/06/08	US06052E4263	1657816	USAMEX	NYSE American	US	SAT	SUN	XASE	87
EXCHG	U	2001/05/11	2018/06/08	US007924AH66	1678027	USAMEX	NYSE American	US	SAT	SUN	XASE	87
EXCHG	U	2001/05/11	2018/06/08	US55973B2016	1695883	USAMEX	NYSE American	US	SAT	SUN	XASE	87
EXCHG	I	2004/10/26	2004/10/26	JP2230002A61	1979862	JPBND	Japan Unlisted Bond	JP				174
EXCHG	I	2004/10/26	2004/10/26	JP2230003A94	2116050	JPBND	Japan Unlisted Bond	JP				174
EXCHG	I	2004/10/26	2004/10/26	JP2230002AA2	2169752	JPBND	Japan Unlisted Bond	JP				174
EXCHG	I	2004/10/26	2004/10/26	JP2230001AB2	2221969	JPBND	Japan Unlisted Bond	JP				174
EXCHG	I	2004/10/26	2004/10/26	JP2230002AC8	2337258	JPBND	Japan Unlisted Bond	JP				174
EXCHG	I	2004/10/26	2004/10/26	JP2230001B12	2378115	JPBND	Japan Unlisted Bond	JP				174
EXCHG	I	2004/10/26	2004/10/26	JP2230003B28	2436039	JPBND	Japan Unlisted Bond	JP				174
EXCHG	U	2001/05/11	2018/06/08	US55973B3006	2534983	USAMEX	NYSE American	US	SAT	SUN	XASE	87
EXCHG	I	2004/10/26	2004/10/26	JP2230001B46	2616586	JPBND	Japan Unlisted Bond	JP				174
EXCHG	U	2001/05/11	2018/06/08	US9030022027	2737956	USAMEX	NYSE American	US	SAT	SUN	XASE	87
EXCHG	U	2001/05/11	2018/06/08	US36729P2074	2784852	USAMEX	NYSE American	US	SAT	SUN	XASE	87
EXCHG	U	2001/05/11	2018/06/08	US30049A2069	2814682	USAMEX	NYSE American	US	SAT	SUN	XASE	87
EXCHG	I	2004/10/26	2004/10/26	JP2230002BA0	3198485	JPBND	Japan Unlisted Bond	JP				174
EXCHG	I	2004/10/26	2004/10/26	JP2230002BB8	3291815	JPBND	Japan Unlisted Bond	JP				174
EXCHG	I	2004/10/26	2004/10/26	JP2230001A47	3372526	JPBND	Japan Unlisted Bond	JP				174
EXCHG	I	2004/10/26	2004/10/26	JP2230001A88	3372530	JPBND	Japan Unlisted Bond	JP				174
EXCHG	I	2004/10/26	2004/10/26	JP2230002A20	3372537	JPBND	Japan Unlisted Bond	JP				174
EXCHG	I	2004/10/26	2004/10/26	JP2230002A53	3372560	JPBND	Japan Unlisted Bond	JP				174
EXCHG	I	2004/10/26	2004/10/26	JP2230003A37	3372580	JPBND	Japan Unlisted Bond	JP				174
EXCHG	I	2004/10/26	2004/10/26	JP2230002C10	3478403	JPBND	Japan Unlisted Bond	JP				174
EXCHG	I	2004/10/26	2004/10/26	JP2230003C27	3571926	JPBND	Japan Unlisted Bond	JP				174
EXCHG	I	2004/10/26	2004/10/26	JP2230001C37	3667617	JPBND	Japan Unlisted Bond	JP				174
EXCHG	U	2001/09/23	2003/12/17	TN0004201158	3734054	TNTSE	Tunis Stock Exchange	TN	SAT	SUN	XTUN	119
EXCHG	U	2001/09/23	2003/12/17	TN0004201166	3734055	TNTSE	Tunis Stock Exchange	TN	SAT	SUN	XTUN	119
EXCHG	U	2001/05/11	2018/06/08	US39530A2033	3878733	USAMEX	NYSE American	US	SAT	SUN	XASE	87
EXCHG	U	2001/05/11	2018/06/08	US00650W4096	3932134	USAMEX	NYSE American	US	SAT	SUN	XASE	87
EXCHG	U	2001/05/11	2018/06/08	US55973B4095	3947138	USAMEX	NYSE American	US	SAT	SUN	XASE	87
EXCHG	I	2004/10/26	2004/10/26	JP2230001CC6	3947682	JPBND	Japan Unlisted Bond	JP				174
EXCHG	I	2004/10/26	2004/10/26	JP2230002CC4	3952652	JPBND	Japan Unlisted Bond	JP				174
EXCHG	U	2001/05/11	2018/06/08	US8941742004	3960293	USAMEX	NYSE American	US	SAT	SUN	XASE	87
EXCHG	I	2004/10/26	2004/10/26	JP2230001D10	3973244	JPBND	Japan Unlisted Bond	JP				174
EXCHG	I	2004/10/26	2004/10/26	JP2230003D26	3984694	JPBND	Japan Unlisted Bond	JP				174
EXCHG	I	2004/10/26	2004/10/26	JP2230001D36	4006618	JPBND	Japan Unlisted Bond	JP				174
EXCHG	U	2001/05/11	2018/06/08	US36465A3077	4034391	USAMEX	NYSE American	US	SAT	SUN	XASE	87
EXCHG	U	2001/05/11	2018/06/08	US50575Q2012	4047326	USAMEX	NYSE American	US	SAT	SUN	XASE	87
EXCHG	U	2001/05/11	2018/06/08	US36242L2043	4063354	USAMEX	NYSE American	US	SAT	SUN	XASE	87
EXCHG	U	2001/05/11	2018/06/08	US36729P3064	4134330	USAMEX	NYSE American	US	SAT	SUN	XASE	87
EXCHG	U	2001/05/11	2018/06/08	US75025X2099	4161866	USAMEX	NYSE American	US	SAT	SUN	XASE	87
EXCHG	I	2010/04/06	2010/04/06	NZGPWDT005C3	4184731	NZBND	New Zealand Unlisted Bond	NZ				247
EXCHG	U	2001/05/11	2018/06/08	US73933H2004	4223073	USAMEX	NYSE American	US	SAT	SUN	XASE	87
EXCHG	U	2001/05/11	2018/06/08	US2927583078	4288375	USAMEX	NYSE American	US	SAT	SUN	XASE	87
EXCHG	U	2001/05/11	2018/06/08	US98872E2072	4371260	USAMEX	NYSE American	US	SAT	SUN	XASE	87
EXCHG	U	2010/08/02	2013/04/11	US40434F6117	4418348	USTRCE	FINRA TRACE	US			FINR	257
EXCHG	I	2010/04/06	2010/04/06	NZINSDTA02C5	4489887	NZBND	New Zealand Unlisted Bond	NZ				247
EXCHG	I	2007/07/25	2007/07/25	XS1238914144	4520816	XSBND	XS Unlisted Bond	XS				194
EXCHG	I	2007/07/25	2007/07/25	XS1138882375	4568756	XSBND	XS Unlisted Bond	XS				194
EXCHG	U	2001/03/16	2018/04/27	XS1138882375	4568756	IEISE	Euronext Dublin	IE	SAT	SUN	XDUB	61
EXCHG	I	2007/07/25	2007/07/25	XS1138882532	4568762	XSBND	XS Unlisted Bond	XS				194
EXCHG	U	2001/03/16	2018/04/27	XS1138882532	4568762	IEISE	Euronext Dublin	IE	SAT	SUN	XDUB	61
EXCHG	I	2007/07/25	2007/07/25	XS1138883183	4568768	XSBND	XS Unlisted Bond	XS				194
EXCHG	U	2001/03/16	2018/04/27	XS1138883183	4568768	IEISE	Euronext Dublin	IE	SAT	SUN	XDUB	61
EXCHG	I	2007/07/25	2007/07/25	XS1138883266	4568771	XSBND	XS Unlisted Bond	XS				194
EXCHG	U	2001/03/16	2018/04/27	XS1138883266	4568771	IEISE	Euronext Dublin	IE	SAT	SUN	XDUB	61
EXCHG	I	2007/07/25	2007/07/25	XS1138883340	4568774	XSBND	XS Unlisted Bond	XS				194
EXCHG	U	2001/03/16	2018/04/27	XS1138883340	4568774	IEISE	Euronext Dublin	IE	SAT	SUN	XDUB	61
EXCHG	I	2007/07/25	2007/07/25	XS1138883696	4568776	XSBND	XS Unlisted Bond	XS				194
EXCHG	U	2001/03/16	2018/04/27	XS1138883696	4568776	IEISE	Euronext Dublin	IE	SAT	SUN	XDUB	61
EXCHG	I	2007/07/25	2007/07/25	XS1138883852	4568782	XSBND	XS Unlisted Bond	XS				194
EXCHG	U	2001/03/16	2018/04/27	XS1138883852	4568782	IEISE	Euronext Dublin	IE	SAT	SUN	XDUB	61
EXCHG	I	2007/07/25	2007/07/25	XS1138883423	4568871	XSBND	XS Unlisted Bond	XS				194
EXCHG	U	2001/03/16	2018/04/27	XS1138883423	4568871	IEISE	Euronext Dublin	IE	SAT	SUN	XDUB	61
EXCHG	U	2001/05/11	2018/06/08	US09627J5083	4627483	USAMEX	NYSE American	US	SAT	SUN	XASE	87
EXCHG	I	2015/06/15	2015/06/15		4695307	CNIBBM	Inter-Bank Bond Market	CN				383
EXCHG	I	2015/06/15	2015/06/15		4715637	CNIBBM	Inter-Bank Bond Market	CN				383
EXCHG	U	2001/05/11	2018/06/08	US55280YAA82	4755556	USAMEX	NYSE American	US	SAT	SUN	XASE	87
EXCHG	U	2001/05/11	2018/06/08	US09627J7485	4831133	USAMEX	NYSE American	US	SAT	SUN	XASE	87
EXCHG	U	2001/05/11	2018/06/08	US0597022096	4856347	USAMEX	NYSE American	US	SAT	SUN	XASE	87
EXCHG	U	2001/05/11	2018/06/08	US09627J6560	4927014	USAMEX	NYSE American	US	SAT	SUN	XASE	87
EXCHG	U	2001/05/11	2018/06/08	US4278257088	4951451	USAMEX	NYSE American	US	SAT	SUN	XASE	87
EXCHG	U	2001/05/11	2018/06/08	US36250J2087	4952489	USAMEX	NYSE American	US	SAT	SUN	XASE	87
EXCHG	U	2001/04/09	2010/06/17	BRPINEC0A322	5128359	BRBVSP	BM&F Bovespa - Securities, Commodities and Futures Exchange	BR	SAT	SUN	BVMF	81
EXCHG	U	2001/04/09	2010/06/17	BRPINEC0A330	5128361	BRBVSP	BM&F Bovespa - Securities, Commodities and Futures Exchange	BR	SAT	SUN	BVMF	81
EXCHG	U	2001/04/09	2010/06/17	BRPINEC0A348	5128362	BRBVSP	BM&F Bovespa - Securities, Commodities and Futures Exchange	BR	SAT	SUN	BVMF	81
EXCHG	U	2001/04/09	2010/06/17	BRPINEC0A355	5128363	BRBVSP	BM&F Bovespa - Securities, Commodities and Futures Exchange	BR	SAT	SUN	BVMF	81
EXCHG	U	2001/04/09	2010/06/17	BRPINEC0A363	5128365	BRBVSP	BM&F Bovespa - Securities, Commodities and Futures Exchange	BR	SAT	SUN	BVMF	81
EXCHG	U	2001/04/09	2010/06/17	BRPINEC0A371	5128367	BRBVSP	BM&F Bovespa - Securities, Commodities and Futures Exchange	BR	SAT	SUN	BVMF	81
EXCHG	U	2001/04/09	2010/06/17	BRPINEC0A389	5128369	BRBVSP	BM&F Bovespa - Securities, Commodities and Futures Exchange	BR	SAT	SUN	BVMF	81
EXCHG	U	2001/04/09	2010/06/17	BRBCEFC036P3	5136236	BRBVSP	BM&F Bovespa - Securities, Commodities and Futures Exchange	BR	SAT	SUN	BVMF	81
EXCHG	U	2001/04/09	2010/06/17	BRBMTNC01A59	5136326	BRBVSP	BM&F Bovespa - Securities, Commodities and Futures Exchange	BR	SAT	SUN	BVMF	81
EXCHG	U	2001/04/09	2010/06/17	BRBMXMC00GQ2	5136332	BRBVSP	BM&F Bovespa - Securities, Commodities and Futures Exchange	BR	SAT	SUN	BVMF	81
EXCHG	U	2001/04/09	2010/06/17	BRBMXMC00GR0	5136336	BRBVSP	BM&F Bovespa - Securities, Commodities and Futures Exchange	BR	SAT	SUN	BVMF	81
EXCHG	U	2001/04/09	2010/06/17	BRBMXMC00GS8	5136339	BRBVSP	BM&F Bovespa - Securities, Commodities and Futures Exchange	BR	SAT	SUN	BVMF	81
EXCHG	U	2001/04/09	2010/06/17	BRBMXMC00GT6	5136342	BRBVSP	BM&F Bovespa - Securities, Commodities and Futures Exchange	BR	SAT	SUN	BVMF	81
EXCHG	U	2001/04/09	2010/06/17	BRBMXMC00GU4	5136346	BRBVSP	BM&F Bovespa - Securities, Commodities and Futures Exchange	BR	SAT	SUN	BVMF	81
EXCHG	U	2001/04/09	2010/06/17	BRBMXMC00GV2	5136350	BRBVSP	BM&F Bovespa - Securities, Commodities and Futures Exchange	BR	SAT	SUN	BVMF	81
EXCHG	U	2001/04/09	2010/06/17	BRINTLC04XU4	5136354	BRBVSP	BM&F Bovespa - Securities, Commodities and Futures Exchange	BR	SAT	SUN	BVMF	81
EXCHG	U	2001/04/09	2010/06/17	BRPINEC0A9S7	5136374	BRBVSP	BM&F Bovespa - Securities, Commodities and Futures Exchange	BR	SAT	SUN	BVMF	81
EXCHG	U	2001/05/11	2018/06/08	US7045514079	5208478	USAMEX	NYSE American	US	SAT	SUN	XASE	87
EXCHG	I	2015/06/15	2015/06/15	CND10000HRG5	5220077	CNIBBM	Inter-Bank Bond Market	CN				383
EXCHG	U	2001/04/09	2010/06/17	BRZXSZLFRDM8	5249449	BRBVSP	BM&F Bovespa - Securities, Commodities and Futures Exchange	BR	SAT	SUN	BVMF	81
EXCHG	U	2001/04/09	2010/06/17	BRZXSZLFRDN6	5249450	BRBVSP	BM&F Bovespa - Securities, Commodities and Futures Exchange	BR	SAT	SUN	BVMF	81
EXCHG	U	2001/04/09	2010/06/17	BRZXSZLFRDO4	5249451	BRBVSP	BM&F Bovespa - Securities, Commodities and Futures Exchange	BR	SAT	SUN	BVMF	81
EXCHG	U	2001/04/09	2010/06/17	BRZXSZLFRDP1	5249452	BRBVSP	BM&F Bovespa - Securities, Commodities and Futures Exchange	BR	SAT	SUN	BVMF	81
EXCHG	U	2001/04/09	2010/06/17	BRZXSZLFRDQ9	5249453	BRBVSP	BM&F Bovespa - Securities, Commodities and Futures Exchange	BR	SAT	SUN	BVMF	81
EXCHG	U	2001/04/09	2010/06/17	BRZXSZLFRDR7	5249454	BRBVSP	BM&F Bovespa - Securities, Commodities and Futures Exchange	BR	SAT	SUN	BVMF	81
EXCHG	U	2001/04/09	2010/06/17	BRZXSZLFRDS5	5249455	BRBVSP	BM&F Bovespa - Securities, Commodities and Futures Exchange	BR	SAT	SUN	BVMF	81
EXCHG	U	2001/04/09	2010/06/17	BRZXSZLFRDT3	5249456	BRBVSP	BM&F Bovespa - Securities, Commodities and Futures Exchange	BR	SAT	SUN	BVMF	81
EXCHG	U	2001/04/09	2010/06/17	BRZXSZLFRDU1	5249457	BRBVSP	BM&F Bovespa - Securities, Commodities and Futures Exchange	BR	SAT	SUN	BVMF	81
EXCHG	U	2001/04/09	2010/06/17	BRZXSZLFRDV9	5249458	BRBVSP	BM&F Bovespa - Securities, Commodities and Futures Exchange	BR	SAT	SUN	BVMF	81
EXCHG	U	2001/04/09	2010/06/17	BRZXSZLFRDW7	5249459	BRBVSP	BM&F Bovespa - Securities, Commodities and Futures Exchange	BR	SAT	SUN	BVMF	81
EXCHG	U	2001/04/09	2010/06/17	BRZXSZLFRDX5	5249460	BRBVSP	BM&F Bovespa - Securities, Commodities and Futures Exchange	BR	SAT	SUN	BVMF	81
EXCHG	U	2001/04/09	2010/06/17	BRZXSZLFRDY3	5249461	BRBVSP	BM&F Bovespa - Securities, Commodities and Futures Exchange	BR	SAT	SUN	BVMF	81
EXCHG	U	2001/04/09	2010/06/17	BRZXSZLFRDZ0	5249462	BRBVSP	BM&F Bovespa - Securities, Commodities and Futures Exchange	BR	SAT	SUN	BVMF	81
EXCHG	U	2001/04/09	2010/06/17	BRZXSZLFRE04	5249463	BRBVSP	BM&F Bovespa - Securities, Commodities and Futures Exchange	BR	SAT	SUN	BVMF	81
EXCHG	U	2001/04/09	2010/06/17	BRZXSZLFRE12	5249464	BRBVSP	BM&F Bovespa - Securities, Commodities and Futures Exchange	BR	SAT	SUN	BVMF	81
EXCHG	U	2001/04/09	2010/06/17	BRZXSZLFRE20	5249465	BRBVSP	BM&F Bovespa - Securities, Commodities and Futures Exchange	BR	SAT	SUN	BVMF	81
EXCHG	U	2001/04/09	2010/06/17	BRZXSZLFRE38	5249466	BRBVSP	BM&F Bovespa - Securities, Commodities and Futures Exchange	BR	SAT	SUN	BVMF	81
EXCHG	U	2001/04/09	2010/06/17	BRZXSZLFRE46	5249489	BRBVSP	BM&F Bovespa - Securities, Commodities and Futures Exchange	BR	SAT	SUN	BVMF	81
EXCHG	U	2001/04/09	2010/06/17	BRZXSZLFRE53	5249490	BRBVSP	BM&F Bovespa - Securities, Commodities and Futures Exchange	BR	SAT	SUN	BVMF	81
EXCHG	U	2001/04/09	2010/06/17	BRZXSZLFRE79	5249514	BRBVSP	BM&F Bovespa - Securities, Commodities and Futures Exchange	BR	SAT	SUN	BVMF	81
EXCHG	U	2001/04/09	2010/06/17	BRZXSZLFRE87	5249569	BRBVSP	BM&F Bovespa - Securities, Commodities and Futures Exchange	BR	SAT	SUN	BVMF	81
EXCHG	U	2001/04/09	2010/06/17	BRZXSZLFRE95	5249585	BRBVSP	BM&F Bovespa - Securities, Commodities and Futures Exchange	BR	SAT	SUN	BVMF	81
EXCHG	U	2001/04/09	2010/06/17	BRZXSZLFREA1	5249587	BRBVSP	BM&F Bovespa - Securities, Commodities and Futures Exchange	BR	SAT	SUN	BVMF	81
EXCHG	U	2001/04/09	2010/06/17	BRZXSZLFREB9	5249588	BRBVSP	BM&F Bovespa - Securities, Commodities and Futures Exchange	BR	SAT	SUN	BVMF	81
EXCHG	U	2001/04/09	2010/06/17	BRZXSZLFREC7	5249589	BRBVSP	BM&F Bovespa - Securities, Commodities and Futures Exchange	BR	SAT	SUN	BVMF	81
EXCHG	U	2001/04/09	2010/06/17	BRZXSZLFRED5	5249595	BRBVSP	BM&F Bovespa - Securities, Commodities and Futures Exchange	BR	SAT	SUN	BVMF	81
EXCHG	U	2001/04/09	2010/06/17	BRZXSZLFREE3	5249596	BRBVSP	BM&F Bovespa - Securities, Commodities and Futures Exchange	BR	SAT	SUN	BVMF	81
EXCHG	U	2001/04/09	2010/06/17	BRZXSZLFREF0	5249599	BRBVSP	BM&F Bovespa - Securities, Commodities and Futures Exchange	BR	SAT	SUN	BVMF	81
EXCHG	U	2001/04/09	2010/06/17	BRZXSZLFREG8	5249600	BRBVSP	BM&F Bovespa - Securities, Commodities and Futures Exchange	BR	SAT	SUN	BVMF	81
EXCHG	U	2001/04/09	2010/06/17	BRZXSZLFREH6	5249601	BRBVSP	BM&F Bovespa - Securities, Commodities and Futures Exchange	BR	SAT	SUN	BVMF	81
EXCHG	U	2001/04/09	2010/06/17	BRZXSZLFREI4	5249602	BRBVSP	BM&F Bovespa - Securities, Commodities and Futures Exchange	BR	SAT	SUN	BVMF	81
EXCHG	U	2001/04/09	2010/06/17	BRZXSZLFREJ2	5249603	BRBVSP	BM&F Bovespa - Securities, Commodities and Futures Exchange	BR	SAT	SUN	BVMF	81
EXCHG	U	2001/04/09	2010/06/17	BRZXSZLFREK0	5249604	BRBVSP	BM&F Bovespa - Securities, Commodities and Futures Exchange	BR	SAT	SUN	BVMF	81
EXCHG	U	2001/04/09	2010/06/17	BRZXSZLFREL8	5249606	BRBVSP	BM&F Bovespa - Securities, Commodities and Futures Exchange	BR	SAT	SUN	BVMF	81
EXCHG	U	2001/04/09	2010/06/17	BRZXSZLFREM6	5249607	BRBVSP	BM&F Bovespa - Securities, Commodities and Futures Exchange	BR	SAT	SUN	BVMF	81
EXCHG	U	2001/04/09	2010/06/17	BRBCGMC00W86	5254058	BRBVSP	BM&F Bovespa - Securities, Commodities and Futures Exchange	BR	SAT	SUN	BVMF	81
EXCHG	U	2001/04/09	2010/06/17	BRBMEBC00ZX1	5254074	BRBVSP	BM&F Bovespa - Securities, Commodities and Futures Exchange	BR	SAT	SUN	BVMF	81
EXCHG	U	2001/04/09	2010/06/17	BRDAYCC06388	5254082	BRBVSP	BM&F Bovespa - Securities, Commodities and Futures Exchange	BR	SAT	SUN	BVMF	81
EXCHG	U	2001/04/09	2010/06/17	BRINTLC05664	5254087	BRBVSP	BM&F Bovespa - Securities, Commodities and Futures Exchange	BR	SAT	SUN	BVMF	81
EXCHG	U	2001/04/09	2010/06/17	BRINTLC05672	5254090	BRBVSP	BM&F Bovespa - Securities, Commodities and Futures Exchange	BR	SAT	SUN	BVMF	81
EXCHG	U	2001/04/09	2010/06/17	BRINTLC05680	5254092	BRBVSP	BM&F Bovespa - Securities, Commodities and Futures Exchange	BR	SAT	SUN	BVMF	81
EXCHG	U	2001/04/09	2010/06/17	BRMODLC00GC9	5254094	BRBVSP	BM&F Bovespa - Securities, Commodities and Futures Exchange	BR	SAT	SUN	BVMF	81
EXCHG	U	2001/04/09	2010/06/17	BRMODLC00GD7	5254095	BRBVSP	BM&F Bovespa - Securities, Commodities and Futures Exchange	BR	SAT	SUN	BVMF	81
EXCHG	U	2001/04/09	2010/06/17	BRMODLC00GF2	5254105	BRBVSP	BM&F Bovespa - Securities, Commodities and Futures Exchange	BR	SAT	SUN	BVMF	81
EXCHG	U	2001/04/09	2010/06/17	BRMODLC00GG0	5254106	BRBVSP	BM&F Bovespa - Securities, Commodities and Futures Exchange	BR	SAT	SUN	BVMF	81
EXCHG	U	2001/04/09	2010/06/17	BRMODLC00GH8	5254107	BRBVSP	BM&F Bovespa - Securities, Commodities and Futures Exchange	BR	SAT	SUN	BVMF	81
EXCHG	U	2001/04/09	2010/06/17	BRMODLC00GI6	5254108	BRBVSP	BM&F Bovespa - Securities, Commodities and Futures Exchange	BR	SAT	SUN	BVMF	81
EXCHG	U	2001/04/09	2010/06/17	BRMODLC00GJ4	5254109	BRBVSP	BM&F Bovespa - Securities, Commodities and Futures Exchange	BR	SAT	SUN	BVMF	81
EXCHG	U	2001/04/09	2010/06/17	BRMODLC00GK2	5254110	BRBVSP	BM&F Bovespa - Securities, Commodities and Futures Exchange	BR	SAT	SUN	BVMF	81
EXCHG	U	2001/04/09	2010/06/17	BRPINEC0CRM2	5254111	BRBVSP	BM&F Bovespa - Securities, Commodities and Futures Exchange	BR	SAT	SUN	BVMF	81
EXCHG	U	2001/04/09	2010/06/17	BRPINEC0CRN0	5254112	BRBVSP	BM&F Bovespa - Securities, Commodities and Futures Exchange	BR	SAT	SUN	BVMF	81
EXCHG	U	2001/04/09	2010/06/17	BRPINEC0CRO8	5254114	BRBVSP	BM&F Bovespa - Securities, Commodities and Futures Exchange	BR	SAT	SUN	BVMF	81
EXCHG	U	2001/04/09	2010/06/17	BRPINEC0CRP5	5254115	BRBVSP	BM&F Bovespa - Securities, Commodities and Futures Exchange	BR	SAT	SUN	BVMF	81
EXCHG	U	2001/04/09	2010/06/17	BRPINEC0CV22	5257880	BRBVSP	BM&F Bovespa - Securities, Commodities and Futures Exchange	BR	SAT	SUN	BVMF	81
EXCHG	U	2001/04/09	2010/06/17	BRPINEC0CV30	5257882	BRBVSP	BM&F Bovespa - Securities, Commodities and Futures Exchange	BR	SAT	SUN	BVMF	81
EXCHG	U	2001/04/09	2010/06/17	BRPINEC0CV48	5257885	BRBVSP	BM&F Bovespa - Securities, Commodities and Futures Exchange	BR	SAT	SUN	BVMF	81
EXCHG	U	2001/04/09	2010/06/17	BRPINEC0CV55	5257888	BRBVSP	BM&F Bovespa - Securities, Commodities and Futures Exchange	BR	SAT	SUN	BVMF	81
EXCHG	U	2001/05/11	2018/06/08	US2890742057	5268880	USAMEX	NYSE American	US	SAT	SUN	XASE	87
EXCHG	U	2001/05/11	2018/06/08	US7296402016	5302558	USAMEX	NYSE American	US	SAT	SUN	XASE	87
EXCHG	I	2015/06/15	2015/06/15	CND10000HV52	5316542	CNIBBM	Inter-Bank Bond Market	CN				383
EXCHG	I	2015/06/15	2015/06/15	CND10000HTZ1	5316544	CNIBBM	Inter-Bank Bond Market	CN				383
EXCHG	I	2015/06/15	2015/06/15	CND10000HTG1	5316547	CNIBBM	Inter-Bank Bond Market	CN				383
EXCHG	U	2001/05/11	2018/06/08	US50575Q3002	5330744	USAMEX	NYSE American	US	SAT	SUN	XASE	87
EXCHG	U	2001/05/11	2018/06/08	US29135EAA47	5347923	USAMEX	NYSE American	US	SAT	SUN	XASE	87
EXCHG	I	2015/06/15	2015/06/15	CND10000JCR0	5359121	CNIBBM	Inter-Bank Bond Market	CN				383
EXCHG	U	2001/05/11	2018/06/08	US49446R7118	5360267	USAMEX	NYSE American	US	SAT	SUN	XASE	87
EXCHG	I	2015/06/15	2015/06/15	CND10000L1X3	5364731	CNIBBM	Inter-Bank Bond Market	CN				383
EXCHG	U	2001/04/09	2010/06/17	BRBPLRC000G0	5386561	BRBVSP	BM&F Bovespa - Securities, Commodities and Futures Exchange	BR	SAT	SUN	BVMF	81
EXCHG	U	2001/04/09	2010/06/17	BRINTLC050D5	5389929	BRBVSP	BM&F Bovespa - Securities, Commodities and Futures Exchange	BR	SAT	SUN	BVMF	81
EXCHG	U	2001/04/09	2010/06/17	BRPINEC0A9A5	5396569	BRBVSP	BM&F Bovespa - Securities, Commodities and Futures Exchange	BR	SAT	SUN	BVMF	81
EXCHG	U	2001/04/09	2010/06/17	BRPINEC0A9B3	5396570	BRBVSP	BM&F Bovespa - Securities, Commodities and Futures Exchange	BR	SAT	SUN	BVMF	81
EXCHG	U	2001/04/09	2010/06/17	BRPINEC0A9C1	5396571	BRBVSP	BM&F Bovespa - Securities, Commodities and Futures Exchange	BR	SAT	SUN	BVMF	81
EXCHG	U	2001/04/09	2010/06/17	BRPINEC0A9D9	5396572	BRBVSP	BM&F Bovespa - Securities, Commodities and Futures Exchange	BR	SAT	SUN	BVMF	81
EXCHG	U	2001/04/09	2010/06/17	BRPINEC0A9E7	5396573	BRBVSP	BM&F Bovespa - Securities, Commodities and Futures Exchange	BR	SAT	SUN	BVMF	81
EXCHG	U	2001/04/09	2010/06/17	BRPINEC0A9F4	5396574	BRBVSP	BM&F Bovespa - Securities, Commodities and Futures Exchange	BR	SAT	SUN	BVMF	81
EXCHG	U	2001/04/09	2010/06/17	BRPINEC0A9G2	5396575	BRBVSP	BM&F Bovespa - Securities, Commodities and Futures Exchange	BR	SAT	SUN	BVMF	81
EXCHG	U	2001/04/09	2010/06/17	BRPINEC0B4Z2	5396746	BRBVSP	BM&F Bovespa - Securities, Commodities and Futures Exchange	BR	SAT	SUN	BVMF	81
EXCHG	U	2001/04/09	2010/06/17	BRPINEC0B502	5396747	BRBVSP	BM&F Bovespa - Securities, Commodities and Futures Exchange	BR	SAT	SUN	BVMF	81
EXCHG	U	2001/04/09	2010/06/17	BRPINEC0B510	5396748	BRBVSP	BM&F Bovespa - Securities, Commodities and Futures Exchange	BR	SAT	SUN	BVMF	81
EXCHG	U	2001/04/09	2010/06/17	BRPINEC0B536	5396750	BRBVSP	BM&F Bovespa - Securities, Commodities and Futures Exchange	BR	SAT	SUN	BVMF	81
EXCHG	U	2001/04/09	2010/06/17	BRPINEC0B544	5396751	BRBVSP	BM&F Bovespa - Securities, Commodities and Futures Exchange	BR	SAT	SUN	BVMF	81
EXCHG	U	2001/04/09	2010/06/17	BRPINEC0B569	5396752	BRBVSP	BM&F Bovespa - Securities, Commodities and Futures Exchange	BR	SAT	SUN	BVMF	81
EXCHG	U	2001/04/09	2010/06/17	BRPINEC0B577	5396753	BRBVSP	BM&F Bovespa - Securities, Commodities and Futures Exchange	BR	SAT	SUN	BVMF	81
EXCHG	U	2001/04/09	2010/06/17	BRPINEC0B593	5396754	BRBVSP	BM&F Bovespa - Securities, Commodities and Futures Exchange	BR	SAT	SUN	BVMF	81
EXCHG	U	2001/04/09	2010/06/17	BRPINEC0B5A2	5396755	BRBVSP	BM&F Bovespa - Securities, Commodities and Futures Exchange	BR	SAT	SUN	BVMF	81
EXCHG	U	2001/04/09	2010/06/17	BRPINEC0B5B0	5396756	BRBVSP	BM&F Bovespa - Securities, Commodities and Futures Exchange	BR	SAT	SUN	BVMF	81
EXCHG	U	2001/04/09	2010/06/17	BRPINEC0B5C8	5396757	BRBVSP	BM&F Bovespa - Securities, Commodities and Futures Exchange	BR	SAT	SUN	BVMF	81
EXCHG	U	2001/04/09	2010/06/17	BRPINEC0B5E4	5396758	BRBVSP	BM&F Bovespa - Securities, Commodities and Futures Exchange	BR	SAT	SUN	BVMF	81
EXCHG	U	2001/04/09	2010/06/17	BRPINEC0B5F1	5396759	BRBVSP	BM&F Bovespa - Securities, Commodities and Futures Exchange	BR	SAT	SUN	BVMF	81
EXCHG	U	2001/04/09	2010/06/17	BRPINEC0B5G9	5396760	BRBVSP	BM&F Bovespa - Securities, Commodities and Futures Exchange	BR	SAT	SUN	BVMF	81
EXCHG	U	2001/04/09	2010/06/17	BRPINEC0B5I5	5396762	BRBVSP	BM&F Bovespa - Securities, Commodities and Futures Exchange	BR	SAT	SUN	BVMF	81
EXCHG	U	2001/04/09	2010/06/17	BRPINEC0B5J3	5396763	BRBVSP	BM&F Bovespa - Securities, Commodities and Futures Exchange	BR	SAT	SUN	BVMF	81
EXCHG	U	2001/04/09	2010/06/17	BRPINEC0B5K1	5396764	BRBVSP	BM&F Bovespa - Securities, Commodities and Futures Exchange	BR	SAT	SUN	BVMF	81
EXCHG	U	2001/04/09	2010/06/17	BRPINEC0B5M7	5396766	BRBVSP	BM&F Bovespa - Securities, Commodities and Futures Exchange	BR	SAT	SUN	BVMF	81
EXCHG	U	2001/04/09	2010/06/17	BRPINEC0B5O3	5396767	BRBVSP	BM&F Bovespa - Securities, Commodities and Futures Exchange	BR	SAT	SUN	BVMF	81
EXCHG	U	2001/04/09	2010/06/17	BRPINEC0B5P0	5396768	BRBVSP	BM&F Bovespa - Securities, Commodities and Futures Exchange	BR	SAT	SUN	BVMF	81
EXCHG	U	2001/04/09	2010/06/17	BRPINEC0B5Q8	5396769	BRBVSP	BM&F Bovespa - Securities, Commodities and Futures Exchange	BR	SAT	SUN	BVMF	81
EXCHG	U	2001/04/09	2010/06/17	BRPINEC0B5R6	5396770	BRBVSP	BM&F Bovespa - Securities, Commodities and Futures Exchange	BR	SAT	SUN	BVMF	81
EXCHG	U	2001/04/09	2010/06/17	BRPINEC0B5U0	5396771	BRBVSP	BM&F Bovespa - Securities, Commodities and Futures Exchange	BR	SAT	SUN	BVMF	81
EXCHG	I	2007/07/25	2007/07/25	XS1775532390	5448823	XSBND	XS Unlisted Bond	XS				194
EXCHG	I	2007/07/25	2007/07/25	XS1759970160	5474189	XSBND	XS Unlisted Bond	XS				194
EXCHG	U	2001/09/29	2003/12/17	XS1759970160	5474189	LULSE	Luxembourg Stock Exchange	LU	SAT	SUN	XLUX	120
EXCHG	I	2007/07/25	2007/07/25	XS1414126802	5502501	XSBND	XS Unlisted Bond	XS				194
EXCHG	U	2001/03/16	2018/04/27	XS1414126802	5502501	IEISE	Euronext Dublin	IE	SAT	SUN	XDUB	61
EXCHG	U	2001/04/09	2010/06/17	BRPDLSDBO007	5503416	BRBVSP	BM&F Bovespa - Securities, Commodities and Futures Exchange	BR	SAT	SUN	BVMF	81
EXCHG	I	2007/07/25	2007/07/25	XS1778556420	5509864	XSBND	XS Unlisted Bond	XS				194
EXCHG	I	2001/04/03	2001/04/03	DE000DG4UGB3	5511347	DEFSX	Frankfurt Stock Exchange	DE	SAT	SUN	XFRA	75
EXCHG	I	2001/04/03	2001/04/03	DE000DG4UGC1	5511371	DEFSX	Frankfurt Stock Exchange	DE	SAT	SUN	XFRA	75
EXCHG	I	2001/04/03	2001/04/03	DE000DG4UGD9	5511398	DEFSX	Frankfurt Stock Exchange	DE	SAT	SUN	XFRA	75
EXCHG	I	2001/04/03	2001/04/03	DE000DG4UGE7	5511429	DEFSX	Frankfurt Stock Exchange	DE	SAT	SUN	XFRA	75
EXCHG	I	2001/04/03	2001/04/03	DE000DG4UGF4	5511494	DEFSX	Frankfurt Stock Exchange	DE	SAT	SUN	XFRA	75
EXCHG	I	2001/04/03	2001/04/03	DE000DG4UGG2	5511521	DEFSX	Frankfurt Stock Exchange	DE	SAT	SUN	XFRA	75
EXCHG	I	2015/06/15	2015/06/15	CND10000LTD0	5513865	CNIBBM	Inter-Bank Bond Market	CN				383
EXCHG	I	2015/06/15	2015/06/15	CND100010FP3	5513867	CNIBBM	Inter-Bank Bond Market	CN				383
EXCHG	I	2015/06/15	2015/06/15	CND10000LSV4	5513979	CNIBBM	Inter-Bank Bond Market	CN				383
EXCHG	I	2015/06/15	2015/06/15	CND10000LSW2	5513983	CNIBBM	Inter-Bank Bond Market	CN				383
EXCHG	I	2015/06/15	2015/06/15	CND10000LSX0	5513985	CNIBBM	Inter-Bank Bond Market	CN				383
EXCHG	I	2015/06/15	2015/06/15	CND10000LSY8	5513988	CNIBBM	Inter-Bank Bond Market	CN				383
EXCHG	I	2015/06/15	2015/06/15	CND10000LSZ5	5513990	CNIBBM	Inter-Bank Bond Market	CN				383
EXCHG	I	2015/06/15	2015/06/15	CND10000LT01	5513992	CNIBBM	Inter-Bank Bond Market	CN				383
EXCHG	I	2015/06/15	2015/06/15	CND10000LT19	5513995	CNIBBM	Inter-Bank Bond Market	CN				383
EXCHG	I	2015/06/15	2015/06/15	CND10000LT27	5513998	CNIBBM	Inter-Bank Bond Market	CN				383
EXCHG	I	2015/06/15	2015/06/15	CND100010FQ1	5515165	CNIBBM	Inter-Bank Bond Market	CN				383
EXCHG	I	2015/06/15	2015/06/15	CND10000LTC2	5515184	CNIBBM	Inter-Bank Bond Market	CN				383
EXCHG	I	2015/06/15	2015/06/15	CND10000LTK5	5516341	CNIBBM	Inter-Bank Bond Market	CN				383
EXCHG	U	2010/08/02	2013/04/11	US90331HNR02	5519506	USTRCE	FINRA TRACE	US			FINR	257
EXCHG	I	2015/06/15	2015/06/15	CND10000LTJ7	5520100	CNIBBM	Inter-Bank Bond Market	CN				383
EXCHG	U	2001/10/08	2003/12/17	MXIQBP0701A8	5520724	MXMSE	Mexican Stock Exchange	MX	SAT	SUN	XMEX	124
EXCHG	I	2010/04/06	2010/04/06	KR310204G851	5520842	KRBND	Korea Unlisted Bond	KR				242
EXCHG	U	2001/03/01	2006/07/03	KR310204G851	5520842	KRKSE	Korea Stock Exchange	KR	SAT	SUN	XKRX	42
EXCHG	I	2010/04/06	2010/04/06	KR310206G856	5521067	KRBND	Korea Unlisted Bond	KR				242
EXCHG	U	2001/03/01	2006/07/03	KR310206G856	5521067	KRKSE	Korea Stock Exchange	KR	SAT	SUN	XKRX	42
EXCHG	I	2015/06/15	2015/06/15	CND100010DY0	5526378	CNIBBM	Inter-Bank Bond Market	CN				383
EXCHG	I	2015/06/15	2015/06/15	CND100010DZ7	5527158	CNIBBM	Inter-Bank Bond Market	CN				383
EXCHG	I	2007/07/25	2007/07/25	XS1797086631	5529645	XSBND	XS Unlisted Bond	XS				194
EXCHG	U	2001/09/29	2003/12/17	XS1797086631	5529645	LULSE	Luxembourg Stock Exchange	LU	SAT	SUN	XLUX	120
EXCHG	U	2001/03/23	2015/12/22	SE0010832782	5530369	SESSE	Nasdaq Nordic Stockholm	SE	SAT	SUN	XSTO	71
EXCHG	I	2007/07/25	2007/07/25	XS1554295938	5531496	XSBND	XS Unlisted Bond	XS				194
EXCHG	U	2001/09/29	2003/12/17	XS1554295938	5531496	LULSE	Luxembourg Stock Exchange	LU	SAT	SUN	XLUX	120
EXCHG	I	2011/08/20	2011/08/20	SA14IFK2I9J8	5532803	SABND	Saudi Arabia Unlisted Bond	SA				299
EXCHG	I	2011/08/20	2011/08/20	SA14IFK2I932	5532807	SABND	Saudi Arabia Unlisted Bond	SA				299
EXCHG	I	2011/08/20	2011/08/20	SA14IFK2I8J0	5532810	SABND	Saudi Arabia Unlisted Bond	SA				299
EXCHG	I	2010/04/06	2010/04/06	KR310212G854	5533271	KRBND	Korea Unlisted Bond	KR				242
EXCHG	U	2001/03/01	2006/07/03	KR310212G854	5533271	KRKSE	Korea Stock Exchange	KR	SAT	SUN	XKRX	42
EXCHG	I	2010/03/13	2010/03/13	AU3CB0253250	5533567	AUBND	Australia Unlisted Bond	AU				222
EXCHG	U	2001/10/08	2003/12/17	MXIMBP060159	5535640	MXMSE	Mexican Stock Exchange	MX	SAT	SUN	XMEX	124
EXCHG	I	2007/07/25	2007/07/25	XS1754472535	5541758	XSBND	XS Unlisted Bond	XS				194
EXCHG	U	2001/09/29	2003/12/17	XS1754472535	5541758	LULSE	Luxembourg Stock Exchange	LU	SAT	SUN	XLUX	120
EXCHG	I	2007/07/25	2007/07/25	XS1715004948	5541775	XSBND	XS Unlisted Bond	XS				194
EXCHG	U	2001/09/29	2003/12/17	XS1715004948	5541775	LULSE	Luxembourg Stock Exchange	LU	SAT	SUN	XLUX	120
EXCHG	U	2001/03/16	2018/04/27	XS1826499292	5542016	IEISE	Euronext Dublin	IE	SAT	SUN	XDUB	61
EXCHG	U	2001/03/16	2018/04/27	XS1826498641	5542050	IEISE	Euronext Dublin	IE	SAT	SUN	XDUB	61
EXCHG	I	2007/07/25	2007/07/25	XS1795290763	5542247	XSBND	XS Unlisted Bond	XS				194
EXCHG	U	2001/03/16	2018/04/27	XS1795290763	5542247	IEISE	Euronext Dublin	IE	SAT	SUN	XDUB	61
EXCHG	I	2007/07/25	2007/07/25	XS1771087407	5542287	XSBND	XS Unlisted Bond	XS				194
EXCHG	U	2001/09/29	2003/12/17	XS1771087407	5542287	LULSE	Luxembourg Stock Exchange	LU	SAT	SUN	XLUX	120
EXCHG	I	2007/07/25	2007/07/25	XS1771089528	5542314	XSBND	XS Unlisted Bond	XS				194
EXCHG	U	2001/09/29	2003/12/17	XS1771089528	5542314	LULSE	Luxembourg Stock Exchange	LU	SAT	SUN	XLUX	120
EXCHG	U	2001/05/11	2018/06/08	US50575Q1105	5542824	USAMEX	NYSE American	US	SAT	SUN	XASE	87
EXCHG	I	2007/07/25	2007/07/25	XS1771091268	5544521	XSBND	XS Unlisted Bond	XS				194
EXCHG	U	2001/09/29	2003/12/17	XS1771091268	5544521	LULSE	Luxembourg Stock Exchange	LU	SAT	SUN	XLUX	120
EXCHG	U	2010/08/02	2013/04/11	US3130AEDW73	5545212	USTRCE	FINRA TRACE	US			FINR	257
EXCHG	U	2010/08/02	2013/04/11	US3130AEDX56	5545215	USTRCE	FINRA TRACE	US			FINR	257
EXCHG	I	2007/07/25	2007/07/25	XS1754478490	5546102	XSBND	XS Unlisted Bond	XS				194
EXCHG	U	2001/09/29	2003/12/17	XS1754478490	5546102	LULSE	Luxembourg Stock Exchange	LU	SAT	SUN	XLUX	120
EXCHG	I	2010/04/06	2010/04/06	KR310220G857	5546504	KRBND	Korea Unlisted Bond	KR				242
EXCHG	U	2001/03/01	2006/07/03	KR310220G857	5546504	KRKSE	Korea Stock Exchange	KR	SAT	SUN	XKRX	42
EXCHG	I	2007/07/25	2007/07/25	XS1825541896	5547336	XSBND	XS Unlisted Bond	XS				194
EXCHG	U	2001/03/16	2018/04/27	XS1825541896	5547336	IEISE	Euronext Dublin	IE	SAT	SUN	XDUB	61
EXCHG	I	2007/07/25	2007/07/25	XS1824407875	5547347	XSBND	XS Unlisted Bond	XS				194
EXCHG	U	2001/03/16	2018/04/27	XS1824407875	5547347	IEISE	Euronext Dublin	IE	SAT	SUN	XDUB	61
EXCHG	I	2007/07/25	2007/07/25	XS1714974265	5547969	XSBND	XS Unlisted Bond	XS				194
EXCHG	U	2001/09/29	2003/12/17	XS1714974265	5547969	LULSE	Luxembourg Stock Exchange	LU	SAT	SUN	XLUX	120
EXCHG	I	2007/07/25	2007/07/25	XS1776915933	5548345	XSBND	XS Unlisted Bond	XS				194
EXCHG	I	2007/07/25	2007/07/25	XS1825431288	5548663	XSBND	XS Unlisted Bond	XS				194
EXCHG	U	2001/03/16	2018/04/27	XS1825431288	5548663	IEISE	Euronext Dublin	IE	SAT	SUN	XDUB	61
EXCHG	I	2007/07/25	2007/07/25	XS1826198175	5548765	XSBND	XS Unlisted Bond	XS				194
EXCHG	U	2001/03/16	2018/04/27	XS1826198175	5548765	IEISE	Euronext Dublin	IE	SAT	SUN	XDUB	61
EXCHG	I	2010/03/13	2010/03/13	INE537P07414	5548991	INBND	India Unlisted Bond	IN				218
EXCHG	U	2001/01/06	2011/09/02	INE537P07414	5548991	INBSE	BSE Ltd.	IN	SAT	SUN	XBOM	2
EXCHG	I	2007/07/25	2007/07/25	XS1754468772	5549102	XSBND	XS Unlisted Bond	XS				194
EXCHG	U	2001/09/29	2003/12/17	XS1754468772	5549102	LULSE	Luxembourg Stock Exchange	LU	SAT	SUN	XLUX	120
EXCHG	I	2007/07/25	2007/07/25	XS1797511943	5549999	XSBND	XS Unlisted Bond	XS				194
EXCHG	U	2001/03/16	2018/04/27	XS1797511943	5549999	IEISE	Euronext Dublin	IE	SAT	SUN	XDUB	61
EXCHG	I	2007/07/25	2007/07/25	XS1810777190	5551166	XSBND	XS Unlisted Bond	XS				194
EXCHG	U	2001/09/29	2003/12/17	XS1810777190	5551166	LULSE	Luxembourg Stock Exchange	LU	SAT	SUN	XLUX	120
EXCHG	I	2010/03/13	2010/03/13	NO0010823750	5552910	NOBND	Norway Unlisted Bond	NO				221
EXCHG	U	2001/03/16	2018/04/27	XS1823422628	5552927	IEISE	Euronext Dublin	IE	SAT	SUN	XDUB	61
EXCHG	U	2001/03/16	2018/04/27	XS1823422891	5553027	IEISE	Euronext Dublin	IE	SAT	SUN	XDUB	61
EXCHG	U	2010/08/02	2013/04/11	US3133EJRF84	5553703	USTRCE	FINRA TRACE	US			FINR	257
EXCHG	U	2010/08/02	2013/04/11	US3133EJRG67	5553711	USTRCE	FINRA TRACE	US			FINR	257
EXCHG	U	2001/09/29	2003/12/17	XS1829209599	5553936	LULSE	Luxembourg Stock Exchange	LU	SAT	SUN	XLUX	120
EXCHG	U	2001/09/29	2003/12/17	XS1831179988	5554098	LULSE	Luxembourg Stock Exchange	LU	SAT	SUN	XLUX	120
EXCHG	I	2009/03/20	2009/03/20	DE000CA0FJU3	5554507	DEBND	Germany Unlisted Bond	DE				213
EXCHG	U	2010/08/02	2013/04/11	US3130AEET36	5555136	USTRCE	FINRA TRACE	US			FINR	257
EXCHG	I	2010/03/13	2010/03/13	TH0655E7S980	5556235	THBND	Thailand Unlisted Bond	TH				224
EXCHG	I	2010/03/13	2010/03/13	TH0655A7SC83	5556242	THBND	Thailand Unlisted Bond	TH				224
EXCHG	I	2010/03/13	2010/03/13	NO0010824030	5556327	NOBND	Norway Unlisted Bond	NO				221
EXCHG	U	2001/03/09	2003/12/17	NO0010824030	5556327	NOOB	Oslo Bors	NO	SAT	SUN	XOSL	53
EXCHG	I	2004/10/26	2004/10/26	JP1747621J67	5556890	JPBND	Japan Unlisted Bond	JP				174
EXCHG	U	2001/09/29	2003/12/17	XS1753010039	5557348	LULSE	Luxembourg Stock Exchange	LU	SAT	SUN	XLUX	120
EXCHG	U	2001/09/29	2003/12/17	XS1753009379	5557375	LULSE	Luxembourg Stock Exchange	LU	SAT	SUN	XLUX	120
EXCHG	I	2010/03/13	2010/03/13	NO0010824139	5557718	NOBND	Norway Unlisted Bond	NO				221
EXCHG	U	2010/08/02	2013/04/11	US40055Q5E85	5557841	USTRCE	FINRA TRACE	US			FINR	257
EXCHG	I	2008/02/19	2008/02/19	US3130AEF966	5559549	USBND	USA Unlisted Bond	US				199
EXCHG	U	2010/08/02	2013/04/11	US3130AEFB19	5559569	USTRCE	FINRA TRACE	US			FINR	257
EXCHG	U	2010/08/02	2013/04/11	US3130AEFC91	5559579	USTRCE	FINRA TRACE	US			FINR	257
EXCHG	U	2001/10/14	2015/03/16	TW0006469109	5560209	TWOTC	Taipei Exchange	TW	SAT	SUN	ROCO	126
EXCHG	I	2010/03/13	2010/03/13	TH065507T685	5560541	THBND	Thailand Unlisted Bond	TH				224
EXCHG	U	2002/08/02	2010/03/13	QA000S5U7LT8	5561151	QADSM	Qatar Exchange	QA			DSMD	149
EXCHG	I	2010/11/16	2010/11/16	QA0004Q24J13	5561158	QABND	Qatar Unlisted Bond	QA				270
EXCHG	U	2002/08/02	2010/03/13	QA0004Q24J13	5561158	QADSM	Qatar Exchange	QA			DSMD	149
EXCHG	U	2001/03/23	2015/12/22	SE0011062868	5561546	SESSE	Nasdaq Nordic Stockholm	SE	SAT	SUN	XSTO	71
EXCHG	I	2010/04/06	2010/04/06	HK0000422813	5561705	HKBND	Hong Kong Unlisted Bond	HK				234
EXCHG	U	2001/09/23	2003/12/17	PLPKN0000174	5562061	PLWSE	Warsaw Stock Exchange	PL	SAT	SUN	XWAR	117
EXCHG	I	2011/05/02	2011/05/02	LKA09118I077	5562126	LKBND	Sri Lanka Unlisted Bond	LK				286
EXCHG	I	2011/05/02	2011/05/02	LKA18218L078	5562129	LKBND	Sri Lanka Unlisted Bond	LK				286
EXCHG	I	2011/05/02	2011/05/02	LKA36419F072	5562131	LKBND	Sri Lanka Unlisted Bond	LK				286
EXCHG	I	2001/10/30	2001/10/30	DE000BLB53L4	5562205	DEMSE	Munich Stock Exchange	DE	SAT	SUN	XMUN	137
EXCHG	I	2004/10/26	2004/10/26	JP388578BJ64	5562863	JPBND	Japan Unlisted Bond	JP				174
EXCHG	U	2010/08/02	2013/04/11	US12634QAH48	5562888	USTRCE	FINRA TRACE	US			FINR	257
EXCHG	U	2010/08/02	2013/04/11	US12634QAG64	5562894	USTRCE	FINRA TRACE	US			FINR	257
EXCHG	U	2001/01/16	2003/12/17	XS1833653808	5562906	GBLSE	London Stock Exchange	GB	SAT	SUN	XLON	31
EXCHG	I	2004/10/26	2004/10/26	JP388578CJ63	5562917	JPBND	Japan Unlisted Bond	JP				174
EXCHG	I	2010/03/13	2010/03/13	AU3FN0043188	5562925	AUBND	Australia Unlisted Bond	AU				222
EXCHG	I	2004/10/26	2004/10/26	JP377780AJ62	5562934	JPBND	Japan Unlisted Bond	JP				174
EXCHG	I	2004/10/26	2004/10/26	JP343610AJ60	5562947	JPBND	Japan Unlisted Bond	JP				174
EXCHG	I	2004/10/26	2004/10/26	JP343610BJ69	5562960	JPBND	Japan Unlisted Bond	JP				174
EXCHG	U	2001/10/14	2015/03/16	TW000B854066	5563097	TWOTC	Taipei Exchange	TW	SAT	SUN	ROCO	126
EXCHG	U	2001/10/14	2015/03/16	TW000B854074	5563101	TWOTC	Taipei Exchange	TW	SAT	SUN	ROCO	126
EXCHG	I	2009/03/20	2009/03/20	DE000A2GSLQ6	5563156	DEBND	Germany Unlisted Bond	DE				213
EXCHG	U	2011/02/28	2011/02/28	GHGBOG050233	5563162	GHBND	Ghana Unlisted Bond	GH				281
EXCHG	I	2010/03/13	2010/03/13	NO0010825011	5563364	NOBND	Norway Unlisted Bond	NO				221
EXCHG	U	2001/03/09	2003/12/17	NO0010825011	5563364	NOOB	Oslo Bors	NO	SAT	SUN	XOSL	53
EXCHG	U	2001/03/01	2006/07/03	KR6004941862	5563405	KRKSE	Korea Stock Exchange	KR	SAT	SUN	XKRX	42
EXCHG	U	2001/03/01	2006/07/03	KR6008671861	5563410	KRKSE	Korea Stock Exchange	KR	SAT	SUN	XKRX	42
EXCHG	I	2010/04/06	2010/04/06	DK0006345301	5563492	DKBND	Denmark Unlisted Bond	DK				230
EXCHG	U	2001/03/19	2015/12/22	DK0006345301	5563492	DKCSE	Nasdaq Nordic Copenhagen	DK	SAT	SUN	XCSE	64
EXCHG	I	2010/03/13	2010/03/13	AU3CB0253771	5563742	AUBND	Australia Unlisted Bond	AU				222
EXCHG	I	2010/04/06	2010/04/06	KR6032711865	5563818	KRBND	Korea Unlisted Bond	KR				242
EXCHG	I	2010/04/06	2010/04/06	KR6032712863	5563819	KRBND	Korea Unlisted Bond	KR				242
EXCHG	I	2010/04/06	2010/04/06	KR6000011868	5563822	KRBND	Korea Unlisted Bond	KR				242
EXCHG	I	2010/04/06	2010/04/06	KR6004943868	5563823	KRBND	Korea Unlisted Bond	KR				242
EXCHG	I	2010/04/06	2010/04/06	KR310502A869	5563824	KRBND	Korea Unlisted Bond	KR				242
EXCHG	I	2010/04/06	2010/04/06	KR310205G866	5563825	KRBND	Korea Unlisted Bond	KR				242
EXCHG	I	2010/04/06	2010/04/06	KR310206G864	5563826	KRBND	Korea Unlisted Bond	KR				242
EXCHG	I	2010/04/06	2010/04/06	KR352701G863	5563827	KRBND	Korea Unlisted Bond	KR				242
EXCHG	I	2004/10/26	2004/10/26	ZAG000151713	5563832	ZABND	South Africa Unlisted Bond	ZA				166
EXCHG	U	2001/09/16	2011/03/11	ZAG000151713	5563832	ZAJSE	Johannesburg Stock Exchange	ZA	SAT	SUN	XJSE	107
EXCHG	I	2010/04/06	2010/04/06	TRFGRFAK1823	5563913	TRBND	Turkey Unlisted Bond	TR				254
EXCHG	I	2010/04/06	2010/04/06	TRFYKFKE1824	5563926	TRBND	Turkey Unlisted Bond	TR				254
EXCHG	U	2001/03/06	2010/08/20	AU0000013740	5563943	AUASX	Australian Securities Exchange	AU	SAT	SUN	XASX	47
EXCHG	U	2001/04/06	2003/12/17	IL0011475600	5564068	ILTSE	Tel-Aviv Stock Exchange	IL	FRI	SAT	XTAE	79
EXCHG	U	2001/05/11	2003/12/17	US29278DAA37	5564823	USNYSE	New York Stock Exchange	US	SAT	SUN	XNYS	93
EXCHG	U	2010/08/02	2013/04/11	US29278DAA37	5564823	USTRCE	FINRA TRACE	US			FINR	257
EXCHG	U	2010/08/02	2013/04/11	US87971MBH51	5564835	USTRCE	FINRA TRACE	US			FINR	257
EXCHG	U	2010/08/02	2013/04/11	US90184LAE20	5564864	USTRCE	FINRA TRACE	US			FINR	257
EXCHG	U	2010/08/02	2013/04/11	US896239AB68	5564869	USTRCE	FINRA TRACE	US			FINR	257
EXCHG	U	2010/08/02	2013/04/11	US78470VAC28	5564870	USTRCE	FINRA TRACE	US			FINR	257
EXCHG	U	2010/08/02	2013/04/11	US896239AC42	5564885	USTRCE	FINRA TRACE	US			FINR	257
EXCHG	U	2010/08/02	2013/04/11	US624758AE88	5564980	USTRCE	FINRA TRACE	US			FINR	257
EXCHG	U	2001/04/06	2003/12/17	IL0072001162	5564982	ILTSE	Tel-Aviv Stock Exchange	IL	FRI	SAT	XTAE	79
EXCHG	U	2010/08/02	2013/04/11	USU6075QAC07	5565002	USTRCE	FINRA TRACE	US			FINR	257
EXCHG	I	2007/07/25	2007/07/25	XS1837997979	5565248	XSBND	XS Unlisted Bond	XS				194
EXCHG	U	2001/01/16	2003/12/17	XS1837997979	5565248	GBLSE	London Stock Exchange	GB	SAT	SUN	XLON	31
EXCHG	U	2001/03/01	2003/12/18	TRFEKOF21912	5565329	TRIMKB	Istanbul Stock Exchange	TR	SAT	SUN	XIST	41
EXCHG	U	2001/03/01	2003/12/18	TRFYDTP31912	5565347	TRIMKB	Istanbul Stock Exchange	TR	SAT	SUN	XIST	41
EXCHG	U	2001/03/01	2003/12/18	TRFYDTPA1818	5565351	TRIMKB	Istanbul Stock Exchange	TR	SAT	SUN	XIST	41
EXCHG	I	2007/07/25	2007/07/25	XS1837288494	5565368	XSBND	XS Unlisted Bond	XS				194
EXCHG	U	2001/01/16	2003/12/17	XS1834993195	5565397	GBLSE	London Stock Exchange	GB	SAT	SUN	XLON	31
EXCHG	I	2008/02/19	2008/02/19	US00216LAA17	5565418	USBND	USA Unlisted Bond	US				199
EXCHG	I	2008/02/19	2008/02/19	US00216NAA72	5565424	USBND	USA Unlisted Bond	US				199
EXCHG	U	2001/09/23	2015/04/16	FR0013342664	5565597	FRPEN	Euronext Paris	FR	SAT	SUN	XPAR	118
EXCHG	U	2001/01/16	2003/12/17	XS1837975736	5565611	GBLSE	London Stock Exchange	GB	SAT	SUN	XLON	31
EXCHG	I	2006/10/17	2006/10/17	ES0422714123	5565657	ESAIAF	AIAF - Fixed Income Market	ES			XDRF	193
EXCHG	U	2010/08/02	2013/04/11	US63938CAJ71	5565776	USTRCE	FINRA TRACE	US			FINR	257
EDI_ENDOFFILE
