EDI_RCONV_20170116
TableName	Actflag	Created	Changed	RconvID	SecID	ISIN	EffectiveDate	OldInterestAccrualConvention	NewInterestAccrualConvention	OldConvMethod	NewConvMethod	Eventtype	Notes
RCONV	I	2013/09/05	2013/09/05	95851	2080932	TH051303R903	2010/09/03	30360	A365			CORR	
RCONV	I	2014/12/13	2014/12/15	107768	3891299	TH051303R804	2012/08/30	30360	A365			CORR	
RCONV	I	2014/12/13	2014/12/15	107770	3859303	TH051303R606	2012/06/26	30360	A365			CORR	
RCONV	I	2017/01/14	2017/01/16	129178	5018333	XS1551726810	2017/01/13	30E/360	AA		ICMA	CORR	
RCONV	I	2017/01/14	2017/01/16	129182	5012553	XS1548802914	2017/01/13	AA	A360	ICMA	ICMA	CORR	
RCONV	I	2017/01/14	2017/01/16	129183	5000456	XS1542423501	2017/01/10	30E/360	30360			CORR	
RCONV	I	2017/01/14	2017/01/16	129186	4973856	XS1527357823	2016/11/29	30E/360	AA		ICMA	CORR	
RCONV	I	2017/01/14	2017/01/16	129190	5016843	XS1550203183	2017/01/12	30E/360	AA		ICMA	CORR	
RCONV	I	2017/01/16	2017/01/16	129198	5016658	XS1529880368	2017/01/12	A360	30E/360			CORR	
EDI_ENDOFFILE
