EDI_BDC_20170116
TableName	Actflag	Created	Changed	BdcID	SecID	ISIN	BDCAppliedTo	CntrID	Notes
BDC	U	2014/12/04	2017/01/16	930720	4289987	XS1078873426	I	1	
BDC	U	2014/12/04	2017/01/16	930721	4289987	XS1078873426	M	1	
BDC	U	2014/12/04	2017/01/16	930740	4289985	XS1078819726	I	1	
BDC	U	2014/12/04	2017/01/16	930741	4289985	XS1078819726	M	1	
BDC	I	2017/01/06	2017/01/06	1206738	5011503	US3130AAKP28	I	8	
BDC	I	2017/01/06	2017/01/06	1206739	5011503	US3130AAKP28	M	8	
BDC	I	2017/01/06	2017/01/06	1206740	5011506	US3130AAKQ01	I	8	
BDC	I	2017/01/06	2017/01/06	1206741	5011506	US3130AAKQ01	M	8	
BDC	I	2017/01/06	2017/01/06	1206744	5011517	US3130AAKS66	I	8	
BDC	I	2017/01/06	2017/01/06	1206745	5011517	US3130AAKS66	M	8	
BDC	I	2017/01/06	2017/01/06	1206758	5011525	US3130AAKV95	I	8	
BDC	I	2017/01/06	2017/01/06	1206759	5011525	US3130AAKV95	M	8	
BDC	I	2017/01/10	2017/01/10	1208562	5014087	US3130AALD88	I	8	
BDC	I	2017/01/10	2017/01/10	1208563	5014087	US3130AALD88	M	8	
BDC	I	2017/01/11	2017/01/11	1208970	5015390	US3130AALN60	I	8	
BDC	I	2017/01/11	2017/01/11	1208971	5015390	US3130AALN60	M	8	
BDC	I	2017/01/11	2017/01/11	1208975	5015398	US3130AALQ91	I	8	
BDC	I	2017/01/11	2017/01/11	1208976	5015398	US3130AALQ91	M	8	
BDC	I	2017/01/11	2017/01/11	1208977	5015403	US3130AALR74	I	8	
BDC	I	2017/01/11	2017/01/11	1208978	5015403	US3130AALR74	M	8	
BDC	I	2017/01/11	2017/01/11	1208991	5015422	US3130AALW69	I	8	
BDC	I	2017/01/11	2017/01/11	1208992	5015422	US3130AALW69	M	8	
BDC	I	2017/01/11	2017/01/11	1208993	5015425	US3130AALX43	I	8	
BDC	I	2017/01/11	2017/01/11	1208994	5015425	US3130AALX43	M	8	
BDC	I	2017/01/11	2017/01/11	1208999	5015435	US3130AAM218	I	8	
BDC	I	2017/01/11	2017/01/11	1209000	5015435	US3130AAM218	M	8	
BDC	I	2017/01/12	2017/01/12	1209487	5016576	US3130AAMA31	I	8	
BDC	I	2017/01/12	2017/01/12	1209488	5016576	US3130AAMA31	M	8	
BDC	I	2017/01/12	2017/01/12	1209495	5016580	US3130AAMB14	I	8	
BDC	I	2017/01/12	2017/01/12	1209496	5016580	US3130AAMB14	M	8	
BDC	I	2017/01/14	2017/01/16	1210310	4972604	XS1526299745	I	35	
BDC	I	2017/01/14	2017/01/16	1210311	4972604	XS1526299745	M	35	
BDC	I	2017/01/14	2017/01/16	1210364	4849894	XS1391575161	I	8	
BDC	I	2017/01/14	2017/01/16	1210365	4849894	XS1391575161	I	70	
BDC	I	2017/01/14	2017/01/16	1210367	4849894	XS1391575161	I	44	
BDC	I	2017/01/14	2017/01/16	1210369	4849894	XS1391575161	M	8	
BDC	I	2017/01/14	2017/01/16	1210370	4849894	XS1391575161	M	70	
BDC	I	2017/01/14	2017/01/16	1210371	4849894	XS1391575161	M	44	
BDC	I	2017/01/14	2017/01/16	1210390	5004848	XS1513856481	I	1	
BDC	I	2017/01/14	2017/01/16	1210391	5004848	XS1513856481	M	1	
BDC	I	2017/01/14	2017/01/16	1210437	5000456	XS1542423501	I	1	
BDC	I	2017/01/14	2017/01/16	1210438	5000456	XS1542423501	M	1	
BDC	I	2017/01/14	2017/01/16	1210439	5000456	XS1542423501	I	8	
BDC	I	2017/01/14	2017/01/16	1210440	5000456	XS1542423501	M	8	
BDC	I	2017/01/14	2017/01/16	1210441	5000456	XS1542423501	I	167	
BDC	I	2017/01/14	2017/01/16	1210442	5000456	XS1542423501	M	167	
BDC	I	2017/01/14	2017/01/16	1210450	4973856	XS1527357823	I	55	
BDC	I	2017/01/14	2017/01/16	1210451	4973856	XS1527357823	I	1	
BDC	I	2017/01/14	2017/01/16	1210452	4973856	XS1527357823	I	8	
BDC	I	2017/01/14	2017/01/16	1210453	4973856	XS1527357823	M	55	
BDC	I	2017/01/14	2017/01/16	1210454	4973856	XS1527357823	M	1	
BDC	I	2017/01/14	2017/01/16	1210455	4973856	XS1527357823	M	8	
BDC	I	2017/01/14	2017/01/16	1210496	5016804	US29273RBK41	I	8	
BDC	I	2017/01/14	2017/01/16	1210497	5016804	US29273RBK41	M	8	
BDC	I	2017/01/14	2017/01/16	1210498	5018433	US58503Y2046	I	8	
BDC	I	2017/01/14	2017/01/16	1210499	5018433	US58503Y2046	M	8	
BDC	I	2017/01/14	2017/01/16	1210502	5016816	US29273RBL24	I	8	
BDC	I	2017/01/14	2017/01/16	1210503	5016816	US29273RBL24	M	8	
BDC	I	2017/01/14	2017/01/16	1210647	5011726	US29358QAF63	I	8	
BDC	I	2017/01/14	2017/01/16	1210648	5011726	US29358QAF63	M	8	
BDC	I	2017/01/14	2017/01/16	1210649	4790991	US62854AAD63	I	8	
BDC	I	2017/01/14	2017/01/16	1210650	4790991	US62854AAD63	M	8	
BDC	I	2017/01/16	2017/01/16	1210674	4967453	XS1433283501	I	8	
BDC	I	2017/01/16	2017/01/16	1210675	4967453	XS1433283501	M	8	
BDC	I	2017/01/16	2017/01/16	1210676	4967453	XS1433283501	I	1	
BDC	I	2017/01/16	2017/01/16	1210677	4967453	XS1433283501	M	1	
BDC	I	2017/01/16	2017/01/16	1210824	4952224	XS1514186359	I	1	
BDC	I	2017/01/16	2017/01/16	1210825	4952224	XS1514186359	M	1	
BDC	I	2017/01/16	2017/01/16	1210826	4952224	XS1514186359	I	8	
BDC	I	2017/01/16	2017/01/16	1210827	4952224	XS1514186359	M	8	
BDC	I	2017/01/16	2017/01/16	1210828	4952224	XS1514186359	I	45	
BDC	I	2017/01/16	2017/01/16	1210829	4952224	XS1514186359	M	45	
BDC	I	2017/01/16	2017/01/16	1210970	4972205	XS1527526799	I	1	
BDC	I	2017/01/16	2017/01/16	1210971	4972205	XS1527526799	M	1	
BDC	I	2017/01/16	2017/01/16	1211004	5015351	BE6292178793	I	4	
BDC	I	2017/01/16	2017/01/16	1211005	5015351	BE6292178793	M	4	
BDC	I	2017/01/16	2017/01/16	1211020	4289985	XS1078819726	I	8	
BDC	I	2017/01/16	2017/01/16	1211021	4289985	XS1078819726	M	8	
BDC	I	2017/01/16	2017/01/16	1211024	4289987	XS1078873426	I	8	
BDC	I	2017/01/16	2017/01/16	1211025	4289987	XS1078873426	M	8	
BDC	I	2017/01/16	2017/01/16	1211070	4933791	NO0010776073	I	35	
BDC	I	2017/01/16	2017/01/16	1211071	4933791	NO0010776073	M	35	
BDC	I	2017/01/16	2017/01/16	1211078	4744192	NZCNUDT002C8	I	20	
BDC	I	2017/01/16	2017/01/16	1211079	4744192	NZCNUDT002C8	M	20	
BDC	I	2017/01/16	2017/01/16	1211080	4744192	NZCNUDT002C8	I	48	
BDC	I	2017/01/16	2017/01/16	1211081	4744192	NZCNUDT002C8	M	48	
EDI_ENDOFFILE
