EDI_SELRT_20170116
TableName	Actflag	Created	Changed	SelrtID	SecID	ISIN	CntryCD	Restriction
SELRT	I	2017/01/14	2017/01/16	603219	4830772	IT0005188351	AU	No further information
SELRT	I	2017/01/14	2017/01/16	603220	4830772	IT0005188351	CA	No further information
SELRT	I	2017/01/14	2017/01/16	603221	4830772	IT0005188351	JP	No further information
SELRT	I	2017/01/14	2017/01/16	603222	4830772	IT0005188351	US	No further information
SELRT	I	2017/01/14	2017/01/16	603218	4830772	IT0005188351	GB	No further information
SELRT	I	2017/01/16	2017/01/16	603284	4744192	NZCNUDT002C8	NZ	This is an offer of Bonds to institutional investors and members of the public who are resident in<BR>New Zealand and certain overseas institutional investors only.
SELRT	I	2017/01/16	2017/01/16	603272	4714038	GB00BYRPC988	US	No further information
SELRT	I	2017/01/14	2017/01/16	603224	4827209	IT0005188567	AU	No further information
SELRT	I	2017/01/14	2017/01/16	603225	4827209	IT0005188567	CA	No further information
SELRT	I	2017/01/14	2017/01/16	603226	4827209	IT0005188567	JP	No further information
SELRT	I	2017/01/14	2017/01/16	603227	4827209	IT0005188567	US	No further information
SELRT	I	2017/01/14	2017/01/16	603223	4827209	IT0005188567	GB	No further information
SELRT	I	2017/01/14	2017/01/16	603234	4852588	IT0005203713	GB	No further information
SELRT	I	2017/01/14	2017/01/16	603235	4852588	IT0005203713	CA	No further information
SELRT	I	2017/01/14	2017/01/16	603236	4852588	IT0005203713	AU	No further information
SELRT	I	2017/01/14	2017/01/16	603237	4852588	IT0005203713	JP	No further information
SELRT	I	2017/01/14	2017/01/16	603233	4852588	IT0005203713	US	No further information
SELRT	I	2017/01/16	2017/01/16	603271	5015351	BE6292178793	US	Reg S Compliance category 2; TEFRA not applicable
SELRT	I	2017/01/16	2017/01/16	603285	4714049	GB00BYRPC871	US	No further information
SELRT	I	2017/01/16	2017/01/16	603262	4854882	IT0005209819	GB	No further information
SELRT	I	2017/01/16	2017/01/16	603263	4854882	IT0005209819	CA	No further information
SELRT	I	2017/01/16	2017/01/16	603264	4854882	IT0005209819	AU	No further information
SELRT	I	2017/01/16	2017/01/16	603265	4854882	IT0005209819	JP	No further information
SELRT	I	2017/01/16	2017/01/16	603261	4854882	IT0005209819	US	No further information
SELRT	I	2017/01/14	2017/01/16	603254	4970577	IT0005215550	AU	No further information
SELRT	I	2017/01/14	2017/01/16	603255	4970577	IT0005215550	JP	No further information
SELRT	I	2017/01/14	2017/01/16	603252	4970577	IT0005215550	US	No further information
SELRT	I	2017/01/14	2017/01/16	603253	4970577	IT0005215550	CA	No further information
SELRT	I	2017/01/14	2017/01/16	603193	5016804	US29273RBK41	EU	Notice to Prospective Investors in the European Economic Area<BR>In relation to each member state of the European Economic Area, no offer of notes which are the subject of the offering has been, or will be made to the<BR>public in that Member State, other than under the following exemptions under the Prospectus Directive:<BR>A. to any legal entity which is a qualified investor as defined in the Prospectus Directive;<BR>B. to fewer than 150 natural or legal persons (other than qualified investors as defined in the Prospectus Directive), subject to obtaining the prior<BR>consent of the representatives for any such offer; or<BR>C. in any other circumstances falling within Article 3(2) of the Prospectus Directive,<BR>provided that no such offer of notes referred to in (a) to (c) above shall result in a requirement for the Company or any representative to publish a<BR>prospectus pursuant to Article 3 of the Prospectus Directive or supplement a prospectus pursuant to Article 16 of the Prospectus Directive.<BR>This prospectus supplement has been prepared on the basis that any offer of notes in any Member State will be made pursuant to an exemption under the<BR>Prospectus Directive from the requirement to publish a prospectus for offers of notes. Accordingly any person making or intending to make an offer in that Member<BR>State of notes which are the subject of the offering contemplated in this prospectus supplement may only do so in circumstances in which no obligation arises for<BR>the Company or any of the representatives to publish a prospectus pursuant to Article 3 of the Prospectus Directive in relation to such offer. Neither the Company<BR>nor the representatives have authorized, nor do they authorize, the making of any offer of notes in circumstances in which an obligation arises for the Company or<BR>the representatives to publish a prospectus for such offer.<BR>For the purpose of this provision, the expression an  offer of notes  to the public in relation to any notes in any Member State means the communication<BR>in any form and by any means of sufficient information on the terms of the offer and the notes to be offered so as to enable an investor to decide to purchase or<BR>subscribe the notes, as the same may be varied in that Member State by any measure implementing the Prospectus Directive in that Member State, and the<BR>expression  Prospectus Directive  means Directive 2003/71/EC (as amended) and includes any relevant implementing measure in each Member State.<BR>The above selling restriction is in addition to any other selling restriction set out below.<BR>
SELRT	I	2017/01/14	2017/01/16	603194	5016804	US29273RBK41	GB	Notice to Prospective Investors in the United Kingdom<BR>In addition, in the United Kingdom, this document is being distributed only to, and is directed only at, and any offer subsequently made may only be<BR>directed at persons who are  qualified investors  (as defined in the Prospectus Directive) (i) who have professional experience in matters relating to investments<BR>falling within Article 19 (5) of the Financial Services and Markets Act 2000 (Financial Promotion) Order 2005, as amended (the  Order ) and/or (ii) who are high<BR>net worth companies (or persons to whom it may otherwise be lawfully communicated) falling within Article 49(2)(a) to (d) of the Order (all such persons together<BR>being referred to as  relevant persons ). This document must not be acted on or relied on in the United Kingdom by persons who are not relevant persons. In the<BR>United Kingdom, any investment or investment activity to which this document relates is only available to, and will be engaged in with, relevant persons.
SELRT	I	2017/01/14	2017/01/16	603195	5016804	US29273RBK41	JP	Notice to Prospective Investors in Japan<BR>The notes offered in this prospectus supplement have not been and will not be registered under the Financial Instruments and Exchange Law of Japan.<BR>The notes have not been offered or sold and will not be offered or sold, directly or indirectly, in Japan or to or for the account of any resident of Japan (including<BR>any corporation or other entity organized under the laws of Japan), except (i) pursuant to an exemption from the registration requirements of the Financial<BR>Instruments and Exchange Law and (ii) in compliance with any other applicable requirements of Japanese law.
SELRT	I	2017/01/14	2017/01/16	603196	5016804	US29273RBK41	SG	Notice to Prospective Investors in Singapore<BR>This prospectus supplement has not been registered as a prospectus with the Monetary Authority of Singapore. Accordingly, this prospectus supplement<BR>and any other document or material in connection with the offer or sale, or invitation for subscription or purchase, of the notes may not be circulated or distributed,<BR>nor may the notes be offered or sold, or be made the subject of an invitation for subscription or purchase, whether directly or indirectly, to persons in Singapore<BR>other than (i) to an institutional investor under Section 274 of the Securities and Futures Act, Chapter 289 of Singapore (the  SFA ), (ii) to a relevant person<BR>pursuant to Section 275(1), or any person pursuant to Section 275(1A), and in accordance with the conditions specified in Section 275 of the SFA or (iii) otherwise<BR>pursuant to, and in accordance with the conditions of, any other applicable provision of the SFA, in each case subject to compliance with conditions set forth in the<BR>SFA.<BR>Where the notes are subscribed or purchased under Section 275 of the SFA by a relevant person which is:<BR>  a corporation (which is not an accredited investor (as defined in Section 4A of the SFA)) the sole business of which is to hold investments and the<BR>entire share capital of which is owned by one or more individuals, each of whom is an accredited investor; or<BR>  a trust (where the trustee is not an accredited investor) whose sole purpose is to hold investments and each beneficiary of the trust is an individual<BR>who is an accredited investor, shares, debentures and units of shares and debentures of that corporation or the beneficiaries  rights and interest<BR>(howsoever described) in that trust shall not be transferred within six months after that corporation or that trust has acquired the notes pursuant to<BR>an offer made under Section 275 of the SFA except:<BR>  to an institutional investor (for corporations, under Section 274 of the SFA) or to a relevant person defined in Section 275(2) of the SFA, or to any<BR>person pursuant to an offer that is made on terms that such shares, debentures and units of shares and debentures of that corporation or such rights<BR>and interest in that trust are acquired at a consideration of not less than S200,000 (or its equivalent in a foreign currency) for each transaction,<BR>whether such amount is to be paid for in cash or by exchange of securities or other assets, and further for corporations, in accordance with the<BR>conditions specified in Section 275 of the SFA;<BR>  where no consideration is or will be given for the transfer; or<BR>  where the transfer is by operation of law.
SELRT	I	2017/01/14	2017/01/16	603197	5016804	US29273RBK41	CH	Notice to Prospective Investors in Switzerland<BR>This prospectus supplement does not constitute an issue prospectus pursuant to Article 652a or Article 1156 of the Swiss Code of Obligations and the<BR>notes will not be listed on the SIX Swiss Exchange. Therefore, this prospectus supplement may not comply with the disclosure standards of the listing rules<BR>(including any additional listing rules or prospectus schemes) of the SIX Swiss Exchange. Accordingly, the notes may not be<BR>offered to the public in or from Switzerland, but only to a selected and limited circle of investors who do not subscribe to the notes with a view to distribution. Any<BR>such investors will be individually approached by the underwriters from time to time.
SELRT	I	2017/01/14	2017/01/16	603198	5016804	US29273RBK41	AE	Notice to Prospective Investors in the Dubai International Financial Centre<BR>This prospectus supplement relates to an Exempt Offer in accordance with the Offered Securities Rules of the Dubai Financial Services Authority<BR>( DFSA ). This prospectus supplement is intended for distribution only to persons of a type specified in those the Offered Securities Rules of the DFSA. It must<BR>not be delivered to, or relied on by, any other person. The DFSA has no responsibility for reviewing or verifying any documents in connection with Exempt Offers.<BR>The DFSA has not approved this prospectus supplement nor taken steps to verify the information set forth herein, and has no responsibility for the prospectus<BR>supplement. The notes which are the subject of the offering contemplated by this prospectus supplement may be illiquid and/or subject to restrictions on their<BR>resale. Prospective purchasers of the notes offered should conduct their own due diligence on the notes. If you do not understand the contents of this prospectus<BR>supplement you should consult an authorized financial advisor.
SELRT	I	2017/01/14	2017/01/16	603213	4771547	IT0005185746	GB	No further information
SELRT	I	2017/01/14	2017/01/16	603214	4771547	IT0005185746	AU	No further information
SELRT	I	2017/01/14	2017/01/16	603215	4771547	IT0005185746	CA	No further information
SELRT	I	2017/01/14	2017/01/16	603216	4771547	IT0005185746	JP	No further information
SELRT	I	2017/01/14	2017/01/16	603217	4771547	IT0005185746	US	No further information
SELRT	I	2017/01/16	2017/01/16	603266	4957601	IT0005188716	US	No further information
SELRT	I	2017/01/16	2017/01/16	603267	4957601	IT0005188716	GB	No further information
SELRT	I	2017/01/16	2017/01/16	603268	4957601	IT0005188716	CA	No further information
SELRT	I	2017/01/16	2017/01/16	603269	4957601	IT0005188716	JP	No further information
SELRT	I	2017/01/16	2017/01/16	603270	4957601	IT0005188716	AU	No further information
SELRT	I	2017/01/14	2017/01/16	603239	4851227	IT0005209736	GB	No further information
SELRT	I	2017/01/14	2017/01/16	603240	4851227	IT0005209736	CA	No further information
SELRT	I	2017/01/14	2017/01/16	603241	4851227	IT0005209736	AU	No further information
SELRT	I	2017/01/14	2017/01/16	603242	4851227	IT0005209736	JP	No further information
SELRT	I	2017/01/14	2017/01/16	603238	4851227	IT0005209736	US	No further information
SELRT	I	2017/01/16	2017/01/16	603280	4854910	IT0005209843	GB	No further information
SELRT	I	2017/01/16	2017/01/16	603281	4854910	IT0005209843	CA	No further information
SELRT	I	2017/01/16	2017/01/16	603282	4854910	IT0005209843	AU	No further information
SELRT	I	2017/01/16	2017/01/16	603283	4854910	IT0005209843	JP	No further information
SELRT	I	2017/01/16	2017/01/16	603279	4854910	IT0005209843	US	No further information
SELRT	I	2017/01/14	2017/01/16	603202	5016816	US29273RBL24	GB	Notice to Prospective Investors in the United Kingdom<BR>In addition, in the United Kingdom, this document is being distributed only to, and is directed only at, and any offer subsequently made may only be<BR>directed at persons who are  qualified investors  (as defined in the Prospectus Directive) (i) who have professional experience in matters relating to investments<BR>falling within Article 19 (5) of the Financial Services and Markets Act 2000 (Financial Promotion) Order 2005, as amended (the  Order ) and/or (ii) who are high<BR>net worth companies (or persons to whom it may otherwise be lawfully communicated) falling within Article 49(2)(a) to (d) of the Order (all such persons together<BR>being referred to as  relevant persons ). This document must not be acted on or relied on in the United Kingdom by persons who are not relevant persons. In the<BR>United Kingdom, any investment or investment activity to which this document relates is only available to, and will be engaged in with, relevant persons.
SELRT	I	2017/01/14	2017/01/16	603203	5016816	US29273RBL24	JP	Notice to Prospective Investors in Japan<BR>The notes offered in this prospectus supplement have not been and will not be registered under the Financial Instruments and Exchange Law of Japan.<BR>The notes have not been offered or sold and will not be offered or sold, directly or indirectly, in Japan or to or for the account of any resident of Japan (including<BR>any corporation or other entity organized under the laws of Japan), except (i) pursuant to an exemption from the registration requirements of the Financial<BR>Instruments and Exchange Law and (ii) in compliance with any other applicable requirements of Japanese law.
SELRT	I	2017/01/14	2017/01/16	603204	5016816	US29273RBL24	SG	Notice to Prospective Investors in Singapore<BR>This prospectus supplement has not been registered as a prospectus with the Monetary Authority of Singapore. Accordingly, this prospectus supplement<BR>and any other document or material in connection with the offer or sale, or invitation for subscription or purchase, of the notes may not be circulated or distributed,<BR>nor may the notes be offered or sold, or be made the subject of an invitation for subscription or purchase, whether directly or indirectly, to persons in Singapore<BR>other than (i) to an institutional investor under Section 274 of the Securities and Futures Act, Chapter 289 of Singapore (the  SFA ), (ii) to a relevant person<BR>pursuant to Section 275(1), or any person pursuant to Section 275(1A), and in accordance with the conditions specified in Section 275 of the SFA or (iii) otherwise<BR>pursuant to, and in accordance with the conditions of, any other applicable provision of the SFA, in each case subject to compliance with conditions set forth in the<BR>SFA.<BR>Where the notes are subscribed or purchased under Section 275 of the SFA by a relevant person which is:<BR>  a corporation (which is not an accredited investor (as defined in Section 4A of the SFA)) the sole business of which is to hold investments and the<BR>entire share capital of which is owned by one or more individuals, each of whom is an accredited investor; or<BR>  a trust (where the trustee is not an accredited investor) whose sole purpose is to hold investments and each beneficiary of the trust is an individual<BR>who is an accredited investor, shares, debentures and units of shares and debentures of that corporation or the beneficiaries  rights and interest<BR>(howsoever described) in that trust shall not be transferred within six months after that corporation or that trust has acquired the notes pursuant to<BR>an offer made under Section 275 of the SFA except:<BR>  to an institutional investor (for corporations, under Section 274 of the SFA) or to a relevant person defined in Section 275(2) of the SFA, or to any<BR>person pursuant to an offer that is made on terms that such shares, debentures and units of shares and debentures of that corporation or such rights<BR>and interest in that trust are acquired at a consideration of not less than S200,000 (or its equivalent in a foreign currency) for each transaction,<BR>whether such amount is to be paid for in cash or by exchange of securities or other assets, and further for corporations, in accordance with the<BR>conditions specified in Section 275 of the SFA;<BR>  where no consideration is or will be given for the transfer; or<BR>  where the transfer is by operation of law.
SELRT	I	2017/01/14	2017/01/16	603199	5016816	US29273RBL24	AE	Notice to Prospective Investors in the Dubai International Financial Centre<BR>This prospectus supplement relates to an Exempt Offer in accordance with the Offered Securities Rules of the Dubai Financial Services Authority<BR>( DFSA ). This prospectus supplement is intended for distribution only to persons of a type specified in those the Offered Securities Rules of the DFSA. It must<BR>not be delivered to, or relied on by, any other person. The DFSA has no responsibility for reviewing or verifying any documents in connection with Exempt Offers.<BR>The DFSA has not approved this prospectus supplement nor taken steps to verify the information set forth herein, and has no responsibility for the prospectus<BR>supplement. The notes which are the subject of the offering contemplated by this prospectus supplement may be illiquid and/or subject to restrictions on their<BR>resale. Prospective purchasers of the notes offered should conduct their own due diligence on the notes. If you do not understand the contents of this prospectus<BR>supplement you should consult an authorized financial advisor.
SELRT	I	2017/01/14	2017/01/16	603200	5016816	US29273RBL24	CH	Notice to Prospective Investors in Switzerland<BR>This prospectus supplement does not constitute an issue prospectus pursuant to Article 652a or Article 1156 of the Swiss Code of Obligations and the<BR>notes will not be listed on the SIX Swiss Exchange. Therefore, this prospectus supplement may not comply with the disclosure standards of the listing rules<BR>(including any additional listing rules or prospectus schemes) of the SIX Swiss Exchange. Accordingly, the notes may not be<BR>offered to the public in or from Switzerland, but only to a selected and limited circle of investors who do not subscribe to the notes with a view to distribution. Any<BR>such investors will be individually approached by the underwriters from time to time.
SELRT	I	2017/01/14	2017/01/16	603201	5016816	US29273RBL24	EU	Notice to Prospective Investors in the European Economic Area<BR>In relation to each member state of the European Economic Area, no offer of notes which are the subject of the offering has been, or will be made to the<BR>public in that Member State, other than under the following exemptions under the Prospectus Directive:<BR>A. to any legal entity which is a qualified investor as defined in the Prospectus Directive;<BR>B. to fewer than 150 natural or legal persons (other than qualified investors as defined in the Prospectus Directive), subject to obtaining the prior<BR>consent of the representatives for any such offer; or<BR>C. in any other circumstances falling within Article 3(2) of the Prospectus Directive,<BR>provided that no such offer of notes referred to in (a) to (c) above shall result in a requirement for the Company or any representative to publish a<BR>prospectus pursuant to Article 3 of the Prospectus Directive or supplement a prospectus pursuant to Article 16 of the Prospectus Directive.<BR>This prospectus supplement has been prepared on the basis that any offer of notes in any Member State will be made pursuant to an exemption under the<BR>Prospectus Directive from the requirement to publish a prospectus for offers of notes. Accordingly any person making or intending to make an offer in that Member<BR>State of notes which are the subject of the offering contemplated in this prospectus supplement may only do so in circumstances in which no obligation arises for<BR>the Company or any of the representatives to publish a prospectus pursuant to Article 3 of the Prospectus Directive in relation to such offer. Neither the Company<BR>nor the representatives have authorized, nor do they authorize, the making of any offer of notes in circumstances in which an obligation arises for the Company or<BR>the representatives to publish a prospectus for such offer.<BR>For the purpose of this provision, the expression an  offer of notes  to the public in relation to any notes in any Member State means the communication<BR>in any form and by any means of sufficient information on the terms of the offer and the notes to be offered so as to enable an investor to decide to purchase or<BR>subscribe the notes, as the same may be varied in that Member State by any measure implementing the Prospectus Directive in that Member State, and the<BR>expression  Prospectus Directive  means Directive 2003/71/EC (as amended) and includes any relevant implementing measure in each Member State.<BR>The above selling restriction is in addition to any other selling restriction set out below.<BR>
SELRT	I	2017/01/14	2017/01/16	603187	5000456	XS1542423501	CR	Costa Rica<BR>The Notes being offered are not intended for the<BR>Costa Rican public or market and neither are<BR>registered or will be registered before the General<BR>Superintendence of Securities (`SUGEVAL`), nor<BR>can be traded in the secondary market. The Dealer<BR>represents and agrees that the Notes shall not be<BR>offered by the Dealer for circulation, distribution,<BR>placement, sale, purchase or other transfer in the<BR>Republic of Costa Rica. Accordingly, nothing in this<BR>document or any other documents, information or<BR>communications related to the Notes shall be<BR>interpreted as containing any offer or invitation to, or<BR>solicitation of, any such circulation, distribution,<BR>placement, sale, purchase or other transfer in the<BR>Republic of Costa Rica.
SELRT	I	2017/01/14	2017/01/16	603229	4924817	IT0005203705	AU	No further information
SELRT	I	2017/01/14	2017/01/16	603230	4924817	IT0005203705	CA	No further information
SELRT	I	2017/01/14	2017/01/16	603231	4924817	IT0005203705	JP	No further information
SELRT	I	2017/01/14	2017/01/16	603232	4924817	IT0005203705	US	No further information
SELRT	I	2017/01/14	2017/01/16	603228	4924817	IT0005203705	GB	No further information
SELRT	I	2017/01/14	2017/01/16	603212	4766664	IT0005177073	US	No further information
SELRT	I	2017/01/14	2017/01/16	603208	4766664	IT0005177073	GB	No further information
SELRT	I	2017/01/14	2017/01/16	603209	4766664	IT0005177073	AU	No further information
SELRT	I	2017/01/14	2017/01/16	603210	4766664	IT0005177073	CA	No further information
SELRT	I	2017/01/14	2017/01/16	603211	4766664	IT0005177073	JP	No further information
SELRT	I	2017/01/16	2017/01/16	603275	4851239	IT0005209744	GB	No further information
SELRT	I	2017/01/16	2017/01/16	603276	4851239	IT0005209744	AU	No further information
SELRT	I	2017/01/16	2017/01/16	603277	4851239	IT0005209744	JP	No further information
SELRT	I	2017/01/16	2017/01/16	603278	4851239	IT0005209744	CA	No further information
SELRT	I	2017/01/16	2017/01/16	603274	4851239	IT0005209744	US	No further information
SELRT	I	2017/01/14	2017/01/16	603188	4727299	FR0013134392	US	Bonds may not be offered or sold in the United states or to, or for the account or benefit of U.S.persons. and may not be legally or beneficially owned at any time by any U.S. person (as defined in Regulation S, a U.S. Person) and accordingly are being offered and sold outside the United States to persons that are not U.S. Persons in reliance on Regulation S.
SELRT	I	2017/01/16	2017/01/16	603257	4852602	IT0005209801	GB	No further information
SELRT	I	2017/01/16	2017/01/16	603258	4852602	IT0005209801	CA	No further information
SELRT	I	2017/01/16	2017/01/16	603259	4852602	IT0005209801	AU	No further information
SELRT	I	2017/01/16	2017/01/16	603260	4852602	IT0005209801	JP	No further information
SELRT	I	2017/01/16	2017/01/16	603256	4852602	IT0005209801	US	No further information
SELRT	I	2017/01/14	2017/01/16	603243	4852299	IT0005209850	US	No further information
SELRT	I	2017/01/14	2017/01/16	603244	4852299	IT0005209850	GB	No further information
SELRT	I	2017/01/14	2017/01/16	603245	4852299	IT0005209850	CA	No further information
SELRT	I	2017/01/14	2017/01/16	603246	4852299	IT0005209850	AU	No further information
SELRT	I	2017/01/14	2017/01/16	603247	4852299	IT0005209850	JP	No further information
SELRT	I	2017/01/14	2017/01/16	603250	4901276	IT0005215436	JP	No further information
SELRT	I	2017/01/14	2017/01/16	603251	4901276	IT0005215436	AU	No further information
SELRT	I	2017/01/14	2017/01/16	603248	4901276	IT0005215436	US	No further information
SELRT	I	2017/01/14	2017/01/16	603249	4901276	IT0005215436	CA	No further information
SELRT	I	2017/01/14	2017/01/16	603191	5017999	US78012KYU59	HK	No further information
SELRT	I	2017/01/14	2017/01/16	603192	5017999	US78012KYU59	SG	No further information
SELRT	I	2017/01/14	2017/01/16	603189	5017999	US78012KYU59	EU	No further information
SELRT	I	2017/01/14	2017/01/16	603190	5017999	US78012KYU59	GB	No further information
EDI_ENDOFFILE
