EDI_INCHG_20170116
TableName	Actflag	Created	Changed	InChgID	SecID	ISIN	IssID	InChgDate	OldCntryCD	NewCntryCD	EventType
INCHG	I	2008/11/03	2008/11/03	1727	5010819	AU3CB0241784	81224	2008/11/03	US	AA	CLEAN
INCHG	I	2008/11/03	2008/11/03	1732	4833532	US45950VJK35	83872	2008/11/03	US	AA	CLEAN
INCHG	I	2009/05/13	2009/05/13	1956	4729246	NO0010760036	94697	2009/05/11	NO	CY	INCHG
INCHG	I	2013/08/09	2013/08/09	2629	4989118	KR380601A6C4	109250	2012/11/28	SG	KR	CORR
EDI_ENDOFFILE
