EDI_IRCHG_20170116
TableName	Actflag	Created	Changed	IrchgID	SecID	ISIN	EffectiveDate	OldInterestRate	NewInterestRate	Eventtype	Notes
IRCHG	I	2017/01/14	2017/01/16	245514	4712893	DE000BLB3XG4	2019/02/24	0.40000	0.50000	IRCHG	No further information
IRCHG	I	2016/04/20	2016/04/20	228199	1658944	CND0999004P6	2014/10/16	7.00000		IRCHG	No further information
IRCHG	I	2017/01/14	2017/01/16	245518	4638980	CND10000CJJ7	2018/11/03	4.50000		IRCHG	No further information
IRCHG	I	2017/01/14	2017/01/16	245523	4676570	CND10000D674	2018/12/28	7.50000		IRCHG	No further information
IRCHG	I	2017/01/16	2017/01/16	245582	4779898	CND10000DGG7	2021/04/18	5.29000		IRCHG	No further information
IRCHG	I	2017/01/14	2017/01/16	245535	4988118	DE000LB09NU2	2017/07/15	0.60000	0.70000	IRCHG	No further information
IRCHG	I	2017/01/14	2017/01/16	245536	4988118	DE000LB09NU2	2018/07/15	0.70000	0.80000	IRCHG	No further information
IRCHG	I	2017/01/16	2017/01/16	245537	4988119	DE000LB09NV0	2017/07/15	1.05000	1.15000	IRCHG	No further information
IRCHG	I	2017/01/16	2017/01/16	245538	4988119	DE000LB09NV0	2018/07/15	1.15000	1.25000	IRCHG	No further information
IRCHG	U	2014/01/10	2014/05/28	174467	4174753	AT000B100854	2014/06/27	2.00000		IRCHG	No further information
IRCHG	I	2017/01/16	2017/01/16	245562	4650903	DE000BLB3TX7	2020/05/24	1.00000	1.20000	IRCHG	No further information
IRCHG	I	2017/01/14	2017/01/16	245515	4702187	DE000BLB3XY7	2016/09/28	3.45000	1.28000	IRCHG	No further information
IRCHG	I	2017/01/14	2017/01/16	245517	4727299	FR0013134392	2018/03/12	2.14000		IRCHG	No further information
IRCHG	I	2017/01/14	2017/01/16	245494	4703931	AT0000A1J2A0	2020/02/10	1.00000	1.10000	IRCHG	No further information
IRCHG	I	2017/01/16	2017/01/16	245583	4779871	CND10000DPZ8	2019/04/22	7.20000		IRCHG	No further information
IRCHG	I	2014/04/04	2014/04/04	179520	1474379	KR1017014H90	1997/10/01	12.20000	3.00000	CORR	No further information
IRCHG	I	2017/01/14	2017/01/16	245520	4614861	CND10000F0K0	2018/09/25	4.02000		IRCHG	No further information
IRCHG	I	2017/01/14	2017/01/16	245521	4638319	CND10000F2J8	2018/08/11	3.53000		IRCHG	No further information
IRCHG	I	2017/01/16	2017/01/16	245584	4714939	CND10000DSC1	2019/02/04	6.30000		IRCHG	No further information
IRCHG	I	2016/08/24	2016/08/24	236507	4729246	NO0010760036	2016/03/18	10.00000	2.00000	CORR	No further information
EDI_ENDOFFILE
