EDI_INTBC_20170116
TableName	Actflag	Created	Changed	IntbcID	SecID	ISIN	EffectiveDate	OldIntBasis	NewIntBasis	OldIntBDC	NewIntBDC
INTBC	I	2014/01/10	2014/01/10	35976	4174753	AT000B100854	2014/06/27	FXD	FR	FBD	FBD
INTBC	D	2015/07/27	2017/01/16	42076	4566615	IT0005123390	2017/08/03	FXD	FR		
INTBC	D	2015/07/27	2017/01/16	42086	4567110	IT0005123309	2017/08/03	FXD	FR		
INTBC	D	2015/07/29	2017/01/16	42124	4568929	IT0005122491	2016/04/01	FXD	FR		
INTBC	D	2015/12/10	2017/01/16	43633	4561285	IT0005123283	2016/02/03	FXD	FR		
INTBC	I	2016/04/20	2016/04/20	45338	1658944	CND0999004P6	2014/10/16	FXD	VR	FBD	FBD
INTBC	D	2016/05/10	2017/01/16	45601	4771547	IT0005185746	2017/05/31	FXD	FR		
INTBC	D	2016/06/08	2017/01/16	45851	4791090	IT0005185381	2019/05/31	FXD	FR		
INTBC	D	2016/07/04	2017/01/16	46090	4822223	IT0005188831	2019/06/30	FXD	FR		
INTBC	D	2016/08/02	2017/01/16	46337	4852602	IT0005209801	2018/08/31	FXD	FR		
INTBC	D	2016/08/04	2017/01/16	46351	4854882	IT0005209819	2017/08/31	FXD	FR		
INTBC	D	2016/11/23	2017/01/16	47479	4970577	IT0005215550	2018/10/15	FXD	FR		
INTBC	I	2017/01/14	2017/01/16	48004	4568929	IT0005122491	2016/04/01	FXD	FR	FBD	FBD
INTBC	I	2017/01/14	2017/01/16	48005	4561285	IT0005123283	2016/02/03	FXD	FR	FBD	FBD
INTBC	I	2017/01/14	2017/01/16	48006	4567110	IT0005123309	2017/08/03	FXD	FR	FBD	FBD
INTBC	I	2017/01/14	2017/01/16	48007	4566615	IT0005123390	2017/08/03	FXD	FR	FBD	FBD
INTBC	I	2017/01/14	2017/01/16	48008	4727299	FR0013134392	2018/03/12	FXD	FR	MFBD	MFBD
INTBC	I	2017/01/14	2017/01/16	48009	4638980	CND10000CJJ7	2018/11/03	FXD	VR	FBD	FBD
INTBC	I	2017/01/14	2017/01/16	48010	4614861	CND10000F0K0	2018/09/25	FXD	VR	FBD	FBD
INTBC	I	2017/01/14	2017/01/16	48011	4638319	CND10000F2J8	2018/08/11	FXD	VR	FBD	FBD
INTBC	I	2017/01/14	2017/01/16	48012	4676570	CND10000D674	2018/12/28	FXD	VR	FBD	FBD
INTBC	I	2017/01/14	2017/01/16	48013	4791090	IT0005185381	2019/05/31	FXD	FR	FBD	FBD
INTBC	I	2017/01/14	2017/01/16	48014	4822223	IT0005188831	2019/06/30	FXD	FR	FBD	FBD
INTBC	I	2017/01/14	2017/01/16	48015	4970577	IT0005215550	2018/10/15	FXD	FR	FBD	FBD
INTBC	I	2017/01/16	2017/01/16	48022	4852602	IT0005209801	2018/08/31	FXD	FR	FBD	FBD
INTBC	I	2017/01/16	2017/01/16	48023	4854882	IT0005209819	2017/08/31	FXD	FR	FBD	FBD
INTBC	I	2017/01/16	2017/01/16	48024	4779898	CND10000DGG7	2021/04/18	FXD	VR	FBD	FBD
INTBC	I	2017/01/16	2017/01/16	48025	4779871	CND10000DPZ8	2019/04/22	FXD	VR	FBD	FBD
INTBC	I	2017/01/16	2017/01/16	48026	4714939	CND10000DSC1	2019/02/04	FXD	VR	FBD	FBD
EDI_ENDOFFILE
