EDI_BBE_20170116
tablename	ActFlag	Created	Changed	BbeId	SecId	Exchgcd	Curencd	BbgexhId	Bbgexhtk
BBE	I	2012/10/04	2012/10/04	144173	3372726			BBG0021QMVF7	JGBR F 10/15/21 36
BBE	I	2012/10/04	2012/10/04	144176	3865444			BBG00335JCR2	JGBR F 07/15/22 39
BBE	I	2012/10/04	2012/10/04	144177	3905580			BBG003C6NP32	JGBR F 10/15/22 40
BBE	U	2012/10/08	2015/04/29	163973	1658944			BBG00004BYZ5	HUAFAI V7.6 10/16/17
BBE	I	2012/10/10	2012/10/10	206255	1820227			BBG00000JRM4	KORNHB 0 01/31/20 1001
BBE	I	2012/10/10	2012/10/10	206256	1764872			BBG00003FHC5	KORNHB 0 02/29/20 1002
BBE	I	2012/10/10	2012/10/10	206257	1816951			BBG00003M7Q4	KORNHB 0 03/31/20 1003
BBE	I	2012/10/10	2012/10/10	206258	1989125			BBG0000509H9	KORNHB 0 05/31/20 1005
BBE	I	2012/10/10	2012/10/10	206259	1949890			BBG00002ZKN6	KORNHB 0 06/30/20 1006
BBE	I	2012/10/10	2012/10/10	206317	1474362			BBG000078861	KORNHB 3 04/30/17 9704
BBE	I	2012/10/10	2012/10/10	206318	1474367			BBG000078870	KORNHB 3 05/31/17 9705
BBE	I	2012/10/10	2012/10/10	206319	1474370			BBG000078889	KORNHB 3 06/30/17 9706
BBE	I	2012/10/10	2012/10/10	206320	1474375			BBG000078898	KORNHB 3 07/31/17 9707
BBE	I	2012/10/10	2012/10/10	206321	1474377			BBG0000788B5	KORNHB 3 08/31/17 9708
BBE	I	2012/10/10	2012/10/10	206322	1474379			BBG0000788C4	KORNHB 3 09/30/17 9709
BBE	I	2012/10/10	2012/10/10	206323	1474382			BBG0000788D3	KORNHB 3 10/31/17 9710
BBE	I	2012/10/10	2012/10/10	206324	1474384			BBG0000788F1	KORNHB 3 11/30/17 9711
BBE	I	2012/10/10	2012/10/10	206325	1474385			BBG0000788G0	KORNHB 3 12/31/17 9712
BBE	I	2012/10/10	2012/10/10	206326	1474387			BBG0000788H9	KORNHB 3 01/31/18 9801
BBE	I	2012/10/10	2012/10/10	206327	1474390			BBG0000788J7	KORNHB 3 02/28/18 9802
BBE	I	2012/10/10	2012/10/10	206328	1474395			BBG0000788K5	KORNHB 3 03/31/18 9803
BBE	I	2012/10/10	2012/10/10	206355	2032847			BBG00006KWR3	KORNHB 0 08/31/17 0708
BBE	I	2012/10/10	2012/10/10	206357	2032866			BBG00004CGG4	KORNHB 0 10/31/17 0710
BBE	I	2012/10/10	2012/10/10	206358	2032876			BBG00001PR63	KORNHB 0 11/30/17 0711
BBE	I	2012/10/10	2012/10/10	206361	2032949			BBG000009H56	KORNHB 0 03/31/18 0803
BBE	I	2012/10/10	2012/10/10	206368	1515766			BBG0000KM0Y2	KORNHB 0 03/31/19 0903
BBE	I	2012/10/10	2012/10/10	206369	1835204			BBG000023HK1	KORNHB 0 04/30/19 0904
BBE	I	2012/10/10	2012/10/10	206370	1540403			BBG00003NJF9	KORNHB 0 05/31/19 0905
BBE	I	2012/10/10	2012/10/10	206371	1567147			BBG00001GD28	KORNHB 0 06/30/19 0906
BBE	I	2012/10/10	2012/10/10	206372	1554273			BBG000014P06	KORNHB 0 07/31/19 0907
BBE	I	2012/10/10	2012/10/10	206373	1567374			BBG0000BBHS4	KORNHB 0 08/31/19 0908
BBE	I	2012/10/10	2012/10/10	206374	1558040			BBG00004DMS7	KORNHB 0 09/30/19 0909
BBE	I	2012/10/10	2012/10/10	206375	1606037			BBG00003HRB2	KORNHB 0 10/31/19 0910
BBE	I	2012/10/10	2012/10/10	206376	1718213			BBG00001KX47	KORNHB 0 11/30/19 0911
BBE	I	2012/10/10	2012/10/10	206377	1672658			BBG00002GTW8	KORNHB 0 12/31/19 0912
BBE	I	2012/10/10	2012/10/10	206436	2030895			BBG00001HWZ9	SUBWAY 2.5 04/30/17 1004
BBE	I	2012/10/10	2012/10/10	206437	2030919			BBG00001W251	SUBWAY 2.5 05/31/17 1005
BBE	I	2012/10/10	2012/10/10	206438	2030927			BBG00002S4C2	SUBWAY 2.5 06/30/17 1006
BBE	I	2012/10/10	2012/10/10	206439	2036274			BBG00000P3R5	SUBWAY 2.5 07/31/17 1007
BBE	I	2012/10/10	2012/10/10	206440	2044953			BBG00146WW67	SUBWAY 2.5 08/31/17 1008
BBE	I	2012/10/10	2012/10/10	206441	2096763			BBG0015N5023	SUBWAY 2.5 09/30/17 1009
BBE	I	2012/10/10	2012/10/10	206442	2125652			BBG0016XR2P7	SUBWAY 2.5 10/31/17 1010
BBE	I	2012/10/10	2012/10/10	206443	2191106			BBG0018D1KC1	SUBWAY 2.5 11/30/17 1011
BBE	I	2012/10/10	2012/10/10	206444	2244180			BBG0019QB3G4	SUBWAY 2.5 12/31/17 1012
BBE	I	2012/10/10	2012/10/10	206445	2335858			BBG001CW0S56	SUBWAY 2.5 01/31/18 1101
BBE	I	2012/10/10	2012/10/10	206446	2411245			BBG001HKX445	SUBWAY 2.5 02/28/18 1102
BBE	U	2012/10/10	2017/01/16	227235	1992077			BBG00007P372	BAMIIM 3.5 07/05/18 0000
BBE	U	2012/10/10	2017/01/16	228344	2138101			BBG00175XY43	BAMIIM 3.1 10/06/17 0000
BBE	U	2012/10/10	2017/01/16	231600	2578299			BBG001M0S270	BAMIIM 4.1 03/31/18
BBE	U	2012/10/10	2017/01/16	231679	2604940			BBG001M840K8	BAMIIM 4.1 04/06/18 0000
BBE	U	2012/10/10	2017/01/16	239200	3849564			BBG0032Y2L52	BAMIIM 4 05/31/17 0
BBE	I	2012/10/11	2012/10/11	255360	3891299			BBG00396P9G6	BMTA 3.44 08/29/17 1210
BBE	I	2012/10/11	2012/10/11	255361	2080932			BBG0014VWLT1	BMTA 3.42 09/02/17 10-7
BBE	U	2012/10/26	2017/01/16	413669	1288916			BBG0000JDT45	CLNS 7.25 06/15/27
BBE	U	2012/10/29	2017/01/16	443957	3854689			BBG003384PN7	CLNS 8.875 06/15/32
BBE	U	2013/02/12	2017/01/16	470400	3979863			BBG003TXSM55	BCCSO 4.5 01/15/18 0000
BBE	U	2013/03/18	2017/01/16	479985	4001768			BBG0049F35P6	BAPORD 4.25 01/14/18 0000
BBE	I	2013/04/08	2013/04/08	484673	4012572			BBG001QCGLM4	ALLSPR F 06/15/17 11
BBE	U	2013/04/22	2017/01/16	487054	4015403			BBG004DSLDX7	CLNS 5 04/15/23
BBE	I	2013/05/06	2013/05/06	490527	4030839			BBG004J5TW52	KORNHB 2.25 05/31/18 1305
BBE	I	2013/06/10	2013/06/10	499062	4053180			BBG003PF2YM1	JGBR F 01/15/23 41
BBE	U	2013/07/01	2017/01/16	502550	4061017			BBG004PPBWD1	CLNS 5.375 06/15/33
BBE	I	2013/07/08	2013/07/08	504513	4070255			BBG0046XR4J4	JGBR F 04/15/23 42
BBE	I	2013/09/10	2013/09/10	520070	4101690			BBG0057980S2	KORNHB 2.25 09/30/18 1309
BBE	I	2013/10/07	2013/10/07	526113	4119619			BBG005CFN103	KORNHB 2.25 10/31/18 1310
BBE	I	2014/01/13	2014/01/13	545986	4174753			BBG004PVMPH7	ALLSPR F 06/27/20
BBE	U	2014/01/20	2017/01/16	548822	4181395			BBG005VJNSY8	CHIETI 2.8 01/15/18 0000
BBE	U	2014/01/31	2017/01/16	551727	4186506			BBG005X28758	CLNS 3.875 01/15/21
BBE	I	2014/02/17	2014/02/17	556755	4197543			BBG001HTH3W5	RFLBOB 3.75 03/01/18 0000
BBE	U	2014/03/10	2017/01/16	562393	4210214			BBG005S64NN4	CARRHO 4.5 01/15/21 144A
BBE	U	2014/03/10	2017/01/16	562394	4210204			BBG005S65534	CARRHO 6.5 01/15/21 AI
BBE	U	2014/03/10	2017/01/16	562754	4210216			BBG005S65507	CARRHO 4.5 01/15/21 REGS
BBE	I	2014/03/18	2014/03/18	565473	4218377			BBG00640W9K4	KORNHB 2.25 03/31/19 1403
BBE	I	2014/04/07	2014/04/07	572104	4237084			BBG0068QBZ91	KORNHB 2.25 04/30/19 1404
BBE	I	2014/07/07	2014/07/07	598449	4299708			BBG006R6R0H5	KORNHB 2.25 07/31/19 1407
BBE	U	2014/09/08	2017/01/16	613109	4340790			BBG003S9RQM2	RFVORA 2.25 01/14/19 2
BBE	I	2014/09/08	2014/09/08	613507	4337811			BBG0072DTS28	KORNHB 2.25 09/30/19 1409
BBE	U	2014/12/22	2017/01/16	644107	4408881			BBG007LWYYX2	HESLAN 0.8 01/14/25 01F/
BBE	U	2014/12/22	2017/01/16	644109	4408886			BBG007N11M97	HESLAN 0.8 01/14/22 01G/
BBE	U	2015/01/05	2017/01/16	646535	4418200			BBG007K2C8D2	LBBW 1.8 01/13/20
BBE	U	2015/01/27	2017/01/16	650776	4429115			BBG007V74W36	DZBK 1 01/14/27 EMTN
BBE	U	2015/01/27	2017/01/16	650777	4429123			BBG007V75DH2	DZBK 1.2 01/14/30 EMTN
BBE	U	2015/01/27	2017/01/16	650806	4428885			BBG007QP3578	NDB 1.5 01/15/29 1836
BBE	U	2015/01/27	2017/01/16	650977	4428996			BBG007XKK4P5	CARPP 1.2 01/14/18 0000
BBE	I	2015/06/15	2015/06/15	687887	4532106			BBG0045NGSM2	SURTCO F 02/12/23 A10
BBE	U	2015/09/28	2017/01/16	714118	4610659			BBG009WP9BQ7	LBBW 3.3 01/13/20
BBE	U	2016/01/18	2017/01/16	743106	4684608			BBG00BTC06C0	DB 1.75 01/14/21 EMTN
BBE	U	2016/01/25	2017/01/16	744547	4687070			BBG00BS94590	RFLBOB V0 01/13/22 26
BBE	I	2016/02/08	2016/02/08	747500	4697587			BBG008NKLW53	SWOHN 1.4 09/06/26 08
BBE	U	2016/03/07	2017/01/16	753809	4717311			BBG00BSD4Q68	RFLBOB V0 01/13/22 EMTN
BBE	U	2016/03/28	2016/04/08	758288	4729246			BBG00CG8XCB3	SONGNO 2 04/20/22 SONG
BBE	U	2016/04/04	2017/01/16	760921	4742032			BBG00C18NL66	LBBW 2.7 01/13/20 EMTN
BBE	I	2016/04/18	2016/04/18	764759	4751940			BBG00CNMYY61	BMTA 2.31 04/11/31 16-1
BBE	I	2016/06/04	2016/06/06	788143	4342239			BBG0021HDNR2	DAVIVI F 09/10/21 C126
BBE	I	2016/06/04	2016/06/06	788167	4527623			BBG0071N8922	EEPPME F 07/29/26 A12a
BBE	I	2016/06/07	2016/06/07	796636	4280123			BBG006NJS687	KORNHB 2.25 06/30/19 1406
BBE	I	2016/06/07	2016/06/07	798948	3859303			BBG003374R46	BMTA 3.75 06/25/17 12-9
BBE	U	2016/07/18	2017/01/16	824141	4834319			BBG00BYBS583	LBBW 3.15 01/13/20 EMTN
BBE	D	2016/07/18	2016/08/16	824887	4833532				
BBE	U	2016/07/18	2017/01/16	825150	4830665			BBG00D9NQXN5	B 0 01/12/17
BBE	U	2016/07/25	2017/01/16	825760	4838287			BBG007R6T438	SALZBK 1.125 01/15/25
BBE	I	2016/09/26	2016/09/26	843663	4911509			BBG00DS2WHH5	HANYCO 7.005 09/23/19 ++54
BBE	I	2016/10/03	2016/10/03	845847	4920459			BBG00DQFTCM7	KWARDB 1.25 09/30/21 1609
BBE	I	2016/10/03	2016/10/03	845897	4920417			BBG00DW1KCM0	KUKDOC 1.82 09/30/19 ++51
BBE	I	2016/12/05	2016/12/05	903853	4979375			BBG00FGGSTN4	KOSOPW 2.352 12/02/26 39
BBE	I	2016/12/12	2016/12/12	906055	4987640			BBG00FFL39F4	KORMSB 1.72 12/02/18 1812
BBE	U	2016/12/12	2016/12/15	906068	4985384			BBG00FH3NRD2	INPOAU 2.153 12/08/21 ++13
BBE	I	2016/12/12	2016/12/12	906071	4985388			BBG00FH3RT71	NACF 1.93 12/08/19 2016
BBE	I	2016/12/12	2016/12/12	906087	4982625			BBG00FGPS7J7	SHINCP 2.03 01/05/18 3241
BBE	I	2016/12/12	2016/12/12	906088	4982627			BBG00FGPS921	SHINCP 2.047 02/06/18 3242
BBE	I	2016/12/12	2016/12/12	906089	4982629			BBG00FGPS9W8	SHINCP 2.065 03/06/18 3243
BBE	I	2016/12/12	2016/12/12	906093	4981295			BBG00FGPNK49	LOTCRD 2.012 12/05/17 +323
BBE	I	2016/12/12	2016/12/12	906098	4981302			BBG00FF0ND23	LGFASH 2.686 12/05/21 +++6
BBE	I	2016/12/19	2016/12/19	909747	4989118			BBG00FJ1XD71	NFFSHC 0 12/12/17 1612
BBE	I	2016/12/19	2016/12/19	909750	4993629			BBG00FGYY1V0	DOOSAN 4.131 12/16/18 +286
BBE	I	2016/12/19	2016/12/19	909763	4989111			BBG00FHV0339	LOTCRD 2.063 06/12/18 +324
BBE	I	2016/12/19	2016/12/19	909766	4990274			BBG00FJ60DH5	CITNAT 1.75 06/13/18 3612
BBE	I	2016/12/19	2016/12/19	909767	4991066			BBG00FJDL6K8	KOREAT 3.321 12/14/17 ++86
BBE	I	2016/12/19	2016/12/19	909776	4992201			BBG00FJKVFT2	MERTZC 2.02 12/15/17 ++76
BBE	I	2016/12/27	2016/12/27	912245	4996944			BBG00FFL5B67	KORMSB 0 06/20/17 0620
BBE	I	2016/12/27	2016/12/27	912246	4996945			BBG00FFL5PC9	KORMSB 0 03/21/17 0321
BBE	I	2017/01/03	2017/01/03	914346	5007458			BBG00FP4NVP9	BTF 0 12/06/17 48s
BBE	I	2017/01/03	2017/01/03	914347	5007464			BBG00FP4NVL3	BTF 0 06/08/17
BBE	I	2017/01/03	2017/01/03	914349	5007461			BBG00FP4NVH8	BTF 0 04/05/17
BBE	I	2017/01/03	2017/01/03	915019	5001838			BBG00FN630K1	FHLMC 2.35 01/12/22
BBE	I	2017/01/09	2017/01/09	917281	5010819			BBG00FPL1N00	IBRD 2.8 01/12/22 MTN
BBE	I	2017/01/09	2017/01/09	917808	5011503			BBG00FQ9BQN3	FHLB F 07/12/18
BBE	I	2017/01/09	2017/01/09	917809	5011506			BBG00FQ9DPP1	FHLB 2.78 01/12/24
BBE	I	2017/01/09	2017/01/09	917811	5011517			BBG00FQ9HNT8	FHLB 3.5 01/12/29
BBE	I	2017/01/09	2017/01/09	917814	5011525			BBG00FQ9RMN5	FHLB F 07/12/17 .*
BBE	I	2017/01/09	2017/01/09	917843	5012477			BBG00FQ8V4D3	FFCB F 01/12/18 ++*
BBE	I	2017/01/16	2017/01/16	919430	5016036			BBG00FQNM9T2	KFW 2.9 06/06/22 MTN
BBE	I	2017/01/16	2017/01/16	919455	5015351			BBG00FPFJZS7	CCBGBB F 01/10/19 EMTN
BBE	I	2017/01/16	2017/01/16	919456	5016692			BBG00FPM9CX8	CCBGBB F 01/11/19 EMTn
BBE	I	2017/01/16	2017/01/16	919506	5016871			BBG00FQVL6W7	REIUCN 2.83 10/03/22 Y
BBE	I	2017/01/16	2017/01/16	919525	5016730			BBG00FQPHYT8	MET 0.3 01/19/26 EMTN
BBE	I	2017/01/16	2017/01/16	919526	5017678			BBG00FQPN6B1	PSHYPO 0.125 05/06/25 643
BBE	I	2017/01/16	2017/01/16	919527	5016755			BBG00FQPN756	PSHYPO 0.375 03/21/28 644
BBE	I	2017/01/16	2017/01/16	919528	5016716			BBG00FQPNF67	PSHYPO 0.625 01/23/37
BBE	I	2017/01/16	2017/01/16	919529	5017684			BBG00FQTLFT6	HYNOE 0.2 03/31/22 EMTN
BBE	I	2017/01/16	2017/01/16	919530	5015535			BBG00FQKPGG3	ASBBNK 0.2 08/02/24 Emtn
BBE	I	2017/01/16	2017/01/16	919539	5013632			BBG00F0RPX42	HTFUTR 5.8 07/22/19
BBE	I	2017/01/16	2017/01/16	919541	5002213			BBG00FN0VYW6	CGTB 0 03/27/17 1657
BBE	I	2017/01/16	2017/01/16	919545	5019357			BBG00FQPCWX2	IBB 0.05 01/17/22 177
BBE	I	2017/01/16	2017/01/16	919562	5015276			BBG00FQJYFX9	CMZB 4 03/30/27 eMTN
BBE	I	2017/01/16	2017/01/16	919587	5015268			BBG00FP96DG7	LBBW 0.2 01/10/24 EMTN
BBE	I	2017/01/16	2017/01/16	919595	5016071			BBG00002QW78	RDKRE 4.5 P12/29/49 +7
BBE	I	2017/01/16	2017/01/16	919599	5015821			BBG00FQMD8B5	EFSF 0 11/17/22
BBE	I	2017/01/16	2017/01/16	919624	5013990			BBG00FQ700J1	CFF 0.325 09/12/23 EMTN
BBE	I	2017/01/16	2017/01/16	919625	5013149			BBG00FQ7BTB4	DGFP 1.25 01/18/27 EMTN
BBE	I	2017/01/16	2017/01/16	919627	5016946			BBG00FQPHLC4	BPCEGP 1.125 01/18/23 EMTN
BBE	I	2017/01/16	2017/01/16	919628	5015526			BBG00FQJRY57	NK 1.5 01/15/27 EMTN
BBE	I	2017/01/16	2017/01/16	919630	5015482			BBG00FQJRFS3	UNEDIC 0.125 05/25/22 TNMT
BBE	I	2017/01/16	2017/01/16	919634	5013070			BBG00FQGZ9Y7	GHTB 0 04/10/17 91D
BBE	I	2017/01/16	2017/01/16	919635	5013072			BBG00FQGZDV1	GHTB 0 07/10/17 182D
BBE	I	2017/01/16	2017/01/16	919636	5015962			BBG00FQGZFL7	GHTN 21 01/07/19 2YR
BBE	I	2017/01/16	2017/01/16	919683	5013565			BBG00DWVPX70	INDOTB 0 09/22/17 364
BBE	I	2017/01/16	2017/01/16	919684	5013575			BBG00DWVPWN4	INDOTB 0 06/22/17 272
BBE	I	2017/01/16	2017/01/16	919685	5013670			BBG00DZFBHC6	SDBIIJ 0 04/07/17 182
BBE	I	2017/01/16	2017/01/16	919753	5015827			BBG00CCPGX13	JGBR 0.05 04/15/19 70
BBE	I	2017/01/16	2017/01/16	919754	5015836			BBG00CMSS1S4	JGBR 0.05 05/15/19 71
BBE	I	2017/01/16	2017/01/16	919755	5015889			BBG00D8RX211	JGBR 0.05 08/15/19 74
BBE	I	2017/01/16	2017/01/16	919756	5015902			BBG00DJ65SR1	JGBR 0.05 09/15/19 75
BBE	I	2017/01/16	2017/01/16	919757	5015911			BBG00DR3ZXB2	JGBR 0.05 10/15/19 76
BBE	I	2017/01/16	2017/01/16	919758	5015916			BBG00DYKWNN8	JGBR 0.05 11/15/19 77
BBE	I	2017/01/16	2017/01/16	919760	5015928			BBG00DY9TQL2	HOKKA 0.57 12/26/36 2810
BBE	I	2017/01/16	2017/01/16	919761	5015334			BBG00FGYWGC0	SAPPOR 0.001 12/20/21 28-7
BBE	I	2017/01/16	2017/01/16	919764	5017047			BBG00F5G50Q1	SAITAP 0.536 12/12/36 19
BBE	I	2017/01/16	2017/01/16	919765	5019565			BBG00FQB5953	SAITAP 0.18 01/27/27 28-8
BBE	I	2017/01/16	2017/01/16	919766	5015391			BBG00FGGTQR5	CHIBA 0.15 12/25/26 28-5
BBE	I	2017/01/16	2017/01/16	919767	5017810			BBG00FQB64Z0	CHIBA 0.18 01/25/27 28-6
BBE	I	2017/01/16	2017/01/16	919768	5015939			BBG00FFKZSH7	YOKOHA 0.001 12/16/21 45
BBE	I	2017/01/16	2017/01/16	919770	5015947			BBG00FGYWVL7	NAGANO 0.001 12/24/21 28-1
BBE	I	2017/01/16	2017/01/16	919771	5017914			BBG00FQB5RN3	HMMCTY 0.18 01/25/27 28-1
BBE	I	2017/01/16	2017/01/16	919772	5015963			BBG00F8ZX888	SHIPRE 0.08 11/30/26 28-1
BBE	I	2017/01/16	2017/01/16	919773	5015976			BBG00FGGTQS4	KYOTO 0.001 12/21/21 2811
BBE	I	2017/01/16	2017/01/16	919774	5014289			BBG00FB186V5	HYOGO 0.69 09/20/46 3
BBE	I	2017/01/16	2017/01/16	919775	5014274			BBG00F9PTVJ1	HYOGO 0.3 11/28/36 3
BBE	I	2017/01/16	2017/01/16	919776	5016705			BBG00FQB6275	HIROP 0.18 01/25/27 28-5
BBE	I	2017/01/16	2017/01/16	919777	5014245			BBG00F3CT763	FUKUPR 0.05 11/30/26 28-5
BBE	I	2017/01/16	2017/01/16	919780	5012405			BBG00FQB9BJ9	TOBRAI 0.16 01/31/20 113
BBE	I	2017/01/16	2017/01/16	919784	5014225			BBG00F9PTV83	FUKUKT 0.56 12/16/36 145
BBE	I	2017/01/16	2017/01/16	919786	5019573			BBG00FPG4VM6	ANZ 0.293 01/23/24 10
BBE	I	2017/01/16	2017/01/16	919787	5013530			BBG00FP334Z2	KORMSB 1.5 01/09/18 1801
BBE	I	2017/01/16	2017/01/16	919788	5014634			BBG00FP337L0	KORMSB 0 04/11/17 0411
BBE	I	2017/01/16	2017/01/16	919803	5013515			BBG00FQJB254	LOTFIN 1.999 08/09/18 2931
BBE	I	2017/01/16	2017/01/16	919804	5013517			BBG00FQJB4M1	LOTFIN 2.085 01/09/19 2932
BBE	I	2017/01/16	2017/01/16	919805	5013518			BBG00FQDL6B0	HYUCAP 1.949 02/07/20 1665
BBE	I	2017/01/16	2017/01/16	919806	5013520			BBG00FQDL8Q0	HYUCAP 2.022 07/09/20 1665
BBE	I	2017/01/16	2017/01/16	919814	5013522			BBG00FQJ5TP0	HDCMRC 2.034 01/09/19 2581
BBE	I	2017/01/16	2017/01/16	919815	5013525			BBG00FQJ5V66	HDCMRC 2.044 02/08/19 2582
BBE	I	2017/01/16	2017/01/16	919816	5013527			BBG00FQJ9630	HDCMRC 2.247 01/09/20 2583
BBE	I	2017/01/16	2017/01/16	919910	5018616			BBG00FQRC9T4	PGB 4.125 04/14/27
BBE	I	2017/01/16	2017/01/16	919917	5018407			BBG00FQPJ3Z7	WILHEM F 01/18/21 DMTN
BBE	I	2017/01/16	2017/01/16	919935	5016980			BBG00FQTYLP3	ABNANV 2.1 01/18/19 144A
BBE	I	2017/01/16	2017/01/16	919936	5017008			BBG00FQW9S60	ABNANV F 01/18/19 144a
BBE	I	2017/01/16	2017/01/16	919939	5016984			BBG00F91M0V5	ADSEZ 3.95 01/19/22 144A
BBE	I	2017/01/16	2017/01/16	919940	5018090			BBG00FRJJQR8	AERDOS 6.75 03/30/29 144A
BBE	I	2017/01/16	2017/01/16	919969	5015452			BBG003GRF7C1	ARTINS 2.482 03/01/19
BBE	I	2017/01/16	2017/01/16	919971	5018131			BBG00FRKZLQ9	PACLIF 2.875 01/20/22 144A
BBE	I	2017/01/16	2017/01/16	920040	5017811			BBG00FQXL1H1	AVGO 2.375 01/15/20 144A
BBE	I	2017/01/16	2017/01/16	920041	5016986			BBG00FQXL7F0	AVGO 3 01/15/22 144A
BBE	I	2017/01/16	2017/01/16	920042	5016981			BBG00FQXL8B2	AVGO 3.625 01/15/24 144A
BBE	I	2017/01/16	2017/01/16	920043	5017004			BBG00FQXLV49	AVGO 3.875 01/15/27 144A
BBE	I	2017/01/16	2017/01/16	920045	5014293			BBG00FQKKZ03	CBOE 3.65 01/12/27
BBE	I	2017/01/16	2017/01/16	920048	5013139			BBG00FPLMHZ2	CADES 1.875 01/13/20 144A
BBE	I	2017/01/16	2017/01/16	920050	5018084			BBG00FPFKFL6	CALVRT 1.5 01/15/20 NoTZ
BBE	I	2017/01/16	2017/01/16	920051	5018091			BBG00FPFKJM7	CALVRT 2 01/18/22 NOTz
BBE	I	2017/01/16	2017/01/16	920052	5018096			BBG00FPFKKC5	CALVRT 3 01/19/27 NOtZ
BBE	I	2017/01/16	2017/01/16	920053	5018102			BBG00FPFKKT7	CALVRT 4 01/15/32 nOTZ
BBE	I	2017/01/16	2017/01/16	920062	5017029			BBG00DQCL1J0	COF 1 03/08/18 0000
BBE	I	2017/01/16	2017/01/16	920064	5017044			BBG00FQW6R38	CARCAP 5.125 08/15/26 WI
BBE	I	2017/01/16	2017/01/16	920069	5014327			BBG00FQKH3P1	CNP 3 02/01/27
BBE	I	2017/01/16	2017/01/16	920072	5014332			BBG00FQJG1V2	C 3.67 01/13/27 MTN
BBE	I	2017/01/16	2017/01/16	920156	5018095			BBG00FQMZX71	DB 2.65 01/15/19 NOTZ
BBE	I	2017/01/16	2017/01/16	920158	5014363			BBG00FQKF685	DT 2.225 01/17/20 144A
BBE	I	2017/01/16	2017/01/16	920159	5014361			BBG00FQKFXY7	DT F 01/17/20 144A
BBE	I	2017/01/16	2017/01/16	920160	5014367			BBG00FQKG1B1	DT 2.82 01/19/22 144A
BBE	I	2017/01/16	2017/01/16	920161	5014371			BBG00FQKG6L9	DT 3.6 01/19/27 144A
BBE	I	2017/01/16	2017/01/16	920165	5015745			BBG00FQKCJX2	DEXGRP 2.25 02/18/20 144A
BBE	I	2017/01/16	2017/01/16	920168	5014314			BBG00FQKHHK5	D 1.875 01/15/19 A
BBE	I	2017/01/16	2017/01/16	920169	5014296			BBG00FQKHTH3	D 2.75 01/15/22 B
BBE	I	2017/01/16	2017/01/16	920192	5016804			BBG00FQXT1Y4	ETP 4.2 04/15/27
BBE	I	2017/01/16	2017/01/16	920193	5016816			BBG00FQXMNG3	ETP 5.3 04/15/47
BBE	I	2017/01/16	2017/01/16	920196	5016838			BBG00FQRHFB4	EDC 1.625 01/17/20
BBE	I	2017/01/16	2017/01/16	920199	5014087			BBG00FQKK6R8	FHLB F 01/16/18
BBE	I	2017/01/16	2017/01/16	920200	5014091			BBG00FQKN3T0	FHLB F 07/25/17 +++*
BBE	I	2017/01/16	2017/01/16	920201	5014097			BBG00FQKP4R8	FHLB F 07/11/17 ++*
BBE	I	2017/01/16	2017/01/16	920203	5014103			BBG00FQL0Y24	FHLB F 10/11/17 _
BBE	I	2017/01/16	2017/01/16	920204	5014118			BBG00FQMBLC7	FHLB 1.2 09/28/18 0001
BBE	I	2017/01/16	2017/01/16	920205	5014119			BBG00FQN0F76	FHLB F 07/11/17 _
BBE	I	2017/01/16	2017/01/16	920206	5014122			BBG00FQN0QY2	FHLB F 07/11/17 +*
BBE	I	2017/01/16	2017/01/16	920208	5015390			BBG00FQR6QB2	FHLB F 04/12/18 ++*
BBE	I	2017/01/16	2017/01/16	920210	5015398			BBG00FQRD5Q4	FHLB F 04/12/18 -
BBE	I	2017/01/16	2017/01/16	920211	5015403			BBG00FQRJLV7	FHLB F 07/12/18 +_
BBE	I	2017/01/16	2017/01/16	920216	5015422			BBG00FQS2G35	FHLB F 10/12/17 _
BBE	I	2017/01/16	2017/01/16	920217	5015425			BBG00FQRZD65	FHLB F 07/12/17 _
BBE	I	2017/01/16	2017/01/16	920220	5015435			BBG00FQSC9D9	FHLB F 07/12/17 -
BBE	I	2017/01/16	2017/01/16	920228	5016576			BBG00FQXGC38	FHLB 1.16 10/01/18 0000
BBE	I	2017/01/16	2017/01/16	920229	5016580			BBG00FQXKHT4	FHLB 2.265 11/30/23
BBE	I	2017/01/16	2017/01/16	920262	5014468			BBG00FQMYZS4	FAMCA 3.2 01/01/27 MTN
BBE	I	2017/01/16	2017/01/16	920288	5013120			BBG00FQFGPK9	FHLMC 2.25 01/27/22
BBE	I	2017/01/16	2017/01/16	920296	5013131			BBG00FQGXQB6	FHLMC 2.07 01/12/21
BBE	I	2017/01/16	2017/01/16	920297	5014192			BBG00FQGXSC1	FHLMC 1.74 01/10/20
BBE	I	2017/01/16	2017/01/16	920306	5014384			BBG00FQKYHN3	FHLMC F 01/11/18
BBE	I	2017/01/16	2017/01/16	920307	5016694			BBG00FQLN0V1	FHLMC F 01/11/18 _
BBE	I	2017/01/16	2017/01/16	920317	5015731			BBG00FQRG6L4	FHLMC F 01/11/18 .*
BBE	I	2017/01/16	2017/01/16	920337	5018109			BBG00FQXPGD8	FHLMC 1.5 01/17/20
BBE	I	2017/01/16	2017/01/16	920339	5016989			BBG00FPMB7M8	FIBRBZ 5.5 01/17/27
BBE	I	2017/01/16	2017/01/16	920346	5017828			BBG00FQH0928	FLXACQ 6.875 01/15/25 144A
BBE	I	2017/01/16	2017/01/16	920351	5014308			BBG00FQKBFK5	GIS 3.2 02/10/27
BBE	I	2017/01/16	2017/01/16	920353	5017015			BBG00FQXL840	GM F 01/14/22 FRN
BBE	I	2017/01/16	2017/01/16	920354	5016987			BBG00FQXL298	GM 3.45 01/14/22
BBE	I	2017/01/16	2017/01/16	920355	5016975			BBG00FQXLWM7	GM 4.35 01/17/27
BBE	I	2017/01/16	2017/01/16	920356	5018100			BBG00FRK2H11	EMGARR 8.75 01/20/22 144A
BBE	I	2017/01/16	2017/01/16	920361	5014546			BBG003M5VW39	GS V0 11/19/27 MTN
BBE	I	2017/01/16	2017/01/16	920362	5014552			BBG001VQ24V0	GS 0 07/20/21 0000
BBE	I	2017/01/16	2017/01/16	920363	5014558			BBG005ZRRN46	GS 0 03/06/17 0005
BBE	I	2017/01/16	2017/01/16	920364	5014561			BBG00548BKQ1	GS 0 02/28/17 0003
BBE	I	2017/01/16	2017/01/16	920396	5017074			BBG009QYK8D3	HPYBNC V5.875 08/01/25 AI
BBE	I	2017/01/16	2017/01/16	920397	5019787			BBG00FRKWDY1	HONDUR 6.25 01/19/27 144A
BBE	I	2017/01/16	2017/01/16	920398	5015709			BBG00FQQRR10	HPT 4.95 02/15/27
BBE	I	2017/01/16	2017/01/16	920400	5018103			BBG00FQQKJJ6	IEP 6.25 02/01/22 144A
BBE	I	2017/01/16	2017/01/16	920401	5018107			BBG00FQSGKT3	IEP 6.75 02/01/24 144A
BBE	I	2017/01/16	2017/01/16	920419	5017017			BBG00FQK8479	IADB 2.125 01/18/22 GMTN
BBE	I	2017/01/16	2017/01/16	920420	5013410			BBG00FMFCQN2	INTEL 12.5 11/15/24 144A
BBE	I	2017/01/16	2017/01/16	920455	5014324			BBG00FQKKY51	JEF 4.85 01/15/27
BBE	I	2017/01/16	2017/01/16	920466	5017953			BBG00FQK73D5	KOMINS 1.75 03/19/20 144A
BBE	I	2017/01/16	2017/01/16	920467	5018436			BBG00FQYLFP9	KOREA 2.75 01/19/27
BBE	I	2017/01/16	2017/01/16	920468	5015647			BBG00FQK8TZ3	KFW 2.125 03/07/22
BBE	I	2017/01/16	2017/01/16	920496	5019129			BBG00FRKPMK4	MEGCN 6.5 01/15/25 144A
BBE	I	2017/01/16	2017/01/16	920497	5016994			BBG00FQW25P6	MX 5 03/01/21 144A
BBE	I	2017/01/16	2017/01/16	920500	5014299			BBG00FQKJS47	MMC 2.75 01/30/22
BBE	I	2017/01/16	2017/01/16	920501	5014315			BBG00FQKKHB1	MMC 4.35 01/30/47
BBE	I	2017/01/16	2017/01/16	920513	5018433			BBG00FRQ96J6	MEDCAP 7.25 01/30/24
BBE	I	2017/01/16	2017/01/16	920541	5017694			BBG00FQTN963	KUNTA F 02/07/20 144A
BBE	I	2017/01/16	2017/01/16	920542	5015377			BBG00FQR7BJ6	NBR 0.75 01/15/24 144A
BBE	I	2017/01/16	2017/01/16	920546	5018122			BBG00FRLQ1V5	NACN F 01/17/20 MTN
BBE	I	2017/01/16	2017/01/16	920569	5014383			BBG00FQN0BS2	NYLIFE F 07/06/18 144A
BBE	I	2017/01/16	2017/01/16	920570	5014392			BBG00FQKJ057	NYLIFE 2.9 01/17/24 144A
BBE	I	2017/01/16	2017/01/16	920571	5014387			BBG00FQN2255	NYLIFE F 07/06/18 REGS
BBE	I	2017/01/16	2017/01/16	920572	5014399			BBG00FQKK5W4	NYLIFE 2.9 01/17/24 REGS
BBE	I	2017/01/16	2017/01/16	920582	5017355			BBG0004CHQ20	FOXA 7.25 05/18/18 144A
BBE	I	2017/01/16	2017/01/16	920583	5017767			BBG00FRJX9Y2	NICE 1.25 01/15/24 144A
BBE	I	2017/01/16	2017/01/16	920584	5015739			BBG00FQRCQ07	NSANY 2.25 01/13/20 144A
BBE	I	2017/01/16	2017/01/16	920585	5015758			BBG00FQRD879	NSANY F 01/13/20 144A
BBE	I	2017/01/16	2017/01/16	920586	5015750			BBG00FQRDTH2	NSANY 2.8 01/13/22 144A
BBE	I	2017/01/16	2017/01/16	920587	5015787			BBG00FQRF5F4	NSANY F 01/13/22 144A
BBE	I	2017/01/16	2017/01/16	920626	5018156			BBG00FRKG022	PENN 5.625 01/15/27 144A
BBE	I	2017/01/16	2017/01/16	920632	5014407			BBG00FQK8923	PETBRA 6.125 01/17/22
BBE	I	2017/01/16	2017/01/16	920633	5014412			BBG00FQK9ZF0	PETBRA 7.375 01/17/27
BBE	I	2017/01/16	2017/01/16	920655	5019563			BBG0016XH358	PHILIP 6.375 10/23/34 OCT
BBE	I	2017/01/16	2017/01/16	920668	5014711			BBG00FQN0HG2	PSEC 5 01/15/22 NOTz
BBE	I	2017/01/16	2017/01/16	920680	5018188			BBG00FRLZ190	RAIZBZ 5.3 01/20/27 144A
BBE	I	2017/01/16	2017/01/16	920689	5014578			BBG004FLM405	RY 0 04/19/18 0002
BBE	I	2017/01/16	2017/01/16	920701	5017999			BBG00FRM18L6	RY F 01/10/19 GMTN
BBE	I	2017/01/16	2017/01/16	920706	5017718			BBG0000DNK64	SALVES 5.5 09/01/18
BBE	I	2017/01/16	2017/01/16	920764	5017001			BBG00FQSTP09	STANLN V7.75 P12/29/49 144A
BBE	I	2017/01/16	2017/01/16	920766	5018030			BBG00FRLG440	SYK 1.8 01/15/19
BBE	I	2017/01/16	2017/01/16	920781	5018197			BBG00FQKHVS6	TMH 6.375 02/01/25 144A
BBE	I	2017/01/16	2017/01/16	920812	5014419			BBG00FQJXPT3	TD 2.5 01/18/22 144A
BBE	I	2017/01/16	2017/01/16	920816	5019156			BBG00FRQFDT3	TWO 6.25 01/15/22
BBE	I	2017/01/16	2017/01/16	920819	5018995			BBG00000LJJ3	HUD 7.908 08/01/17 00-A
BBE	I	2017/01/16	2017/01/16	920820	5014477			BBG00FQ9L763	B 0 07/13/17
BBE	I	2017/01/16	2017/01/16	920821	5015368			BBG00FQ9L7B7	T 1.375 01/15/20
BBE	I	2017/01/16	2017/01/16	920826	5016967			BBG00FQSLSY4	VECO 2.7 01/15/23
BBE	I	2017/01/16	2017/01/16	920837	5014337			BBG00FQK5935	WDC 10.5 04/01/24 WI
BBE	I	2017/01/16	2017/01/16	920849	5018116			BBG00FRJKPZ9	ZAYOGR 5.75 01/15/27
BBE	I	2017/01/16	2017/01/16	920850	5019125			BBG00FRKSPK4	MEGCN 6.5 01/15/25 REGS
BBE	I	2017/01/16	2017/01/16	920851	5015800			BBG00FQJY3G5	TD 2.5 01/18/22 REGS
BBE	I	2017/01/16	2017/01/16	920878	5017110			BBG00FQY57M8	STANLN V7.75 P12/29/49 REGS
BBE	I	2017/01/16	2017/01/16	920892	5018191			BBG00FRM87G7	RAIZBZ 5.3 01/20/27 REGS
BBE	I	2017/01/16	2017/01/16	920893	5014439			BBG00FQKNKM9	DT 2.225 01/17/20 REGS
BBE	I	2017/01/16	2017/01/16	920894	5014435			BBG00FQKNTM0	DT F 01/17/20 REGS
BBE	I	2017/01/16	2017/01/16	920895	5014444			BBG00FQKP0T4	DT 2.82 01/19/22 REGS
BBE	I	2017/01/16	2017/01/16	920896	5014448			BBG00FQKPCL6	DT 3.6 01/19/27 REGS
BBE	I	2017/01/16	2017/01/16	920897	5018167			BBG00FRJJT01	AERDOS 6.75 03/30/29 REGS
BBE	I	2017/01/16	2017/01/16	920898	5018177			BBG00FRK5R16	EMGARR 8.75 01/20/22 REGS
BBE	I	2017/01/16	2017/01/16	920900	5018126			BBG00FRL0PK2	PACLIF 2.875 01/20/22 REGS
BBE	I	2017/01/16	2017/01/16	920901	5017927			BBG00FQXL6Q0	AVGO 2.375 01/15/20 REGS
BBE	I	2017/01/16	2017/01/16	920902	5017010			BBG00FQXL7X0	AVGO 3 01/15/22 REGS
BBE	I	2017/01/16	2017/01/16	920903	5017171			BBG00FQXLT80	AVGO 3.625 01/15/24 REGS
BBE	I	2017/01/16	2017/01/16	920904	5018099			BBG00FQXLWF5	AVGO 3.875 01/15/27 REGS
BBE	I	2017/01/16	2017/01/16	920905	5014429			BBG00FJGYY17	FCX 6.125 06/15/19 REGS
BBE	I	2017/01/16	2017/01/16	920906	5017942			BBG00FQY7S31	FLXACQ 6.875 01/15/25 REGS
BBE	I	2017/01/16	2017/01/16	920907	5018182			BBG00FQSGKF8	IEP 6.25 02/01/22 REGS
BBE	I	2017/01/16	2017/01/16	920908	5018183			BBG00FQSGLC9	IEP 6.75 02/01/24 REGS
BBE	I	2017/01/16	2017/01/16	920909	5017106			BBG00DY3G3K1	VTIV 7.5 10/01/24 REGS
BBE	I	2017/01/16	2017/01/16	920910	5015795			BBG00FQRD183	NSANY 2.25 01/13/20 REGS
BBE	I	2017/01/16	2017/01/16	920911	5015802			BBG00FQRDMF9	NSANY F 01/13/20 REGS
BBE	I	2017/01/16	2017/01/16	920912	5015798			BBG00FQRDZ51	NSANY 2.8 01/13/22 REGS
BBE	I	2017/01/16	2017/01/16	920913	5015790			BBG00FQRF7X0	NSANY F 01/13/22 REGS
BBE	I	2017/01/16	2017/01/16	920914	5019299			BBG00FRKKW90	PENN 5.625 01/15/27 REGS
BBE	I	2017/01/16	2017/01/16	920915	5018199			BBG00FQKMJ98	TMH 6.375 02/01/25 REGS
BBE	I	2017/01/16	2017/01/16	920916	5018111			BBG00FRMR5P0	ZAYOGR 5.75 01/15/27 REGS
BBE	I	2017/01/16	2017/01/16	920917	5017071			BBG00FQY3RH2	ADSEZ 3.95 01/19/22 REGS
BBE	I	2017/01/16	2017/01/16	921051	5013864			BBG00D9QJWB1	BNP 0 03/29/19 0009
BBE	I	2017/01/16	2017/01/16	921071	5013675			BBG00F7QTK32	BNP 0 10/31/18 000C
BBE	I	2017/01/16	2017/01/16	921072	5016157			BBG00FHTPKC9	BNP 0 11/28/19
BBE	I	2017/01/16	2017/01/16	921209	5016825			BBG00FQ9PZF7	SOCGEN 7.41 01/03/18
BBE	I	2017/01/16	2017/01/16	921214	5017722			BBG00FQTJ5P5	LINGR 0.25 01/18/22 EMTN
BBE	I	2017/01/16	2017/01/16	921215	5018233			BBG00FQTJK36	AUCKCN 1 01/19/27 EMTN
BBE	I	2017/01/16	2017/01/16	921274	5016658			BBG00FD4WHF4	COVBS 0.5 01/12/24 EMTN
BBE	I	2017/01/16	2017/01/16	921287	5017970			BBG00FQTKZ77	SUMIBK 0.606 01/18/22
BBE	I	2017/01/16	2017/01/16	921303	5018024			BBG00FRJ5NW4	WPC 2.25 07/19/24
BBE	I	2017/01/16	2017/01/16	921304	5019382			BBG00FQNQN80	CHJMAO V5.75 P12/29/49
BBE	I	2017/01/16	2017/01/16	921334	5018205			BBG00FQJJVY0	NEROSE 4.5 01/19/20
BBE	I	2017/01/16	2017/01/16	921377	5013987			BBG00FPM41N8	HESLAN 0.625 01/12/27 eMTN
BBE	I	2017/01/16	2017/01/16	921378	5014016			BBG00FQ75MD4	F 0.869 09/13/21 EMTN
BBE	I	2017/01/16	2017/01/16	921387	5014115			BBG00FPLPJZ5	CADES 1.875 01/13/20 REGS
BBE	I	2017/01/16	2017/01/16	921395	5014171			BBG00FPMM2M7	CBAAU F 01/12/22 EMTN
BBE	I	2017/01/16	2017/01/16	921402	5014148			BBG00FQDPS37	BNG 1 03/15/22 EMTN
BBE	I	2017/01/16	2017/01/16	921449	5014507			BBG00FQJWD75	HEIGR 0.5 01/18/21 EMTN
BBE	I	2017/01/16	2017/01/16	921453	5015418			BBG00FQJQQV6	LLOYDS F 01/16/20
BBE	I	2017/01/16	2017/01/16	921455	5015660			BBG00FQWBH61	ABNANV F 01/18/19 RegS
BBE	I	2017/01/16	2017/01/16	921456	5015664			BBG00FQTWQ56	ABNANV 2.1 01/18/19 REGS
BBE	I	2017/01/16	2017/01/16	921469	5014347			BBG00FQMTWX1	HNDA 0.75 01/17/24
BBE	I	2017/01/16	2017/01/16	921476	5019319			BBG00FQJQ0C4	SWEDA 0.125 07/18/22 EMTN
BBE	I	2017/01/16	2017/01/16	921478	5016142			BBG00FQF6P57	SBAB 0.375 02/16/24 EMTN
BBE	I	2017/01/16	2017/01/16	921479	5014242			BBG00FQJZC38	DAIGR 1.5 01/13/22 EMTN
BBE	I	2017/01/16	2017/01/16	921481	5015539			BBG00FQJV2L4	ENELIM 1 09/16/24 EMTN
BBE	I	2017/01/16	2017/01/16	921482	5014139			BBG00FQGZXW6	KOMMUN 0.25 02/16/24 EMTN
BBE	I	2017/01/16	2017/01/16	921487	5015369			BBG00FQJZZX4	BNS 0.125 01/13/22
BBE	I	2017/01/16	2017/01/16	921488	5017948			BBG00FQK78Q0	KOMINS 1.75 03/19/20 REGS
BBE	I	2017/01/16	2017/01/16	921489	5016843			BBG00FQKDZV7	ERSTBK 0.625 01/18/27 EMTN
BBE	I	2017/01/16	2017/01/16	921495	5016846			BBG00FQKD7C0	DEXGRP 2.25 02/18/20 REGS
BBE	I	2017/01/16	2017/01/16	921508	5016933			BBG00FQKJKV4	AXASA V5.125 01/17/47 EMTN
BBE	I	2017/01/16	2017/01/16	921513	5017648			BBG00FQPD356	TELEFO 2.318 10/17/28 EMTN
BBE	I	2017/01/16	2017/01/16	921514	5016126			BBG00FQPD347	TELEFO 1.528 01/17/25 EMTN
BBE	I	2017/01/16	2017/01/16	921515	5017641			BBG00FQPCQC8	SANSCF 0.875 01/24/22
BBE	I	2017/01/16	2017/01/16	921527	5017975			BBG00FQK53B9	NNGRNV 0.875 01/13/23 REGS
BBE	I	2017/01/16	2017/01/16	921528	5017985			BBG00FQK5178	NNGRNV V4.625 01/13/48 EMTN
BBE	I	2017/01/16	2017/01/16	921529	5016563			BBG00FQPGXF6	BACRED 0.75 02/17/20 EMTN
BBE	I	2017/01/16	2017/01/16	921554	5017687			BBG00FQTN8M7	KUNTA F 02/07/20 REGS
BBE	I	2017/01/16	2017/01/16	921597	5017682			BBG00FQPVGN7	BAWAG 0.75 01/18/27 EMTN
BBE	I	2017/01/16	2017/01/16	921602	5017720			BBG00FQTHV25	ISPIM 1.375 01/18/24 EMTN
BBE	I	2017/01/16	2017/01/16	921609	5018031			BBG00FQJPQ83	TTMTIN 2.2 01/15/24 REGS
BBE	I	2017/01/16	2017/01/16	921612	5019226			BBG00FQK6Q81	TTMTIN 2.2 01/15/24 144A
BBE	I	2017/01/16	2017/01/16	921622	5017740			BBG00FQTK699	GASSM 1.375 01/19/27 EMTN
BBE	I	2017/01/16	2017/01/16	921636	5019398			BBG00FQWC4S5	AFDB 0.875 12/20/21 GDIF
BBE	I	2017/01/16	2017/01/16	921637	5019162			BBG00FRHZWM6	TITIM 2.5 07/19/23 EMTN
BBE	I	2017/01/16	2017/01/16	921638	5019000			BBG00FQTN142	BYLAN 1.25 12/20/21 EMTN
BBE	I	2017/01/16	2017/01/16	921639	5018333			BBG00FRJ32H9	CLNXSM 2.875 04/18/25 EMTN
EDI_ENDOFFILE
