EDI_CONVT_20170116
TableName	Actflag	Created	Changed	ConvtID	SecID	ISIN	FromDate	ToDate	RatioNew	RatioOld	CurenCD	CurPair	Price	MandOptFlag	ResSecID	ResSectyCD	ResISIN	ResIssuername	ResSecurityDesc	Fractions	FXrate	PartFinalFlag	PriceAsPercent	Notes
CONVT	U	2016/02/23	2017/01/16	24482	4177046	AT0000A0ZP23	2015/11/07		1.4000000	1.0000000	EUR		71.43000	O		CTF						P		
CONVT	U	2016/02/23	2017/01/16	24483	4177046	AT0000A0ZP23	2016/11/07		1.4000000	1.0000000	EUR		71.43000	O		CTF						P		
CONVT	U	2016/02/23	2017/01/16	24484	4177046	AT0000A0ZP23	2017/11/07		1.4000000	1.0000000	EUR		71.43000	O		CTF						P		
CONVT	U	2016/02/23	2017/01/16	24485	4177046	AT0000A0ZP23	2018/11/07		1.4000000	1.0000000	EUR		71.43000	O		CTF						P		
CONVT	U	2016/02/23	2017/01/16	24486	4177046	AT0000A0ZP23	2019/11/07		1.4000000	1.0000000	EUR		71.43000	O		CTF						P		
CONVT	U	2016/02/23	2017/01/16	24487	4177046	AT0000A0ZP23	2020/11/07		1.4000000	1.0000000	EUR		71.43000	O		CTF						P		
CONVT	U	2016/02/23	2017/01/16	24488	4177046	AT0000A0ZP23	2021/11/07		1.4000000	1.0000000	EUR		71.43000	O		CTF						P		
CONVT	U	2016/02/23	2017/01/16	24489	4177046	AT0000A0ZP23	2022/11/07		1.4000000	1.0000000	EUR		71.43000	O		CTF						P		
CONVT	U	2016/02/23	2017/01/16	24490	4177046	AT0000A0ZP23	2015/05/06		1.4000000	1.0000000	EUR		71.43000	O		CTF						P		
CONVT	I	2016/12/19	2016/12/19	27270	4729246	NO0010760036	2016/04/26	2022/04/10			USD		2.02000	O	285902	EQS	CY0100962113	Songa Offshore SE	Ordinary Shares			P		
CONVT	I	2017/01/14	2017/01/16	27404	5019156	US90187BAA98	2017/01/20	2022/01/14	100.0000000	1.0000000	USD		10.00000	O	1636137	EQS	US90187B1017	Two Harbors Investment Corp	Ordinary Shares			P		
EDI_ENDOFFILE
