EDI_GICCH_20170116
TableName	Actflag	Created	Changed	IssID	EffectiveDate	OldGICS	NewGICS	GICSChID
GICCH	I	2016/09/05	2016/09/05	86302	2016/09/05	40402060	60101070	1813
GICCH	I	2016/09/05	2016/09/05	132677	2016/09/05	40402030	40204010	1967
GICCH	I	2016/09/05	2016/09/05	3702	2016/09/05	40403020	60102020	2224
GICCH	I	2016/09/05	2016/09/05	79535	2016/09/05	40403030	60102030	2858
GICCH	I	2017/01/16	2017/01/16	179154	2017/01/16		35103010	5154
GICCH	I	2017/01/16	2017/01/16	102062	2017/01/16		40101010	5170
EDI_ENDOFFILE
